{"failedCount":1,"prefixedPath":"classpath:Feature\/PathAndParams.feature","packageQualifiedName":"Feature.PathAndParams","loopIndex":-1,"relativePath":"Feature\/PathAndParams.feature","scenarioResults":[{"sectionIndex":0,"stepResults":[{"result":{"nanos":522500,"millis":0.5225,"status":"passed"},"step":{"background":true,"line":5,"prefix":"*","index":0,"text":"url  'https:\/\/reqres.in\/'"}},{"result":{"nanos":348300,"millis":0.3483,"status":"passed"},"step":{"background":true,"line":6,"prefix":"*","index":1,"text":"header Accept = 'application\/json'"}},{"result":{"nanos":193100,"millis":0.1931,"status":"passed"},"step":{"line":9,"prefix":"Given","index":0,"text":"path 'api\/users?page=2'"}},{"result":{"nanos":140104800,"millis":140.1048,"status":"passed"},"step":{"line":10,"prefix":"When","index":1,"text":"method GET"},"stepLog":"06:36:52.930 request:\n1 > GET https:\/\/reqres.in\/api\/users%3Fpage=2\n1 > Accept: application\/json\n1 > Host: reqres.in\n1 > Connection: Keep-Alive\n1 > User-Agent: Apache-HttpClient\/4.5.12 (Java\/17.0.1)\n1 > Accept-Encoding: gzip,deflate\n\n\n06:36:53.068 response time in milliseconds: 138\n1 < 200\n1 < Date: Sun, 25 Sep 2022 10:36:50 GMT\n1 < Content-Type: application\/json; charset=utf-8\n1 < Transfer-Encoding: chunked\n1 < Connection: keep-alive\n1 < X-Powered-By: Express\n1 < Access-Control-Allow-Origin: *\n1 < Etag: W\/\"2c1-N6Rqerxquq2kgQhL51EiSg4x0R8\"\n1 < Via: 1.1 vegur\n1 < Cache-Control: max-age=14400\n1 < CF-Cache-Status: HIT\n1 < Age: 91\n1 < Report-To: {\"endpoints\":[{\"url\":\"https:\\\/\\\/a.nel.cloudflare.com\\\/report\\\/v3?s=zPzlLjagCF8ea8eltJLzMhYcyall6C53JXIn8C636eYGu%2BjMOWHevyLQkrCYzXd5JQmBOKQ6DkxF01DF8sFBSboztvQJaLCad0u2FagLil9WDeLfbwAwTRdw4w%3D%3D\"}],\"group\":\"cf-nel\",\"max_age\":604800}\n1 < NEL: {\"success_fraction\":0,\"report_to\":\"cf-nel\",\"max_age\":604800}\n1 < Vary: Accept-Encoding\n1 < Server: cloudflare\n1 < CF-RAY: 75031efc9fb8a1db-YYZ\n{\"page\":1,\"per_page\":6,\"total\":12,\"total_pages\":2,\"data\":[{\"id\":1,\"name\":\"cerulean\",\"year\":2000,\"color\":\"#98B2D1\",\"pantone_value\":\"15-4020\"},{\"id\":2,\"name\":\"fuchsia rose\",\"year\":2001,\"color\":\"#C74375\",\"pantone_value\":\"17-2031\"},{\"id\":3,\"name\":\"true red\",\"year\":2002,\"color\":\"#BF1932\",\"pantone_value\":\"19-1664\"},{\"id\":4,\"name\":\"aqua sky\",\"year\":2003,\"color\":\"#7BC4C4\",\"pantone_value\":\"14-4811\"},{\"id\":5,\"name\":\"tigerlily\",\"year\":2004,\"color\":\"#E2583E\",\"pantone_value\":\"17-1456\"},{\"id\":6,\"name\":\"blue turquoise\",\"year\":2005,\"color\":\"#53B0AE\",\"pantone_value\":\"15-5217\"}],\"support\":{\"url\":\"https:\/\/reqres.in\/#support-heading\",\"text\":\"To keep ReqRes free, contributions towards server costs are appreciated!\"}}\n\n"},{"result":{"nanos":7100,"millis":0.0071,"status":"passed"},"step":{"line":11,"prefix":"Then","index":2,"text":"status 200"}},{"result":{"nanos":23427600,"millis":23.4276,"status":"passed"},"step":{"line":12,"prefix":"And","index":3,"text":"print responseStatus"},"stepLog":"06:36:53.092 [print] 200 \n"},{"result":{"nanos":1353400,"millis":1.3534,"status":"passed"},"step":{"line":13,"prefix":"And","index":4,"text":"print responseHeaders"},"stepLog":"06:36:53.094 [print] {\n  \"Date\": [\n    \"Sun, 25 Sep 2022 10:36:50 GMT\"\n  ],\n  \"Content-Type\": [\n    \"application\/json; charset=utf-8\"\n  ],\n  \"Transfer-Encoding\": [\n    \"chunked\"\n  ],\n  \"Connection\": [\n    \"keep-alive\"\n  ],\n  \"X-Powered-By\": [\n    \"Express\"\n  ],\n  \"Access-Control-Allow-Origin\": [\n    \"*\"\n  ],\n  \"Etag\": [\n    \"W\/\\\"2c1-N6Rqerxquq2kgQhL51EiSg4x0R8\\\"\"\n  ],\n  \"Via\": [\n    \"1.1 vegur\"\n  ],\n  \"Cache-Control\": [\n    \"max-age=14400\"\n  ],\n  \"CF-Cache-Status\": [\n    \"HIT\"\n  ],\n  \"Age\": [\n    \"91\"\n  ],\n  \"Report-To\": [\n    \"{\\\"endpoints\\\":[{\\\"url\\\":\\\"https:\\\\\/\\\\\/a.nel.cloudflare.com\\\\\/report\\\\\/v3?s=zPzlLjagCF8ea8eltJLzMhYcyall6C53JXIn8C636eYGu%2BjMOWHevyLQkrCYzXd5JQmBOKQ6DkxF01DF8sFBSboztvQJaLCad0u2FagLil9WDeLfbwAwTRdw4w%3D%3D\\\"}],\\\"group\\\":\\\"cf-nel\\\",\\\"max_age\\\":604800}\"\n  ],\n  \"NEL\": [\n    \"{\\\"success_fraction\\\":0,\\\"report_to\\\":\\\"cf-nel\\\",\\\"max_age\\\":604800}\"\n  ],\n  \"Vary\": [\n    \"Accept-Encoding\"\n  ],\n  \"Server\": [\n    \"cloudflare\"\n  ],\n  \"CF-RAY\": [\n    \"75031efc9fb8a1db-YYZ\"\n  ]\n}\n \n"}],"executorName":"main","line":8,"name":"Test with path","description":"","durationMillis":165.9568,"startTime":1664102212927,"failed":false,"refId":"[1:8]","endTime":1664102213094,"exampleIndex":-1},{"sectionIndex":1,"stepResults":[{"result":{"nanos":141000,"millis":0.141,"status":"passed"},"step":{"background":true,"line":5,"prefix":"*","index":0,"text":"url  'https:\/\/reqres.in\/'"}},{"result":{"nanos":67100,"millis":0.0671,"status":"passed"},"step":{"background":true,"line":6,"prefix":"*","index":1,"text":"header Accept = 'application\/json'"}},{"result":{"nanos":262400,"millis":0.2624,"status":"passed"},"step":{"line":16,"prefix":"Given","index":0,"text":"path 'api\/users'"}},{"result":{"nanos":15168400,"errorMessage":"js failed:\n>>>>\n01: 2'\n<<<<\norg.graalvm.polyglot.PolyglotException: SyntaxError: Unnamed:1:2 Missing close quote\r\n2'\r\n  ^\n\n- org.graalvm.polyglot.Context.eval(Context.java:401)\n- com.intuit.karate.graal.JsEngine.evalForValue(JsEngine.java:141)\n- com.intuit.karate.graal.JsEngine.eval(JsEngine.java:137)\n- com.intuit.karate.core.ScenarioEngine.evalJs(ScenarioEngine.java:1344)\n- com.intuit.karate.core.ScenarioEngine.param(ScenarioEngine.java:388)\n- com.intuit.karate.ScenarioActions.param(ScenarioActions.java:88)\n- java.base\/jdk.internal.reflect.NativeMethodAccessorImpl.invoke0(Native Method)\n\nclasspath:Feature\/PathAndParams.feature:17","millis":15.1684,"status":"failed"},"step":{"line":17,"prefix":"And","index":1,"text":"param 'page = 2'"},"stepLog":"06:36:53.113 classpath:Feature\/PathAndParams.feature:17\nAnd param 'page = 2'\njs failed:\n>>>>\n01: 2'\n<<<<\norg.graalvm.polyglot.PolyglotException: SyntaxError: Unnamed:1:2 Missing close quote\r\n2'\r\n  ^\n\n- org.graalvm.polyglot.Context.eval(Context.java:401)\n- com.intuit.karate.graal.JsEngine.evalForValue(JsEngine.java:141)\n- com.intuit.karate.graal.JsEngine.eval(JsEngine.java:137)\n- com.intuit.karate.core.ScenarioEngine.evalJs(ScenarioEngine.java:1344)\n- com.intuit.karate.core.ScenarioEngine.param(ScenarioEngine.java:388)\n- com.intuit.karate.ScenarioActions.param(ScenarioActions.java:88)\n- java.base\/jdk.internal.reflect.NativeMethodAccessorImpl.invoke0(Native Method)\n\nclasspath:Feature\/PathAndParams.feature:17\n"},{"result":{"nanos":0,"millis":0.0,"status":"skipped"},"step":{"line":18,"prefix":"When","index":2,"text":"method GET"}},{"result":{"nanos":0,"millis":0.0,"status":"skipped"},"step":{"line":19,"prefix":"Then","index":3,"text":"status 200"}},{"result":{"nanos":0,"millis":0.0,"status":"skipped"},"step":{"line":20,"prefix":"And","index":4,"text":"print responseStatus"}},{"result":{"nanos":0,"millis":0.0,"status":"skipped"},"step":{"line":21,"prefix":"And","index":5,"text":"print responseHeaders"}}],"line":15,"description":"","durationMillis":15.6389,"failed":true,"error":"js failed:\n>>>>\n01: 2'\n<<<<\norg.graalvm.polyglot.PolyglotException: SyntaxError: Unnamed:1:2 Missing close quote\r\n2'\r\n  ^\n\n- org.graalvm.polyglot.Context.eval(Context.java:401)\n- com.intuit.karate.graal.JsEngine.evalForValue(JsEngine.java:141)\n- com.intuit.karate.graal.JsEngine.eval(JsEngine.java:137)\n- com.intuit.karate.core.ScenarioEngine.evalJs(ScenarioEngine.java:1344)\n- com.intuit.karate.core.ScenarioEngine.param(ScenarioEngine.java:388)\n- com.intuit.karate.ScenarioActions.param(ScenarioActions.java:88)\n- java.base\/jdk.internal.reflect.NativeMethodAccessorImpl.invoke0(Native Method)\n\nclasspath:Feature\/PathAndParams.feature:17","executorName":"main","name":"Test with params","startTime":1664102213097,"refId":"[2:15]","endTime":1664102213113,"exampleIndex":-1}],"callDepth":0,"name":"to show the use of path and params","description":"","resultDate":"2022-09-25 06:36:53 a.m.","durationMillis":181.5957,"passedCount":1}