{"failedCount":1,"prefixedPath":"src\/test\/java\/Feature\/Get.feature","packageQualifiedName":"src.test.java.Feature.Get","loopIndex":-1,"relativePath":"src\/test\/java\/Feature\/Get.feature","scenarioResults":[{"sectionIndex":0,"stepResults":[{"result":{"nanos":1142400,"millis":1.1424,"status":"passed"},"step":{"background":true,"line":5,"prefix":"*","index":0,"text":"url  'https:\/\/reqres.in\/'"}},{"result":{"nanos":419100,"millis":0.4191,"status":"passed"},"step":{"background":true,"line":6,"prefix":"*","index":1,"text":"header Accept = 'application\/json'"}},{"result":{"nanos":194500,"millis":0.1945,"status":"passed"},"step":{"line":9,"prefix":"Given","index":0,"text":"path 'api\/users?page=1'"}},{"result":{"nanos":38591600,"millis":38.5916,"status":"passed"},"step":{"line":10,"prefix":"And","index":1,"text":"print name"},"stepLog":"13:36:44.895 [print] Atul \n"},{"result":{"nanos":680800700,"millis":680.8007,"status":"passed"},"step":{"line":11,"prefix":"When","index":2,"text":"method GET"},"stepLog":"13:36:45.118 request:\n1 > GET https:\/\/reqres.in\/api\/users%3Fpage=1\n1 > Accept: application\/json\n1 > Host: reqres.in\n1 > Connection: Keep-Alive\n1 > User-Agent: Apache-HttpClient\/4.5.12 (Java\/17.0.1)\n1 > Accept-Encoding: gzip,deflate\n\n\n13:36:45.554 response time in milliseconds: 433\n1 < 200\n1 < Date: Sun, 25 Sep 2022 17:36:42 GMT\n1 < Content-Type: application\/json; charset=utf-8\n1 < Transfer-Encoding: chunked\n1 < Connection: keep-alive\n1 < X-Powered-By: Express\n1 < Access-Control-Allow-Origin: *\n1 < Etag: W\/\"2c1-N6Rqerxquq2kgQhL51EiSg4x0R8\"\n1 < Via: 1.1 vegur\n1 < Cache-Control: max-age=14400\n1 < CF-Cache-Status: HIT\n1 < Age: 443\n1 < Report-To: {\"endpoints\":[{\"url\":\"https:\\\/\\\/a.nel.cloudflare.com\\\/report\\\/v3?s=b4CPOKkuXtwZTvpMI9fBtAy2XPNBdsANBstIHczUD6g9khLI2wGdTRA%2B6gsZnHD3BjYgjNtTEaVJRNyPKRiwd4rT%2BLsSkW%2BaNXoo22Id8AyMDuKBSCRhfGEtKg%3D%3D\"}],\"group\":\"cf-nel\",\"max_age\":604800}\n1 < NEL: {\"success_fraction\":0,\"report_to\":\"cf-nel\",\"max_age\":604800}\n1 < Vary: Accept-Encoding\n1 < Server: cloudflare\n1 < CF-RAY: 750586075bdfa223-YYZ\n{\"page\":1,\"per_page\":6,\"total\":12,\"total_pages\":2,\"data\":[{\"id\":1,\"name\":\"cerulean\",\"year\":2000,\"color\":\"#98B2D1\",\"pantone_value\":\"15-4020\"},{\"id\":2,\"name\":\"fuchsia rose\",\"year\":2001,\"color\":\"#C74375\",\"pantone_value\":\"17-2031\"},{\"id\":3,\"name\":\"true red\",\"year\":2002,\"color\":\"#BF1932\",\"pantone_value\":\"19-1664\"},{\"id\":4,\"name\":\"aqua sky\",\"year\":2003,\"color\":\"#7BC4C4\",\"pantone_value\":\"14-4811\"},{\"id\":5,\"name\":\"tigerlily\",\"year\":2004,\"color\":\"#E2583E\",\"pantone_value\":\"17-1456\"},{\"id\":6,\"name\":\"blue turquoise\",\"year\":2005,\"color\":\"#53B0AE\",\"pantone_value\":\"15-5217\"}],\"support\":{\"url\":\"https:\/\/reqres.in\/#support-heading\",\"text\":\"To keep ReqRes free, contributions towards server costs are appreciated!\"}}\n\n"},{"result":{"nanos":18200,"millis":0.0182,"status":"passed"},"step":{"line":12,"prefix":"Then","index":3,"text":"status 200"}},{"result":{"nanos":3632500,"millis":3.6325,"status":"passed"},"step":{"line":13,"prefix":"And","index":4,"text":"print response"},"stepLog":"13:36:45.580 [print] {\n  \"page\": 1,\n  \"per_page\": 6,\n  \"total\": 12,\n  \"total_pages\": 2,\n  \"data\": [\n    {\n      \"id\": 1,\n      \"name\": \"cerulean\",\n      \"year\": 2000,\n      \"color\": \"#98B2D1\",\n      \"pantone_value\": \"15-4020\"\n    },\n    {\n      \"id\": 2,\n      \"name\": \"fuchsia rose\",\n      \"year\": 2001,\n      \"color\": \"#C74375\",\n      \"pantone_value\": \"17-2031\"\n    },\n    {\n      \"id\": 3,\n      \"name\": \"true red\",\n      \"year\": 2002,\n      \"color\": \"#BF1932\",\n      \"pantone_value\": \"19-1664\"\n    },\n    {\n      \"id\": 4,\n      \"name\": \"aqua sky\",\n      \"year\": 2003,\n      \"color\": \"#7BC4C4\",\n      \"pantone_value\": \"14-4811\"\n    },\n    {\n      \"id\": 5,\n      \"name\": \"tigerlily\",\n      \"year\": 2004,\n      \"color\": \"#E2583E\",\n      \"pantone_value\": \"17-1456\"\n    },\n    {\n      \"id\": 6,\n      \"name\": \"blue turquoise\",\n      \"year\": 2005,\n      \"color\": \"#53B0AE\",\n      \"pantone_value\": \"15-5217\"\n    }\n  ],\n  \"support\": {\n    \"url\": \"https:\/\/reqres.in\/#support-heading\",\n    \"text\": \"To keep ReqRes free, contributions towards server costs are appreciated!\"\n  }\n}\n \n"},{"result":{"nanos":0,"errorMessage":"no step-definition method match found for: def jsonRes=response.page\nsrc\/test\/java\/Feature\/Get.feature:14","millis":0.0,"status":"failed"},"step":{"line":14,"prefix":"And","index":5,"text":"def jsonRes=response.page"},"stepLog":"13:36:45.580 src\/test\/java\/Feature\/Get.feature:14\nAnd def jsonRes=response.page\nno step-definition method match found for: def jsonRes=response.page\nsrc\/test\/java\/Feature\/Get.feature:14\n"},{"result":{"nanos":0,"millis":0.0,"status":"skipped"},"step":{"line":15,"prefix":"And","index":6,"text":"print jsonRes"}}],"line":8,"description":"","durationMillis":724.799,"failed":true,"error":"no step-definition method match found for: def jsonRes=response.page\nsrc\/test\/java\/Feature\/Get.feature:14","executorName":"main","name":"Test with path","startTime":1664127404737,"refId":"[1:8]","endTime":1664127405581,"exampleIndex":-1},{"sectionIndex":1,"stepResults":[{"result":{"nanos":225800,"millis":0.2258,"status":"passed"},"step":{"background":true,"line":5,"prefix":"*","index":0,"text":"url  'https:\/\/reqres.in\/'"}},{"result":{"nanos":96200,"millis":0.0962,"status":"passed"},"step":{"background":true,"line":6,"prefix":"*","index":1,"text":"header Accept = 'application\/json'"}},{"result":{"nanos":202700,"millis":0.2027,"status":"passed"},"step":{"line":18,"prefix":"Given","index":0,"text":"path 'api\/users'"}},{"result":{"nanos":932200,"millis":0.9322,"status":"passed"},"step":{"line":19,"prefix":"And","index":1,"text":"param page = 2"}},{"result":{"nanos":123694800,"millis":123.6948,"status":"passed"},"step":{"line":20,"prefix":"When","index":2,"text":"method GET"},"stepLog":"13:36:45.589 request:\n1 > GET https:\/\/reqres.in\/api\/users?page=2\n1 > Accept: application\/json\n1 > Host: reqres.in\n1 > Connection: Keep-Alive\n1 > User-Agent: Apache-HttpClient\/4.5.12 (Java\/17.0.1)\n1 > Accept-Encoding: gzip,deflate\n\n\n13:36:45.709 response time in milliseconds: 120\n1 < 200\n1 < Date: Sun, 25 Sep 2022 17:36:42 GMT\n1 < Content-Type: application\/json; charset=utf-8\n1 < Transfer-Encoding: chunked\n1 < Connection: keep-alive\n1 < X-Powered-By: Express\n1 < Access-Control-Allow-Origin: *\n1 < Etag: W\/\"406-ut0vzoCuidvyMf8arZpMpJ6ZRDw\"\n1 < Via: 1.1 vegur\n1 < Cache-Control: max-age=14400\n1 < CF-Cache-Status: HIT\n1 < Age: 3516\n1 < Report-To: {\"endpoints\":[{\"url\":\"https:\\\/\\\/a.nel.cloudflare.com\\\/report\\\/v3?s=J87Wfd9ZA5EMDSUKnpWIYdqsL6mtusX2P5vXTlycqa3xk58Mn2Xh8fiX5ol2j%2FGDLkW50F%2FYDDiHpGHp%2FPwgAPJa1gQbqmkoWMcN9keJ%2FuaWastNII8Fg87BCQ%3D%3D\"}],\"group\":\"cf-nel\",\"max_age\":604800}\n1 < NEL: {\"success_fraction\":0,\"report_to\":\"cf-nel\",\"max_age\":604800}\n1 < Vary: Accept-Encoding\n1 < Server: cloudflare\n1 < CF-RAY: 750586085f675431-YYZ\n{\"page\":2,\"per_page\":6,\"total\":12,\"total_pages\":2,\"data\":[{\"id\":7,\"email\":\"michael.lawson@reqres.in\",\"first_name\":\"Michael\",\"last_name\":\"Lawson\",\"avatar\":\"https:\/\/reqres.in\/img\/faces\/7-image.jpg\"},{\"id\":8,\"email\":\"lindsay.ferguson@reqres.in\",\"first_name\":\"Lindsay\",\"last_name\":\"Ferguson\",\"avatar\":\"https:\/\/reqres.in\/img\/faces\/8-image.jpg\"},{\"id\":9,\"email\":\"tobias.funke@reqres.in\",\"first_name\":\"Tobias\",\"last_name\":\"Funke\",\"avatar\":\"https:\/\/reqres.in\/img\/faces\/9-image.jpg\"},{\"id\":10,\"email\":\"byron.fields@reqres.in\",\"first_name\":\"Byron\",\"last_name\":\"Fields\",\"avatar\":\"https:\/\/reqres.in\/img\/faces\/10-image.jpg\"},{\"id\":11,\"email\":\"george.edwards@reqres.in\",\"first_name\":\"George\",\"last_name\":\"Edwards\",\"avatar\":\"https:\/\/reqres.in\/img\/faces\/11-image.jpg\"},{\"id\":12,\"email\":\"rachel.howell@reqres.in\",\"first_name\":\"Rachel\",\"last_name\":\"Howell\",\"avatar\":\"https:\/\/reqres.in\/img\/faces\/12-image.jpg\"}],\"support\":{\"url\":\"https:\/\/reqres.in\/#support-heading\",\"text\":\"To keep ReqRes free, contributions towards server costs are appreciated!\"}}\n\n"},{"result":{"nanos":67700,"millis":0.0677,"status":"passed"},"step":{"line":21,"prefix":"Then","index":3,"text":"status 200"}},{"result":{"nanos":1898300,"millis":1.8983,"status":"passed"},"step":{"line":22,"prefix":"And","index":4,"text":"print responseStatus"},"stepLog":"13:36:45.713 [print] 200 \n"},{"result":{"nanos":2149200,"millis":2.1492,"status":"passed"},"step":{"line":23,"prefix":"And","index":5,"text":"print responseHeaders"},"stepLog":"13:36:45.716 [print] {\n  \"Date\": [\n    \"Sun, 25 Sep 2022 17:36:42 GMT\"\n  ],\n  \"Content-Type\": [\n    \"application\/json; charset=utf-8\"\n  ],\n  \"Transfer-Encoding\": [\n    \"chunked\"\n  ],\n  \"Connection\": [\n    \"keep-alive\"\n  ],\n  \"X-Powered-By\": [\n    \"Express\"\n  ],\n  \"Access-Control-Allow-Origin\": [\n    \"*\"\n  ],\n  \"Etag\": [\n    \"W\/\\\"406-ut0vzoCuidvyMf8arZpMpJ6ZRDw\\\"\"\n  ],\n  \"Via\": [\n    \"1.1 vegur\"\n  ],\n  \"Cache-Control\": [\n    \"max-age=14400\"\n  ],\n  \"CF-Cache-Status\": [\n    \"HIT\"\n  ],\n  \"Age\": [\n    \"3516\"\n  ],\n  \"Report-To\": [\n    \"{\\\"endpoints\\\":[{\\\"url\\\":\\\"https:\\\\\/\\\\\/a.nel.cloudflare.com\\\\\/report\\\\\/v3?s=J87Wfd9ZA5EMDSUKnpWIYdqsL6mtusX2P5vXTlycqa3xk58Mn2Xh8fiX5ol2j%2FGDLkW50F%2FYDDiHpGHp%2FPwgAPJa1gQbqmkoWMcN9keJ%2FuaWastNII8Fg87BCQ%3D%3D\\\"}],\\\"group\\\":\\\"cf-nel\\\",\\\"max_age\\\":604800}\"\n  ],\n  \"NEL\": [\n    \"{\\\"success_fraction\\\":0,\\\"report_to\\\":\\\"cf-nel\\\",\\\"max_age\\\":604800}\"\n  ],\n  \"Vary\": [\n    \"Accept-Encoding\"\n  ],\n  \"Server\": [\n    \"cloudflare\"\n  ],\n  \"CF-RAY\": [\n    \"750586085f675431-YYZ\"\n  ]\n}\n \n"},{"result":{"nanos":12519400,"millis":12.5194,"status":"passed"},"step":{"line":24,"prefix":"And","index":6,"text":"assert response.data.length == 6"}},{"result":{"nanos":22608700,"millis":22.6087,"status":"passed"},"step":{"line":25,"prefix":"And","index":7,"text":"match response contains { \"page\":2, \"per_page\":6,   \"total\": 12, \"total_pages\": 2,}"}}],"executorName":"main","line":17,"name":"Test with params","description":"","durationMillis":164.395,"startTime":1664127405585,"failed":false,"refId":"[2:17]","endTime":1664127405751,"exampleIndex":-1}],"callDepth":0,"name":"to show the use of Get","description":"","resultDate":"2022-09-25 01:36:45 p.m.","durationMillis":889.194,"passedCount":1}