{"failedCount":1,"prefixedPath":"src\/test\/java\/Feature\/sample.feature","packageQualifiedName":"src.test.java.Feature.sample","loopIndex":-1,"relativePath":"src\/test\/java\/Feature\/sample.feature","scenarioResults":[{"sectionIndex":0,"stepResults":[{"result":{"nanos":22775900,"errorMessage":"net.minidev.json.parser.ParseException: Unexpected End Of File position 34: null\nsrc\/test\/java\/Feature\/sample.feature:4","millis":22.7759,"status":"failed"},"step":{"line":4,"prefix":"Given","index":0,"text":"configure headers = {Content-Type = 'application\/json'}"},"stepLog":"17:18:17.370 src\/test\/java\/Feature\/sample.feature:4\nGiven configure headers = {Content-Type = 'application\/json'}\nnet.minidev.json.parser.ParseException: Unexpected End Of File position 34: null\nsrc\/test\/java\/Feature\/sample.feature:4\n"},{"result":{"nanos":0,"millis":0.0,"status":"skipped"},"step":{"line":5,"prefix":"Given","index":1,"text":"url 'https:\/\/swapi.dev\/'"}},{"result":{"nanos":0,"millis":0.0,"status":"skipped"},"step":{"line":6,"prefix":"And","index":2,"text":"path 'api\/people\/1\/'"}},{"result":{"nanos":0,"millis":0.0,"status":"skipped"},"step":{"line":7,"prefix":"When","index":3,"text":"method GET"}},{"result":{"nanos":0,"millis":0.0,"status":"skipped"},"step":{"line":8,"prefix":"Then","index":4,"text":"status 200"}},{"result":{"nanos":0,"millis":0.0,"status":"skipped"},"step":{"line":9,"prefix":"*","index":5,"text":"print response"}},{"result":{"nanos":0,"millis":0.0,"status":"skipped"},"step":{"line":10,"prefix":"*","index":6,"text":"print responseHeaders"}}],"line":3,"description":"","durationMillis":22.7759,"failed":true,"error":"net.minidev.json.parser.ParseException: Unexpected End Of File position 34: null\nsrc\/test\/java\/Feature\/sample.feature:4","executorName":"main","name":"To test the GET call.","startTime":1664140697229,"refId":"[1:3]","endTime":1664140697371,"exampleIndex":-1},{"sectionIndex":1,"stepResults":[{"result":{"nanos":933800,"millis":0.9338,"status":"passed"},"step":{"line":14,"prefix":"Given","index":0,"text":"url 'https:\/\/reqres.in\/api\/users?page=2'"}},{"result":{"nanos":533546700,"millis":533.5467,"status":"passed"},"step":{"line":15,"prefix":"When","index":1,"text":"method GET"},"stepLog":"17:18:17.588 request:\n1 > GET https:\/\/reqres.in\/api\/users?page=2\n1 > Host: reqres.in\n1 > Connection: Keep-Alive\n1 > User-Agent: Apache-HttpClient\/4.5.12 (Java\/17.0.1)\n1 > Accept-Encoding: gzip,deflate\n\n\n17:18:17.903 response time in milliseconds: 310\n1 < 200\n1 < Date: Sun, 25 Sep 2022 21:18:14 GMT\n1 < Content-Type: application\/json; charset=utf-8\n1 < Transfer-Encoding: chunked\n1 < Connection: keep-alive\n1 < X-Powered-By: Express\n1 < Access-Control-Allow-Origin: *\n1 < Etag: W\/\"406-ut0vzoCuidvyMf8arZpMpJ6ZRDw\"\n1 < Via: 1.1 vegur\n1 < Cache-Control: max-age=14400\n1 < CF-Cache-Status: HIT\n1 < Age: 2328\n1 < Report-To: {\"endpoints\":[{\"url\":\"https:\\\/\\\/a.nel.cloudflare.com\\\/report\\\/v3?s=fQVR%2BrITUstd8KD%2FwUP%2Fg2wzoG%2BnRZTCYrFoyX7ZSV0pgu1gT1fCFq2hHwcPwcIARGCtkhhRsMkrg7a3xNL3NOzRZzVQwuu4FDn3F7Y%2Bv8tgxRV%2BDzNqJIWpUA%3D%3D\"}],\"group\":\"cf-nel\",\"max_age\":604800}\n1 < NEL: {\"success_fraction\":0,\"report_to\":\"cf-nel\",\"max_age\":604800}\n1 < Vary: Accept-Encoding\n1 < Server: cloudflare\n1 < CF-RAY: 7506ca8b3b9ea226-YYZ\n{\"page\":2,\"per_page\":6,\"total\":12,\"total_pages\":2,\"data\":[{\"id\":7,\"email\":\"michael.lawson@reqres.in\",\"first_name\":\"Michael\",\"last_name\":\"Lawson\",\"avatar\":\"https:\/\/reqres.in\/img\/faces\/7-image.jpg\"},{\"id\":8,\"email\":\"lindsay.ferguson@reqres.in\",\"first_name\":\"Lindsay\",\"last_name\":\"Ferguson\",\"avatar\":\"https:\/\/reqres.in\/img\/faces\/8-image.jpg\"},{\"id\":9,\"email\":\"tobias.funke@reqres.in\",\"first_name\":\"Tobias\",\"last_name\":\"Funke\",\"avatar\":\"https:\/\/reqres.in\/img\/faces\/9-image.jpg\"},{\"id\":10,\"email\":\"byron.fields@reqres.in\",\"first_name\":\"Byron\",\"last_name\":\"Fields\",\"avatar\":\"https:\/\/reqres.in\/img\/faces\/10-image.jpg\"},{\"id\":11,\"email\":\"george.edwards@reqres.in\",\"first_name\":\"George\",\"last_name\":\"Edwards\",\"avatar\":\"https:\/\/reqres.in\/img\/faces\/11-image.jpg\"},{\"id\":12,\"email\":\"rachel.howell@reqres.in\",\"first_name\":\"Rachel\",\"last_name\":\"Howell\",\"avatar\":\"https:\/\/reqres.in\/img\/faces\/12-image.jpg\"}],\"support\":{\"url\":\"https:\/\/reqres.in\/#support-heading\",\"text\":\"To keep ReqRes free, contributions towards server costs are appreciated!\"}}\n\n"},{"result":{"nanos":45700,"millis":0.0457,"status":"passed"},"step":{"line":16,"prefix":"Then","index":2,"text":"status 200"}},{"result":{"nanos":43229600,"millis":43.2296,"status":"passed"},"step":{"line":17,"prefix":"And","index":3,"text":"print response"},"stepLog":"17:18:17.956 [print] {\n  \"page\": 2,\n  \"per_page\": 6,\n  \"total\": 12,\n  \"total_pages\": 2,\n  \"data\": [\n    {\n      \"id\": 7,\n      \"email\": \"michael.lawson@reqres.in\",\n      \"first_name\": \"Michael\",\n      \"last_name\": \"Lawson\",\n      \"avatar\": \"https:\/\/reqres.in\/img\/faces\/7-image.jpg\"\n    },\n    {\n      \"id\": 8,\n      \"email\": \"lindsay.ferguson@reqres.in\",\n      \"first_name\": \"Lindsay\",\n      \"last_name\": \"Ferguson\",\n      \"avatar\": \"https:\/\/reqres.in\/img\/faces\/8-image.jpg\"\n    },\n    {\n      \"id\": 9,\n      \"email\": \"tobias.funke@reqres.in\",\n      \"first_name\": \"Tobias\",\n      \"last_name\": \"Funke\",\n      \"avatar\": \"https:\/\/reqres.in\/img\/faces\/9-image.jpg\"\n    },\n    {\n      \"id\": 10,\n      \"email\": \"byron.fields@reqres.in\",\n      \"first_name\": \"Byron\",\n      \"last_name\": \"Fields\",\n      \"avatar\": \"https:\/\/reqres.in\/img\/faces\/10-image.jpg\"\n    },\n    {\n      \"id\": 11,\n      \"email\": \"george.edwards@reqres.in\",\n      \"first_name\": \"George\",\n      \"last_name\": \"Edwards\",\n      \"avatar\": \"https:\/\/reqres.in\/img\/faces\/11-image.jpg\"\n    },\n    {\n      \"id\": 12,\n      \"email\": \"rachel.howell@reqres.in\",\n      \"first_name\": \"Rachel\",\n      \"last_name\": \"Howell\",\n      \"avatar\": \"https:\/\/reqres.in\/img\/faces\/12-image.jpg\"\n    }\n  ],\n  \"support\": {\n    \"url\": \"https:\/\/reqres.in\/#support-heading\",\n    \"text\": \"To keep ReqRes free, contributions towards server costs are appreciated!\"\n  }\n}\n \n"},{"result":{"nanos":914500,"millis":0.9145,"status":"passed"},"step":{"line":18,"prefix":"And","index":4,"text":"print responseTime"},"stepLog":"17:18:17.957 [print] 310 \n"}],"executorName":"main","line":13,"name":"To test fake get call","description":"","durationMillis":578.6703,"startTime":1664140697376,"failed":false,"refId":"[2:13]","endTime":1664140697957,"exampleIndex":-1}],"callDepth":0,"name":"This is sample GET feature for testing.","description":"","resultDate":"2022-09-25 05:18:17 p.m.","durationMillis":601.4462,"passedCount":1}