{"failedCount":0,"prefixedPath":"src\/test\/java\/Feature\/Get.feature","packageQualifiedName":"src.test.java.Feature.Get","loopIndex":-1,"relativePath":"src\/test\/java\/Feature\/Get.feature","scenarioResults":[{"sectionIndex":0,"stepResults":[{"result":{"nanos":1382200,"millis":1.3822,"status":"passed"},"step":{"background":true,"line":5,"prefix":"*","index":0,"text":"url  'https:\/\/reqres.in\/'"}},{"result":{"nanos":1660200,"millis":1.6602,"status":"passed"},"step":{"background":true,"line":6,"prefix":"*","index":1,"text":"header Accept = 'application\/json'"}},{"result":{"nanos":732200,"millis":0.7322,"status":"passed"},"step":{"line":9,"prefix":"Given","index":0,"text":"path 'api\/users?page=1'"}},{"result":{"nanos":39192600,"millis":39.1926,"status":"passed"},"step":{"line":10,"prefix":"And","index":1,"text":"print name"},"stepLog":"13:51:31.192 [print] Atul \n"},{"result":{"nanos":632720600,"millis":632.7206,"status":"passed"},"step":{"line":11,"prefix":"When","index":2,"text":"method GET"},"stepLog":"13:51:31.447 request:\n1 > GET https:\/\/reqres.in\/api\/users%3Fpage=1\n1 > Accept: application\/json\n1 > Host: reqres.in\n1 > Connection: Keep-Alive\n1 > User-Agent: Apache-HttpClient\/4.5.12 (Java\/17.0.1)\n1 > Accept-Encoding: gzip,deflate\n\n\n13:51:31.794 response time in milliseconds: 345\n1 < 200\n1 < Date: Sun, 25 Sep 2022 17:51:28 GMT\n1 < Content-Type: application\/json; charset=utf-8\n1 < Transfer-Encoding: chunked\n1 < Connection: keep-alive\n1 < X-Powered-By: Express\n1 < Access-Control-Allow-Origin: *\n1 < Etag: W\/\"2c1-N6Rqerxquq2kgQhL51EiSg4x0R8\"\n1 < Via: 1.1 vegur\n1 < Cache-Control: max-age=14400\n1 < CF-Cache-Status: HIT\n1 < Age: 1329\n1 < Report-To: {\"endpoints\":[{\"url\":\"https:\\\/\\\/a.nel.cloudflare.com\\\/report\\\/v3?s=8lN0sySJFQGGGMJ2Wo7x1IhwmRbDpzRfkHz36zpgX6rdYy9re4qfA0j1GO0%2BKmXVNTbVcxBz26Ul80prbhNUkMkQ5Eb0QoZ4TqY6bUq3A%2F4IakemALJhYu1bwA%3D%3D\"}],\"group\":\"cf-nel\",\"max_age\":604800}\n1 < NEL: {\"success_fraction\":0,\"report_to\":\"cf-nel\",\"max_age\":604800}\n1 < Vary: Accept-Encoding\n1 < Server: cloudflare\n1 < CF-RAY: 75059baa3a08a22e-YYZ\n{\"page\":1,\"per_page\":6,\"total\":12,\"total_pages\":2,\"data\":[{\"id\":1,\"name\":\"cerulean\",\"year\":2000,\"color\":\"#98B2D1\",\"pantone_value\":\"15-4020\"},{\"id\":2,\"name\":\"fuchsia rose\",\"year\":2001,\"color\":\"#C74375\",\"pantone_value\":\"17-2031\"},{\"id\":3,\"name\":\"true red\",\"year\":2002,\"color\":\"#BF1932\",\"pantone_value\":\"19-1664\"},{\"id\":4,\"name\":\"aqua sky\",\"year\":2003,\"color\":\"#7BC4C4\",\"pantone_value\":\"14-4811\"},{\"id\":5,\"name\":\"tigerlily\",\"year\":2004,\"color\":\"#E2583E\",\"pantone_value\":\"17-1456\"},{\"id\":6,\"name\":\"blue turquoise\",\"year\":2005,\"color\":\"#53B0AE\",\"pantone_value\":\"15-5217\"}],\"support\":{\"url\":\"https:\/\/reqres.in\/#support-heading\",\"text\":\"To keep ReqRes free, contributions towards server costs are appreciated!\"}}\n\n"},{"result":{"nanos":19500,"millis":0.0195,"status":"passed"},"step":{"line":12,"prefix":"Then","index":3,"text":"status 200"}},{"result":{"nanos":3522500,"millis":3.5225,"status":"passed"},"step":{"line":13,"prefix":"And","index":4,"text":"print response"},"stepLog":"13:51:31.830 [print] {\n  \"page\": 1,\n  \"per_page\": 6,\n  \"total\": 12,\n  \"total_pages\": 2,\n  \"data\": [\n    {\n      \"id\": 1,\n      \"name\": \"cerulean\",\n      \"year\": 2000,\n      \"color\": \"#98B2D1\",\n      \"pantone_value\": \"15-4020\"\n    },\n    {\n      \"id\": 2,\n      \"name\": \"fuchsia rose\",\n      \"year\": 2001,\n      \"color\": \"#C74375\",\n      \"pantone_value\": \"17-2031\"\n    },\n    {\n      \"id\": 3,\n      \"name\": \"true red\",\n      \"year\": 2002,\n      \"color\": \"#BF1932\",\n      \"pantone_value\": \"19-1664\"\n    },\n    {\n      \"id\": 4,\n      \"name\": \"aqua sky\",\n      \"year\": 2003,\n      \"color\": \"#7BC4C4\",\n      \"pantone_value\": \"14-4811\"\n    },\n    {\n      \"id\": 5,\n      \"name\": \"tigerlily\",\n      \"year\": 2004,\n      \"color\": \"#E2583E\",\n      \"pantone_value\": \"17-1456\"\n    },\n    {\n      \"id\": 6,\n      \"name\": \"blue turquoise\",\n      \"year\": 2005,\n      \"color\": \"#53B0AE\",\n      \"pantone_value\": \"15-5217\"\n    }\n  ],\n  \"support\": {\n    \"url\": \"https:\/\/reqres.in\/#support-heading\",\n    \"text\": \"To keep ReqRes free, contributions towards server costs are appreciated!\"\n  }\n}\n \n"},{"result":{"nanos":17696400,"millis":17.6964,"status":"passed"},"step":{"line":14,"prefix":"And","index":5,"text":"def jsonRes = $.total_pages"}},{"result":{"nanos":1637900,"millis":1.6379,"status":"passed"},"step":{"line":15,"prefix":"And","index":6,"text":"print jsonRes"},"stepLog":"13:51:31.849 [print] 2 \n"},{"result":{"nanos":1367400,"millis":1.3674,"status":"passed"},"step":{"line":16,"prefix":"And","index":7,"text":"def jsonRes1 = $.data[2].email"}},{"result":{"nanos":698800,"millis":0.6988,"status":"passed"},"step":{"line":17,"prefix":"And","index":8,"text":"print jsonRes1"},"stepLog":"13:51:31.852 [print] #notpresent \n"}],"executorName":"main","line":8,"name":"Test with path","description":"","durationMillis":700.6303,"startTime":1664128291009,"failed":false,"refId":"[1:8]","endTime":1664128291852,"exampleIndex":-1},{"sectionIndex":1,"stepResults":[{"result":{"nanos":233000,"millis":0.233,"status":"passed"},"step":{"background":true,"line":5,"prefix":"*","index":0,"text":"url  'https:\/\/reqres.in\/'"}},{"result":{"nanos":141700,"millis":0.1417,"status":"passed"},"step":{"background":true,"line":6,"prefix":"*","index":1,"text":"header Accept = 'application\/json'"}},{"result":{"nanos":219100,"millis":0.2191,"status":"passed"},"step":{"line":20,"prefix":"Given","index":0,"text":"path 'api\/users'"}},{"result":{"nanos":973600,"millis":0.9736,"status":"passed"},"step":{"line":21,"prefix":"And","index":1,"text":"param page = 2"}},{"result":{"nanos":192409900,"millis":192.4099,"status":"passed"},"step":{"line":22,"prefix":"When","index":2,"text":"method GET"},"stepLog":"13:51:31.861 request:\n1 > GET https:\/\/reqres.in\/api\/users?page=2\n1 > Accept: application\/json\n1 > Host: reqres.in\n1 > Connection: Keep-Alive\n1 > User-Agent: Apache-HttpClient\/4.5.12 (Java\/17.0.1)\n1 > Accept-Encoding: gzip,deflate\n\n\n13:51:32.052 response time in milliseconds: 191\n1 < 200\n1 < Date: Sun, 25 Sep 2022 17:51:28 GMT\n1 < Content-Type: application\/json; charset=utf-8\n1 < Transfer-Encoding: chunked\n1 < Connection: keep-alive\n1 < X-Powered-By: Express\n1 < Access-Control-Allow-Origin: *\n1 < Etag: W\/\"406-ut0vzoCuidvyMf8arZpMpJ6ZRDw\"\n1 < Via: 1.1 vegur\n1 < Cache-Control: max-age=14400\n1 < CF-Cache-Status: HIT\n1 < Age: 4402\n1 < Report-To: {\"endpoints\":[{\"url\":\"https:\\\/\\\/a.nel.cloudflare.com\\\/report\\\/v3?s=mO63LchFcNqdlQu8nsza3hS6LLbimnKUGEOGKRlC2QXVmHwMGJNui9Fc%2B1eM3o6%2BZP35cWjLPLNeP9COvZFjZpkIp8qtdcGp306Gu%2F0KT2L6Vx%2B%2BP7U6vkq%2BJg%3D%3D\"}],\"group\":\"cf-nel\",\"max_age\":604800}\n1 < NEL: {\"success_fraction\":0,\"report_to\":\"cf-nel\",\"max_age\":604800}\n1 < Vary: Accept-Encoding\n1 < Server: cloudflare\n1 < CF-RAY: 75059babe80da214-YYZ\n{\"page\":2,\"per_page\":6,\"total\":12,\"total_pages\":2,\"data\":[{\"id\":7,\"email\":\"michael.lawson@reqres.in\",\"first_name\":\"Michael\",\"last_name\":\"Lawson\",\"avatar\":\"https:\/\/reqres.in\/img\/faces\/7-image.jpg\"},{\"id\":8,\"email\":\"lindsay.ferguson@reqres.in\",\"first_name\":\"Lindsay\",\"last_name\":\"Ferguson\",\"avatar\":\"https:\/\/reqres.in\/img\/faces\/8-image.jpg\"},{\"id\":9,\"email\":\"tobias.funke@reqres.in\",\"first_name\":\"Tobias\",\"last_name\":\"Funke\",\"avatar\":\"https:\/\/reqres.in\/img\/faces\/9-image.jpg\"},{\"id\":10,\"email\":\"byron.fields@reqres.in\",\"first_name\":\"Byron\",\"last_name\":\"Fields\",\"avatar\":\"https:\/\/reqres.in\/img\/faces\/10-image.jpg\"},{\"id\":11,\"email\":\"george.edwards@reqres.in\",\"first_name\":\"George\",\"last_name\":\"Edwards\",\"avatar\":\"https:\/\/reqres.in\/img\/faces\/11-image.jpg\"},{\"id\":12,\"email\":\"rachel.howell@reqres.in\",\"first_name\":\"Rachel\",\"last_name\":\"Howell\",\"avatar\":\"https:\/\/reqres.in\/img\/faces\/12-image.jpg\"}],\"support\":{\"url\":\"https:\/\/reqres.in\/#support-heading\",\"text\":\"To keep ReqRes free, contributions towards server costs are appreciated!\"}}\n\n"},{"result":{"nanos":11300,"millis":0.0113,"status":"passed"},"step":{"line":23,"prefix":"Then","index":3,"text":"status 200"}},{"result":{"nanos":1450500,"millis":1.4505,"status":"passed"},"step":{"line":24,"prefix":"And","index":4,"text":"print responseStatus"},"stepLog":"13:51:32.054 [print] 200 \n"},{"result":{"nanos":1880800,"millis":1.8808,"status":"passed"},"step":{"line":25,"prefix":"And","index":5,"text":"print responseHeaders"},"stepLog":"13:51:32.056 [print] {\n  \"Date\": [\n    \"Sun, 25 Sep 2022 17:51:28 GMT\"\n  ],\n  \"Content-Type\": [\n    \"application\/json; charset=utf-8\"\n  ],\n  \"Transfer-Encoding\": [\n    \"chunked\"\n  ],\n  \"Connection\": [\n    \"keep-alive\"\n  ],\n  \"X-Powered-By\": [\n    \"Express\"\n  ],\n  \"Access-Control-Allow-Origin\": [\n    \"*\"\n  ],\n  \"Etag\": [\n    \"W\/\\\"406-ut0vzoCuidvyMf8arZpMpJ6ZRDw\\\"\"\n  ],\n  \"Via\": [\n    \"1.1 vegur\"\n  ],\n  \"Cache-Control\": [\n    \"max-age=14400\"\n  ],\n  \"CF-Cache-Status\": [\n    \"HIT\"\n  ],\n  \"Age\": [\n    \"4402\"\n  ],\n  \"Report-To\": [\n    \"{\\\"endpoints\\\":[{\\\"url\\\":\\\"https:\\\\\/\\\\\/a.nel.cloudflare.com\\\\\/report\\\\\/v3?s=mO63LchFcNqdlQu8nsza3hS6LLbimnKUGEOGKRlC2QXVmHwMGJNui9Fc%2B1eM3o6%2BZP35cWjLPLNeP9COvZFjZpkIp8qtdcGp306Gu%2F0KT2L6Vx%2B%2BP7U6vkq%2BJg%3D%3D\\\"}],\\\"group\\\":\\\"cf-nel\\\",\\\"max_age\\\":604800}\"\n  ],\n  \"NEL\": [\n    \"{\\\"success_fraction\\\":0,\\\"report_to\\\":\\\"cf-nel\\\",\\\"max_age\\\":604800}\"\n  ],\n  \"Vary\": [\n    \"Accept-Encoding\"\n  ],\n  \"Server\": [\n    \"cloudflare\"\n  ],\n  \"CF-RAY\": [\n    \"75059babe80da214-YYZ\"\n  ]\n}\n \n"},{"result":{"nanos":8549100,"millis":8.5491,"status":"passed"},"step":{"line":26,"prefix":"And","index":6,"text":"assert response.data.length == 6"}},{"result":{"nanos":7366200,"millis":7.3662,"status":"passed"},"step":{"line":27,"prefix":"And","index":7,"text":"match response contains { \"page\":2, \"per_page\":6,   \"total\": 12, \"total_pages\": 2,}"}}],"executorName":"main","line":19,"name":"Test with params","description":"","durationMillis":213.2352,"startTime":1664128291856,"failed":false,"refId":"[2:19]","endTime":1664128292073,"exampleIndex":-1}],"callDepth":0,"name":"to show the use of Get","description":"","resultDate":"2022-09-25 01:51:32 p.m.","durationMillis":913.8655,"passedCount":2}