{"failedCount":1,"prefixedPath":"src\/test\/java\/Feature\/Get.feature","packageQualifiedName":"src.test.java.Feature.Get","loopIndex":-1,"relativePath":"src\/test\/java\/Feature\/Get.feature","scenarioResults":[{"sectionIndex":0,"stepResults":[{"result":{"nanos":1156000,"millis":1.156,"status":"passed"},"step":{"background":true,"line":5,"prefix":"*","index":0,"text":"url  'https:\/\/reqres.in\/'"}},{"result":{"nanos":544000,"millis":0.544,"status":"passed"},"step":{"background":true,"line":6,"prefix":"*","index":1,"text":"header Accept = 'application\/json'"}},{"result":{"nanos":277900,"millis":0.2779,"status":"passed"},"step":{"line":9,"prefix":"Given","index":0,"text":"path 'api\/users?page=2'"}},{"result":{"nanos":36609100,"millis":36.6091,"status":"passed"},"step":{"line":10,"prefix":"And","index":1,"text":"print name"},"stepLog":"13:26:15.967 [print] Atul \n"},{"result":{"nanos":1381714200,"millis":1381.7142,"status":"passed"},"step":{"line":11,"prefix":"When","index":2,"text":"method GET"},"stepLog":"13:26:16.219 request:\n1 > GET https:\/\/reqres.in\/api\/users%3Fpage=2\n1 > Accept: application\/json\n1 > Host: reqres.in\n1 > Connection: Keep-Alive\n1 > User-Agent: Apache-HttpClient\/4.5.12 (Java\/17.0.1)\n1 > Accept-Encoding: gzip,deflate\n\n\n13:26:17.321 response time in milliseconds: 1099\n1 < 200\n1 < Date: Sun, 25 Sep 2022 17:26:13 GMT\n1 < Content-Type: application\/json; charset=utf-8\n1 < Transfer-Encoding: chunked\n1 < Connection: keep-alive\n1 < X-Powered-By: Express\n1 < Access-Control-Allow-Origin: *\n1 < Etag: W\/\"2c1-N6Rqerxquq2kgQhL51EiSg4x0R8\"\n1 < Via: 1.1 vegur\n1 < Cache-Control: max-age=14400\n1 < CF-Cache-Status: REVALIDATED\n1 < Report-To: {\"endpoints\":[{\"url\":\"https:\\\/\\\/a.nel.cloudflare.com\\\/report\\\/v3?s=qwiEdQcyPSIJLTowC3rkBxEoIrR3qTq%2F4PbrhFtSJqcIvgkoSatLTc1teQ0LixSnmDlmR3dOGkwQo6xRdP3UQs8y4Tp7%2Fjvufaul%2FXGs6gwlqjt4UUabgPSZVw%3D%3D\"}],\"group\":\"cf-nel\",\"max_age\":604800}\n1 < NEL: {\"success_fraction\":0,\"report_to\":\"cf-nel\",\"max_age\":604800}\n1 < Vary: Accept-Encoding\n1 < Server: cloudflare\n1 < CF-RAY: 750576ae8ccba226-YYZ\n{\"page\":1,\"per_page\":6,\"total\":12,\"total_pages\":2,\"data\":[{\"id\":1,\"name\":\"cerulean\",\"year\":2000,\"color\":\"#98B2D1\",\"pantone_value\":\"15-4020\"},{\"id\":2,\"name\":\"fuchsia rose\",\"year\":2001,\"color\":\"#C74375\",\"pantone_value\":\"17-2031\"},{\"id\":3,\"name\":\"true red\",\"year\":2002,\"color\":\"#BF1932\",\"pantone_value\":\"19-1664\"},{\"id\":4,\"name\":\"aqua sky\",\"year\":2003,\"color\":\"#7BC4C4\",\"pantone_value\":\"14-4811\"},{\"id\":5,\"name\":\"tigerlily\",\"year\":2004,\"color\":\"#E2583E\",\"pantone_value\":\"17-1456\"},{\"id\":6,\"name\":\"blue turquoise\",\"year\":2005,\"color\":\"#53B0AE\",\"pantone_value\":\"15-5217\"}],\"support\":{\"url\":\"https:\/\/reqres.in\/#support-heading\",\"text\":\"To keep ReqRes free, contributions towards server costs are appreciated!\"}}\n\n"},{"result":{"nanos":17100,"millis":0.0171,"status":"passed"},"step":{"line":12,"prefix":"Then","index":3,"text":"status 200"}},{"result":{"nanos":3953900,"millis":3.9539,"status":"passed"},"step":{"line":13,"prefix":"And","index":4,"text":"print response"},"stepLog":"13:26:17.354 [print] {\n  \"page\": 1,\n  \"per_page\": 6,\n  \"total\": 12,\n  \"total_pages\": 2,\n  \"data\": [\n    {\n      \"id\": 1,\n      \"name\": \"cerulean\",\n      \"year\": 2000,\n      \"color\": \"#98B2D1\",\n      \"pantone_value\": \"15-4020\"\n    },\n    {\n      \"id\": 2,\n      \"name\": \"fuchsia rose\",\n      \"year\": 2001,\n      \"color\": \"#C74375\",\n      \"pantone_value\": \"17-2031\"\n    },\n    {\n      \"id\": 3,\n      \"name\": \"true red\",\n      \"year\": 2002,\n      \"color\": \"#BF1932\",\n      \"pantone_value\": \"19-1664\"\n    },\n    {\n      \"id\": 4,\n      \"name\": \"aqua sky\",\n      \"year\": 2003,\n      \"color\": \"#7BC4C4\",\n      \"pantone_value\": \"14-4811\"\n    },\n    {\n      \"id\": 5,\n      \"name\": \"tigerlily\",\n      \"year\": 2004,\n      \"color\": \"#E2583E\",\n      \"pantone_value\": \"17-1456\"\n    },\n    {\n      \"id\": 6,\n      \"name\": \"blue turquoise\",\n      \"year\": 2005,\n      \"color\": \"#53B0AE\",\n      \"pantone_value\": \"15-5217\"\n    }\n  ],\n  \"support\": {\n    \"url\": \"https:\/\/reqres.in\/#support-heading\",\n    \"text\": \"To keep ReqRes free, contributions towards server costs are appreciated!\"\n  }\n}\n \n"}],"executorName":"main","line":8,"name":"Test with path","description":"","durationMillis":1424.2722,"startTime":1664126775796,"failed":false,"refId":"[1:8]","endTime":1664126777354,"exampleIndex":-1},{"sectionIndex":1,"stepResults":[{"result":{"nanos":172100,"millis":0.1721,"status":"passed"},"step":{"background":true,"line":5,"prefix":"*","index":0,"text":"url  'https:\/\/reqres.in\/'"}},{"result":{"nanos":92000,"millis":0.092,"status":"passed"},"step":{"background":true,"line":6,"prefix":"*","index":1,"text":"header Accept = 'application\/json'"}},{"result":{"nanos":233500,"millis":0.2335,"status":"passed"},"step":{"line":17,"prefix":"Given","index":0,"text":"path 'api\/users'"}},{"result":{"nanos":773600,"millis":0.7736,"status":"passed"},"step":{"line":18,"prefix":"And","index":1,"text":"param page = 6"}},{"result":{"nanos":646309900,"millis":646.3099,"status":"passed"},"step":{"line":19,"prefix":"When","index":2,"text":"method GET"},"stepLog":"13:26:17.361 request:\n1 > GET https:\/\/reqres.in\/api\/users?page=6\n1 > Accept: application\/json\n1 > Host: reqres.in\n1 > Connection: Keep-Alive\n1 > User-Agent: Apache-HttpClient\/4.5.12 (Java\/17.0.1)\n1 > Accept-Encoding: gzip,deflate\n\n\n13:26:18.004 response time in milliseconds: 643\n1 < 200\n1 < Date: Sun, 25 Sep 2022 17:26:14 GMT\n1 < Content-Type: application\/json; charset=utf-8\n1 < Transfer-Encoding: chunked\n1 < Connection: keep-alive\n1 < X-Powered-By: Express\n1 < Access-Control-Allow-Origin: *\n1 < Etag: W\/\"c5-OHhEhOZDsahGtukzqGDrIilE+ik\"\n1 < Via: 1.1 vegur\n1 < Cache-Control: max-age=14400\n1 < CF-Cache-Status: MISS\n1 < Report-To: {\"endpoints\":[{\"url\":\"https:\\\/\\\/a.nel.cloudflare.com\\\/report\\\/v3?s=LQjkAwxTqCAWn8DOZx78zFaqeSrrUBYQZ5mqlTYhVs0flukifjWZ2C2ySMoFC8Ba%2FNzZiuavQEnGSLZ3neGWDb7XeMEr5IBmNPKjODygXlaDrT3%2BTbNjHc6M8Q%3D%3D\"}],\"group\":\"cf-nel\",\"max_age\":604800}\n1 < NEL: {\"success_fraction\":0,\"report_to\":\"cf-nel\",\"max_age\":604800}\n1 < Vary: Accept-Encoding\n1 < Server: cloudflare\n1 < CF-RAY: 750576b26aac3fcd-YYZ\n{\"page\":6,\"per_page\":6,\"total\":12,\"total_pages\":2,\"data\":[],\"support\":{\"url\":\"https:\/\/reqres.in\/#support-heading\",\"text\":\"To keep ReqRes free, contributions towards server costs are appreciated!\"}}\n\n"},{"result":{"nanos":17200,"millis":0.0172,"status":"passed"},"step":{"line":20,"prefix":"Then","index":3,"text":"status 200"}},{"result":{"nanos":1835100,"millis":1.8351,"status":"passed"},"step":{"line":21,"prefix":"And","index":4,"text":"print responseStatus"},"stepLog":"13:26:18.008 [print] 200 \n"},{"result":{"nanos":1578300,"millis":1.5783,"status":"passed"},"step":{"line":22,"prefix":"And","index":5,"text":"print responseHeaders"},"stepLog":"13:26:18.010 [print] {\n  \"Date\": [\n    \"Sun, 25 Sep 2022 17:26:14 GMT\"\n  ],\n  \"Content-Type\": [\n    \"application\/json; charset=utf-8\"\n  ],\n  \"Transfer-Encoding\": [\n    \"chunked\"\n  ],\n  \"Connection\": [\n    \"keep-alive\"\n  ],\n  \"X-Powered-By\": [\n    \"Express\"\n  ],\n  \"Access-Control-Allow-Origin\": [\n    \"*\"\n  ],\n  \"Etag\": [\n    \"W\/\\\"c5-OHhEhOZDsahGtukzqGDrIilE+ik\\\"\"\n  ],\n  \"Via\": [\n    \"1.1 vegur\"\n  ],\n  \"Cache-Control\": [\n    \"max-age=14400\"\n  ],\n  \"CF-Cache-Status\": [\n    \"MISS\"\n  ],\n  \"Report-To\": [\n    \"{\\\"endpoints\\\":[{\\\"url\\\":\\\"https:\\\\\/\\\\\/a.nel.cloudflare.com\\\\\/report\\\\\/v3?s=LQjkAwxTqCAWn8DOZx78zFaqeSrrUBYQZ5mqlTYhVs0flukifjWZ2C2ySMoFC8Ba%2FNzZiuavQEnGSLZ3neGWDb7XeMEr5IBmNPKjODygXlaDrT3%2BTbNjHc6M8Q%3D%3D\\\"}],\\\"group\\\":\\\"cf-nel\\\",\\\"max_age\\\":604800}\"\n  ],\n  \"NEL\": [\n    \"{\\\"success_fraction\\\":0,\\\"report_to\\\":\\\"cf-nel\\\",\\\"max_age\\\":604800}\"\n  ],\n  \"Vary\": [\n    \"Accept-Encoding\"\n  ],\n  \"Server\": [\n    \"cloudflare\"\n  ],\n  \"CF-RAY\": [\n    \"750576b26aac3fcd-YYZ\"\n  ]\n}\n \n"},{"result":{"nanos":13772600,"errorMessage":"did not evaluate to 'true': response.data.length == 6\nsrc\/test\/java\/Feature\/Get.feature:23","millis":13.7726,"status":"failed"},"step":{"line":23,"prefix":"And","index":6,"text":"assert response.data.length == 6"},"stepLog":"13:26:18.024 src\/test\/java\/Feature\/Get.feature:23\nAnd assert response.data.length == 6\ndid not evaluate to 'true': response.data.length == 6\nsrc\/test\/java\/Feature\/Get.feature:23\n"},{"result":{"nanos":0,"millis":0.0,"status":"skipped"},"step":{"line":24,"prefix":"And","index":7,"text":"match response contains { page: 6, per_page: 6}"}}],"line":16,"description":"","durationMillis":664.7843,"failed":true,"error":"did not evaluate to 'true': response.data.length == 6\nsrc\/test\/java\/Feature\/Get.feature:23","executorName":"main","name":"Test with params","startTime":1664126777357,"refId":"[2:16]","endTime":1664126778024,"exampleIndex":-1}],"callDepth":0,"name":"to show the use of Get","description":"","resultDate":"2022-09-25 01:26:18 p.m.","durationMillis":2089.0565,"passedCount":1}