{"failedCount":1,"prefixedPath":"src\/test\/java\/Feature\/Get.feature","packageQualifiedName":"src.test.java.Feature.Get","loopIndex":-1,"relativePath":"src\/test\/java\/Feature\/Get.feature","scenarioResults":[{"sectionIndex":0,"stepResults":[{"result":{"nanos":1637100,"millis":1.6371,"status":"passed"},"step":{"background":true,"line":5,"prefix":"*","index":0,"text":"header Accept = 'application\/json'"}},{"result":{"nanos":476500,"millis":0.4765,"status":"passed"},"step":{"line":8,"prefix":"Given","index":0,"text":"url 'https:\/\/reqres.in\/api\/users?page=1'"}},{"result":{"nanos":39177200,"millis":39.1772,"status":"passed"},"step":{"line":9,"prefix":"And","index":1,"text":"print name"},"stepLog":"14:02:50.156 [print] Atul \n"},{"result":{"nanos":654016300,"millis":654.0163,"status":"passed"},"step":{"line":10,"prefix":"When","index":2,"text":"method GET"},"stepLog":"14:02:50.396 request:\n1 > GET https:\/\/reqres.in\/api\/users?page=1\n1 > Accept: application\/json\n1 > Host: reqres.in\n1 > Connection: Keep-Alive\n1 > User-Agent: Apache-HttpClient\/4.5.12 (Java\/17.0.1)\n1 > Accept-Encoding: gzip,deflate\n\n\n14:02:50.781 response time in milliseconds: 382\n1 < 200\n1 < Date: Sun, 25 Sep 2022 18:02:47 GMT\n1 < Content-Type: application\/json; charset=utf-8\n1 < Transfer-Encoding: chunked\n1 < Connection: keep-alive\n1 < X-Powered-By: Express\n1 < Access-Control-Allow-Origin: *\n1 < Etag: W\/\"3e4-2RLXvr5wTg9YQ6aH95CkYoFNuO8\"\n1 < Via: 1.1 vegur\n1 < Cache-Control: max-age=14400\n1 < CF-Cache-Status: HIT\n1 < Age: 42\n1 < Report-To: {\"endpoints\":[{\"url\":\"https:\\\/\\\/a.nel.cloudflare.com\\\/report\\\/v3?s=0JLCwyqpoYwP9YtvW3bmc5zBQEhbymg1lZhzFdCngeRQJ%2B6SRfJ8ZfRFfOZQLwn6DYiCzCWBoxWtcqD19VEtLjtECWLnDMHPqVWK6EoWK2PYPv7%2Bt4CtWg6doA%3D%3D\"}],\"group\":\"cf-nel\",\"max_age\":604800}\n1 < NEL: {\"success_fraction\":0,\"report_to\":\"cf-nel\",\"max_age\":604800}\n1 < Vary: Accept-Encoding\n1 < Server: cloudflare\n1 < CF-RAY: 7505ac3dbcb3a21c-YYZ\n{\"page\":1,\"per_page\":6,\"total\":12,\"total_pages\":2,\"data\":[{\"id\":1,\"email\":\"george.bluth@reqres.in\",\"first_name\":\"George\",\"last_name\":\"Bluth\",\"avatar\":\"https:\/\/reqres.in\/img\/faces\/1-image.jpg\"},{\"id\":2,\"email\":\"janet.weaver@reqres.in\",\"first_name\":\"Janet\",\"last_name\":\"Weaver\",\"avatar\":\"https:\/\/reqres.in\/img\/faces\/2-image.jpg\"},{\"id\":3,\"email\":\"emma.wong@reqres.in\",\"first_name\":\"Emma\",\"last_name\":\"Wong\",\"avatar\":\"https:\/\/reqres.in\/img\/faces\/3-image.jpg\"},{\"id\":4,\"email\":\"eve.holt@reqres.in\",\"first_name\":\"Eve\",\"last_name\":\"Holt\",\"avatar\":\"https:\/\/reqres.in\/img\/faces\/4-image.jpg\"},{\"id\":5,\"email\":\"charles.morris@reqres.in\",\"first_name\":\"Charles\",\"last_name\":\"Morris\",\"avatar\":\"https:\/\/reqres.in\/img\/faces\/5-image.jpg\"},{\"id\":6,\"email\":\"tracey.ramos@reqres.in\",\"first_name\":\"Tracey\",\"last_name\":\"Ramos\",\"avatar\":\"https:\/\/reqres.in\/img\/faces\/6-image.jpg\"}],\"support\":{\"url\":\"https:\/\/reqres.in\/#support-heading\",\"text\":\"To keep ReqRes free, contributions towards server costs are appreciated!\"}}\n\n"},{"result":{"nanos":16600,"millis":0.0166,"status":"passed"},"step":{"line":11,"prefix":"Then","index":3,"text":"status 200"}},{"result":{"nanos":3703400,"millis":3.7034,"status":"passed"},"step":{"line":12,"prefix":"And","index":4,"text":"print response"},"stepLog":"14:02:50.815 [print] {\n  \"page\": 1,\n  \"per_page\": 6,\n  \"total\": 12,\n  \"total_pages\": 2,\n  \"data\": [\n    {\n      \"id\": 1,\n      \"email\": \"george.bluth@reqres.in\",\n      \"first_name\": \"George\",\n      \"last_name\": \"Bluth\",\n      \"avatar\": \"https:\/\/reqres.in\/img\/faces\/1-image.jpg\"\n    },\n    {\n      \"id\": 2,\n      \"email\": \"janet.weaver@reqres.in\",\n      \"first_name\": \"Janet\",\n      \"last_name\": \"Weaver\",\n      \"avatar\": \"https:\/\/reqres.in\/img\/faces\/2-image.jpg\"\n    },\n    {\n      \"id\": 3,\n      \"email\": \"emma.wong@reqres.in\",\n      \"first_name\": \"Emma\",\n      \"last_name\": \"Wong\",\n      \"avatar\": \"https:\/\/reqres.in\/img\/faces\/3-image.jpg\"\n    },\n    {\n      \"id\": 4,\n      \"email\": \"eve.holt@reqres.in\",\n      \"first_name\": \"Eve\",\n      \"last_name\": \"Holt\",\n      \"avatar\": \"https:\/\/reqres.in\/img\/faces\/4-image.jpg\"\n    },\n    {\n      \"id\": 5,\n      \"email\": \"charles.morris@reqres.in\",\n      \"first_name\": \"Charles\",\n      \"last_name\": \"Morris\",\n      \"avatar\": \"https:\/\/reqres.in\/img\/faces\/5-image.jpg\"\n    },\n    {\n      \"id\": 6,\n      \"email\": \"tracey.ramos@reqres.in\",\n      \"first_name\": \"Tracey\",\n      \"last_name\": \"Ramos\",\n      \"avatar\": \"https:\/\/reqres.in\/img\/faces\/6-image.jpg\"\n    }\n  ],\n  \"support\": {\n    \"url\": \"https:\/\/reqres.in\/#support-heading\",\n    \"text\": \"To keep ReqRes free, contributions towards server costs are appreciated!\"\n  }\n}\n \n"},{"result":{"nanos":12382500,"millis":12.3825,"status":"passed"},"step":{"line":13,"prefix":"And","index":5,"text":"def jsonRes = $.total_pages"}},{"result":{"nanos":1098100,"millis":1.0981,"status":"passed"},"step":{"line":14,"prefix":"And","index":6,"text":"print jsonRes"},"stepLog":"14:02:50.828 [print] 2 \n"},{"result":{"nanos":7176100,"millis":7.1761,"status":"passed"},"step":{"line":15,"prefix":"And","index":7,"text":"match each $.data contains {id: #number, email: #string, first_name: #string}"}}],"executorName":"main","line":7,"name":"Test with path","description":"","durationMillis":719.6838,"startTime":1664128969994,"failed":false,"refId":"[1:7]","endTime":1664128970836,"exampleIndex":-1},{"sectionIndex":1,"stepResults":[{"result":{"nanos":201300,"millis":0.2013,"status":"passed"},"step":{"background":true,"line":5,"prefix":"*","index":0,"text":"header Accept = 'application\/json'"}},{"result":{"nanos":113800,"millis":0.1138,"status":"passed"},"step":{"line":18,"prefix":"Given","index":0,"text":"path 'https:\/\/reqres.in\/api\/users?page=1'"}},{"result":{"nanos":1216300,"errorMessage":"http call failed after 1 milliseconds for url: \/https:\/reqres.in\/api\/users%3Fpage=1\nsrc\/test\/java\/Feature\/Get.feature:20","millis":1.2163,"status":"failed"},"step":{"comments":["#And param page = 2"],"line":20,"prefix":"When","index":1,"text":"method GET"},"stepLog":"14:02:50.841 org.apache.http.ProtocolException: Target host is not specified, http call failed after 1 milliseconds for url: \/https:\/reqres.in\/api\/users%3Fpage=1\n14:02:50.842 src\/test\/java\/Feature\/Get.feature:20\nWhen method GET\nhttp call failed after 1 milliseconds for url: \/https:\/reqres.in\/api\/users%3Fpage=1\nsrc\/test\/java\/Feature\/Get.feature:20\n"},{"result":{"nanos":0,"millis":0.0,"status":"skipped"},"step":{"line":21,"prefix":"Then","index":2,"text":"status 200"}},{"result":{"nanos":0,"millis":0.0,"status":"skipped"},"step":{"line":22,"prefix":"And","index":3,"text":"print responseStatus"}},{"result":{"nanos":0,"millis":0.0,"status":"skipped"},"step":{"line":23,"prefix":"And","index":4,"text":"print responseHeaders"}},{"result":{"nanos":0,"millis":0.0,"status":"skipped"},"step":{"line":24,"prefix":"And","index":5,"text":"assert response.data.length == 6"}},{"result":{"nanos":0,"millis":0.0,"status":"skipped"},"step":{"line":25,"prefix":"And","index":6,"text":"match response contains { \"page\":2, \"per_page\":6,   \"total\": 12, \"total_pages\": 2,}"}}],"line":17,"description":"","durationMillis":1.5314,"failed":true,"error":"http call failed after 1 milliseconds for url: \/https:\/reqres.in\/api\/users%3Fpage=1\nsrc\/test\/java\/Feature\/Get.feature:20","executorName":"main","name":"Test with params","startTime":1664128970838,"refId":"[2:17]","endTime":1664128970842,"exampleIndex":-1}],"callDepth":0,"name":"to show the use of Get","description":"","resultDate":"2022-09-25 02:02:50 p.m.","durationMillis":721.2152,"passedCount":1}