{"failedCount":0,"prefixedPath":"src\/test\/java\/Feature\/Get.feature","packageQualifiedName":"src.test.java.Feature.Get","loopIndex":-1,"relativePath":"src\/test\/java\/Feature\/Get.feature","scenarioResults":[{"sectionIndex":0,"stepResults":[{"result":{"nanos":36087200,"millis":36.0872,"status":"passed"},"step":{"comments":["#* header Accept = 'application\/json'"],"background":true,"line":5,"prefix":"*","index":0,"text":"def reqHead = {Content-Type: 'application\/json'}"}},{"result":{"nanos":4622500,"millis":4.6225,"status":"passed"},"step":{"line":8,"prefix":"Given","index":0,"text":"headers reqHead"}},{"result":{"nanos":44478700,"millis":44.4787,"status":"passed"},"step":{"line":9,"prefix":"And","index":1,"text":"print reqHead"},"stepLog":"17:15:42.543 [print] {\n  \"Content-Type\": \"application\/json\"\n}\n \n"},{"result":{"nanos":580100,"millis":0.5801,"status":"passed"},"step":{"line":10,"prefix":"And","index":2,"text":"url 'https:\/\/reqres.in\/api\/users?page=1'"}},{"result":{"nanos":800200,"millis":0.8002,"status":"passed"},"step":{"line":11,"prefix":"And","index":3,"text":"print name"},"stepLog":"17:15:42.545 [print] Atul \n"},{"result":{"nanos":499626300,"millis":499.6263,"status":"passed"},"step":{"line":12,"prefix":"When","index":4,"text":"method GET"},"stepLog":"17:15:42.776 request:\n1 > GET https:\/\/reqres.in\/api\/users?page=1\n1 > Content-Type: application\/json\n1 > Host: reqres.in\n1 > Connection: Keep-Alive\n1 > User-Agent: Apache-HttpClient\/4.5.12 (Java\/17.0.1)\n1 > Accept-Encoding: gzip,deflate\n\n\n17:15:43.044 response time in milliseconds: 266\n1 < 200\n1 < Date: Sun, 25 Sep 2022 21:15:39 GMT\n1 < Content-Type: application\/json; charset=utf-8\n1 < Transfer-Encoding: chunked\n1 < Connection: keep-alive\n1 < X-Powered-By: Express\n1 < Access-Control-Allow-Origin: *\n1 < Etag: W\/\"3e4-2RLXvr5wTg9YQ6aH95CkYoFNuO8\"\n1 < Via: 1.1 vegur\n1 < Cache-Control: max-age=14400\n1 < CF-Cache-Status: HIT\n1 < Age: 4239\n1 < Report-To: {\"endpoints\":[{\"url\":\"https:\\\/\\\/a.nel.cloudflare.com\\\/report\\\/v3?s=UdUVI7c%2F7yDTM5B5mkRu2LoIvy7Cs26hXBdWvnWV5HH8Fh8MfyyQP4YdjyK3JjMTGa74RXw2OcY2QlB%2Bn9xQXFzK72zLYklHWuxByMDDfcfIw0lYD5iEd9thUg%3D%3D\"}],\"group\":\"cf-nel\",\"max_age\":604800}\n1 < NEL: {\"success_fraction\":0,\"report_to\":\"cf-nel\",\"max_age\":604800}\n1 < Vary: Accept-Encoding\n1 < Server: cloudflare\n1 < CF-RAY: 7506c6c37c6da1e4-YYZ\n{\"page\":1,\"per_page\":6,\"total\":12,\"total_pages\":2,\"data\":[{\"id\":1,\"email\":\"george.bluth@reqres.in\",\"first_name\":\"George\",\"last_name\":\"Bluth\",\"avatar\":\"https:\/\/reqres.in\/img\/faces\/1-image.jpg\"},{\"id\":2,\"email\":\"janet.weaver@reqres.in\",\"first_name\":\"Janet\",\"last_name\":\"Weaver\",\"avatar\":\"https:\/\/reqres.in\/img\/faces\/2-image.jpg\"},{\"id\":3,\"email\":\"emma.wong@reqres.in\",\"first_name\":\"Emma\",\"last_name\":\"Wong\",\"avatar\":\"https:\/\/reqres.in\/img\/faces\/3-image.jpg\"},{\"id\":4,\"email\":\"eve.holt@reqres.in\",\"first_name\":\"Eve\",\"last_name\":\"Holt\",\"avatar\":\"https:\/\/reqres.in\/img\/faces\/4-image.jpg\"},{\"id\":5,\"email\":\"charles.morris@reqres.in\",\"first_name\":\"Charles\",\"last_name\":\"Morris\",\"avatar\":\"https:\/\/reqres.in\/img\/faces\/5-image.jpg\"},{\"id\":6,\"email\":\"tracey.ramos@reqres.in\",\"first_name\":\"Tracey\",\"last_name\":\"Ramos\",\"avatar\":\"https:\/\/reqres.in\/img\/faces\/6-image.jpg\"}],\"support\":{\"url\":\"https:\/\/reqres.in\/#support-heading\",\"text\":\"To keep ReqRes free, contributions towards server costs are appreciated!\"}}\n\n"},{"result":{"nanos":24100,"millis":0.0241,"status":"passed"},"step":{"line":13,"prefix":"Then","index":5,"text":"status 200"}},{"result":{"nanos":1480500,"millis":1.4805,"status":"passed"},"step":{"line":14,"prefix":"And","index":6,"text":"print response"},"stepLog":"17:15:43.046 [print] {\n  \"page\": 1,\n  \"per_page\": 6,\n  \"total\": 12,\n  \"total_pages\": 2,\n  \"data\": [\n    {\n      \"id\": 1,\n      \"email\": \"george.bluth@reqres.in\",\n      \"first_name\": \"George\",\n      \"last_name\": \"Bluth\",\n      \"avatar\": \"https:\/\/reqres.in\/img\/faces\/1-image.jpg\"\n    },\n    {\n      \"id\": 2,\n      \"email\": \"janet.weaver@reqres.in\",\n      \"first_name\": \"Janet\",\n      \"last_name\": \"Weaver\",\n      \"avatar\": \"https:\/\/reqres.in\/img\/faces\/2-image.jpg\"\n    },\n    {\n      \"id\": 3,\n      \"email\": \"emma.wong@reqres.in\",\n      \"first_name\": \"Emma\",\n      \"last_name\": \"Wong\",\n      \"avatar\": \"https:\/\/reqres.in\/img\/faces\/3-image.jpg\"\n    },\n    {\n      \"id\": 4,\n      \"email\": \"eve.holt@reqres.in\",\n      \"first_name\": \"Eve\",\n      \"last_name\": \"Holt\",\n      \"avatar\": \"https:\/\/reqres.in\/img\/faces\/4-image.jpg\"\n    },\n    {\n      \"id\": 5,\n      \"email\": \"charles.morris@reqres.in\",\n      \"first_name\": \"Charles\",\n      \"last_name\": \"Morris\",\n      \"avatar\": \"https:\/\/reqres.in\/img\/faces\/5-image.jpg\"\n    },\n    {\n      \"id\": 6,\n      \"email\": \"tracey.ramos@reqres.in\",\n      \"first_name\": \"Tracey\",\n      \"last_name\": \"Ramos\",\n      \"avatar\": \"https:\/\/reqres.in\/img\/faces\/6-image.jpg\"\n    }\n  ],\n  \"support\": {\n    \"url\": \"https:\/\/reqres.in\/#support-heading\",\n    \"text\": \"To keep ReqRes free, contributions towards server costs are appreciated!\"\n  }\n}\n \n"},{"result":{"nanos":4313300,"millis":4.3133,"status":"passed"},"step":{"line":15,"prefix":"And","index":7,"text":"def jsonRes = $.data[1].first_name"}},{"result":{"nanos":954400,"millis":0.9544,"status":"passed"},"step":{"line":16,"prefix":"And","index":8,"text":"print jsonRes"},"stepLog":"17:15:43.052 [print] Janet \n"},{"result":{"nanos":12185700,"millis":12.1857,"status":"passed"},"step":{"line":17,"prefix":"And","index":9,"text":"match each $.data contains {id: #number, email: #string, first_name: #string, last_name: #string, avatar: #string}"}}],"executorName":"main","line":7,"name":"Test with path","description":"","durationMillis":605.153,"startTime":1664140542335,"failed":false,"refId":"[1:7]","endTime":1664140543064,"exampleIndex":-1},{"sectionIndex":1,"stepResults":[{"result":{"nanos":277200,"millis":0.2772,"status":"passed"},"step":{"comments":["#* header Accept = 'application\/json'"],"background":true,"line":5,"prefix":"*","index":0,"text":"def reqHead = {Content-Type: 'application\/json'}"}},{"result":{"nanos":341000,"millis":0.341,"status":"passed"},"step":{"line":20,"prefix":"Given","index":0,"text":"url 'https:\/\/reqres.in\/api\/users?page=2'"}},{"result":{"nanos":101599300,"millis":101.5993,"status":"passed"},"step":{"comments":["#And param page = 2"],"line":22,"prefix":"When","index":1,"text":"method GET"},"stepLog":"17:15:43.071 request:\n1 > GET https:\/\/reqres.in\/api\/users?page=2\n1 > Host: reqres.in\n1 > Connection: Keep-Alive\n1 > User-Agent: Apache-HttpClient\/4.5.12 (Java\/17.0.1)\n1 > Accept-Encoding: gzip,deflate\n\n\n17:15:43.171 response time in milliseconds: 100\n1 < 200\n1 < Date: Sun, 25 Sep 2022 21:15:39 GMT\n1 < Content-Type: application\/json; charset=utf-8\n1 < Transfer-Encoding: chunked\n1 < Connection: keep-alive\n1 < X-Powered-By: Express\n1 < Access-Control-Allow-Origin: *\n1 < Etag: W\/\"406-ut0vzoCuidvyMf8arZpMpJ6ZRDw\"\n1 < Via: 1.1 vegur\n1 < Cache-Control: max-age=14400\n1 < CF-Cache-Status: HIT\n1 < Age: 2173\n1 < Report-To: {\"endpoints\":[{\"url\":\"https:\\\/\\\/a.nel.cloudflare.com\\\/report\\\/v3?s=qmZx02oWV3cNjDWAHImnk%2FToyqZYme5XhstiKrYfjLZnsNeAyi%2BEJC5Wpea4xOeWve9TTw%2BTuYwkVOlJqtXJUZHlQ55IyhCpM8NlgOr0fnlRgbPQ1LaXitaW1A%3D%3D\"}],\"group\":\"cf-nel\",\"max_age\":604800}\n1 < NEL: {\"success_fraction\":0,\"report_to\":\"cf-nel\",\"max_age\":604800}\n1 < Vary: Accept-Encoding\n1 < Server: cloudflare\n1 < CF-RAY: 7506c6c45d7da246-YYZ\n{\"page\":2,\"per_page\":6,\"total\":12,\"total_pages\":2,\"data\":[{\"id\":7,\"email\":\"michael.lawson@reqres.in\",\"first_name\":\"Michael\",\"last_name\":\"Lawson\",\"avatar\":\"https:\/\/reqres.in\/img\/faces\/7-image.jpg\"},{\"id\":8,\"email\":\"lindsay.ferguson@reqres.in\",\"first_name\":\"Lindsay\",\"last_name\":\"Ferguson\",\"avatar\":\"https:\/\/reqres.in\/img\/faces\/8-image.jpg\"},{\"id\":9,\"email\":\"tobias.funke@reqres.in\",\"first_name\":\"Tobias\",\"last_name\":\"Funke\",\"avatar\":\"https:\/\/reqres.in\/img\/faces\/9-image.jpg\"},{\"id\":10,\"email\":\"byron.fields@reqres.in\",\"first_name\":\"Byron\",\"last_name\":\"Fields\",\"avatar\":\"https:\/\/reqres.in\/img\/faces\/10-image.jpg\"},{\"id\":11,\"email\":\"george.edwards@reqres.in\",\"first_name\":\"George\",\"last_name\":\"Edwards\",\"avatar\":\"https:\/\/reqres.in\/img\/faces\/11-image.jpg\"},{\"id\":12,\"email\":\"rachel.howell@reqres.in\",\"first_name\":\"Rachel\",\"last_name\":\"Howell\",\"avatar\":\"https:\/\/reqres.in\/img\/faces\/12-image.jpg\"}],\"support\":{\"url\":\"https:\/\/reqres.in\/#support-heading\",\"text\":\"To keep ReqRes free, contributions towards server costs are appreciated!\"}}\n\n"},{"result":{"nanos":9700,"millis":0.0097,"status":"passed"},"step":{"line":23,"prefix":"Then","index":2,"text":"status 200"}},{"result":{"nanos":1868200,"millis":1.8682,"status":"passed"},"step":{"line":24,"prefix":"And","index":3,"text":"print responseStatus"},"stepLog":"17:15:43.174 [print] 200 \n"},{"result":{"nanos":1009200,"millis":1.0092,"status":"passed"},"step":{"line":25,"prefix":"And","index":4,"text":"print responseHeaders"},"stepLog":"17:15:43.174 [print] {\n  \"Date\": [\n    \"Sun, 25 Sep 2022 21:15:39 GMT\"\n  ],\n  \"Content-Type\": [\n    \"application\/json; charset=utf-8\"\n  ],\n  \"Transfer-Encoding\": [\n    \"chunked\"\n  ],\n  \"Connection\": [\n    \"keep-alive\"\n  ],\n  \"X-Powered-By\": [\n    \"Express\"\n  ],\n  \"Access-Control-Allow-Origin\": [\n    \"*\"\n  ],\n  \"Etag\": [\n    \"W\/\\\"406-ut0vzoCuidvyMf8arZpMpJ6ZRDw\\\"\"\n  ],\n  \"Via\": [\n    \"1.1 vegur\"\n  ],\n  \"Cache-Control\": [\n    \"max-age=14400\"\n  ],\n  \"CF-Cache-Status\": [\n    \"HIT\"\n  ],\n  \"Age\": [\n    \"2173\"\n  ],\n  \"Report-To\": [\n    \"{\\\"endpoints\\\":[{\\\"url\\\":\\\"https:\\\\\/\\\\\/a.nel.cloudflare.com\\\\\/report\\\\\/v3?s=qmZx02oWV3cNjDWAHImnk%2FToyqZYme5XhstiKrYfjLZnsNeAyi%2BEJC5Wpea4xOeWve9TTw%2BTuYwkVOlJqtXJUZHlQ55IyhCpM8NlgOr0fnlRgbPQ1LaXitaW1A%3D%3D\\\"}],\\\"group\\\":\\\"cf-nel\\\",\\\"max_age\\\":604800}\"\n  ],\n  \"NEL\": [\n    \"{\\\"success_fraction\\\":0,\\\"report_to\\\":\\\"cf-nel\\\",\\\"max_age\\\":604800}\"\n  ],\n  \"Vary\": [\n    \"Accept-Encoding\"\n  ],\n  \"Server\": [\n    \"cloudflare\"\n  ],\n  \"CF-RAY\": [\n    \"7506c6c45d7da246-YYZ\"\n  ]\n}\n \n"},{"result":{"nanos":6846600,"millis":6.8466,"status":"passed"},"step":{"line":26,"prefix":"And","index":5,"text":"assert response.data.length == 6"}},{"result":{"nanos":460300,"millis":0.4603,"status":"passed"},"step":{"line":27,"prefix":"And","index":6,"text":"match response contains { \"page\":2, \"per_page\":6,   \"total\": 12, \"total_pages\": 2,}"}}],"executorName":"main","line":19,"name":"Test with params","description":"","durationMillis":112.4115,"startTime":1664140543069,"failed":false,"refId":"[2:19]","endTime":1664140543183,"exampleIndex":-1}],"callDepth":0,"name":"to show the use of Get","description":"","resultDate":"2022-09-25 05:15:43 p.m.","durationMillis":717.5645,"passedCount":2}