{"failedCount":1,"prefixedPath":"src\/test\/java\/Feature\/Get.feature","packageQualifiedName":"src.test.java.Feature.Get","loopIndex":-1,"relativePath":"src\/test\/java\/Feature\/Get.feature","scenarioResults":[{"sectionIndex":0,"stepResults":[{"result":{"nanos":1619500,"millis":1.6195,"status":"passed"},"step":{"background":true,"line":5,"prefix":"*","index":0,"text":"url  'https:\/\/reqres.in\/'"}},{"result":{"nanos":546600,"millis":0.5466,"status":"passed"},"step":{"background":true,"line":6,"prefix":"*","index":1,"text":"header Accept = 'application\/json'"}},{"result":{"nanos":245700,"millis":0.2457,"status":"passed"},"step":{"line":9,"prefix":"Given","index":0,"text":"path 'api\/users?page=2'"}},{"result":{"nanos":0,"errorMessage":"no step-definition method match found for: Print name\nsrc\/test\/java\/Feature\/Get.feature:10","millis":0.0,"status":"failed"},"step":{"line":10,"prefix":"And","index":1,"text":"Print name"},"stepLog":"10:45:56.574 src\/test\/java\/Feature\/Get.feature:10\nAnd Print name\nno step-definition method match found for: Print name\nsrc\/test\/java\/Feature\/Get.feature:10\n"},{"result":{"nanos":0,"millis":0.0,"status":"skipped"},"step":{"line":11,"prefix":"When","index":2,"text":"method GET"}},{"result":{"nanos":0,"millis":0.0,"status":"skipped"},"step":{"line":12,"prefix":"Then","index":3,"text":"status 200"}}],"line":8,"description":"","durationMillis":2.4118,"failed":true,"error":"no step-definition method match found for: Print name\nsrc\/test\/java\/Feature\/Get.feature:10","executorName":"main","name":"Test with path","startTime":1664117156439,"refId":"[1:8]","endTime":1664117156574,"exampleIndex":-1},{"sectionIndex":1,"stepResults":[{"result":{"nanos":307500,"millis":0.3075,"status":"passed"},"step":{"background":true,"line":5,"prefix":"*","index":0,"text":"url  'https:\/\/reqres.in\/'"}},{"result":{"nanos":216600,"millis":0.2166,"status":"passed"},"step":{"background":true,"line":6,"prefix":"*","index":1,"text":"header Accept = 'application\/json'"}},{"result":{"nanos":386900,"millis":0.3869,"status":"passed"},"step":{"line":16,"prefix":"Given","index":0,"text":"path 'api\/users'"}},{"result":{"nanos":1676100,"millis":1.6761,"status":"passed"},"step":{"line":17,"prefix":"And","index":1,"text":"param page = 2"}},{"result":{"nanos":549996200,"millis":549.9962,"status":"passed"},"step":{"line":18,"prefix":"When","index":2,"text":"method GET"},"stepLog":"10:45:56.823 request:\n1 > GET https:\/\/reqres.in\/api\/users?page=2\n1 > Accept: application\/json\n1 > Host: reqres.in\n1 > Connection: Keep-Alive\n1 > User-Agent: Apache-HttpClient\/4.5.12 (Java\/17.0.1)\n1 > Accept-Encoding: gzip,deflate\n\n\n10:45:57.084 response time in milliseconds: 257\n1 < 200\n1 < Date: Sun, 25 Sep 2022 14:45:53 GMT\n1 < Content-Type: application\/json; charset=utf-8\n1 < Transfer-Encoding: chunked\n1 < Connection: keep-alive\n1 < X-Powered-By: Express\n1 < Access-Control-Allow-Origin: *\n1 < Etag: W\/\"406-ut0vzoCuidvyMf8arZpMpJ6ZRDw\"\n1 < Via: 1.1 vegur\n1 < Cache-Control: max-age=14400\n1 < CF-Cache-Status: HIT\n1 < Age: 505\n1 < Report-To: {\"endpoints\":[{\"url\":\"https:\\\/\\\/a.nel.cloudflare.com\\\/report\\\/v3?s=5xVxt8he9fgLpo0yPHH6Vjhe7CV2qBSvZW3Pc3cvLj%2FI7Dwvyu5DmoBeRmOPp5EbEoY1xai6hWhtyTtBsMuYsYL7V%2BUncT88TqHIPGDVdl3T4RqRDydDxfUOIA%3D%3D\"}],\"group\":\"cf-nel\",\"max_age\":604800}\n1 < NEL: {\"success_fraction\":0,\"report_to\":\"cf-nel\",\"max_age\":604800}\n1 < Vary: Accept-Encoding\n1 < Server: cloudflare\n1 < CF-RAY: 75048bd359b3cac4-YYZ\n{\"page\":2,\"per_page\":6,\"total\":12,\"total_pages\":2,\"data\":[{\"id\":7,\"email\":\"michael.lawson@reqres.in\",\"first_name\":\"Michael\",\"last_name\":\"Lawson\",\"avatar\":\"https:\/\/reqres.in\/img\/faces\/7-image.jpg\"},{\"id\":8,\"email\":\"lindsay.ferguson@reqres.in\",\"first_name\":\"Lindsay\",\"last_name\":\"Ferguson\",\"avatar\":\"https:\/\/reqres.in\/img\/faces\/8-image.jpg\"},{\"id\":9,\"email\":\"tobias.funke@reqres.in\",\"first_name\":\"Tobias\",\"last_name\":\"Funke\",\"avatar\":\"https:\/\/reqres.in\/img\/faces\/9-image.jpg\"},{\"id\":10,\"email\":\"byron.fields@reqres.in\",\"first_name\":\"Byron\",\"last_name\":\"Fields\",\"avatar\":\"https:\/\/reqres.in\/img\/faces\/10-image.jpg\"},{\"id\":11,\"email\":\"george.edwards@reqres.in\",\"first_name\":\"George\",\"last_name\":\"Edwards\",\"avatar\":\"https:\/\/reqres.in\/img\/faces\/11-image.jpg\"},{\"id\":12,\"email\":\"rachel.howell@reqres.in\",\"first_name\":\"Rachel\",\"last_name\":\"Howell\",\"avatar\":\"https:\/\/reqres.in\/img\/faces\/12-image.jpg\"}],\"support\":{\"url\":\"https:\/\/reqres.in\/#support-heading\",\"text\":\"To keep ReqRes free, contributions towards server costs are appreciated!\"}}\n\n"},{"result":{"nanos":25200,"millis":0.0252,"status":"passed"},"step":{"line":19,"prefix":"Then","index":3,"text":"status 200"}},{"result":{"nanos":58102800,"millis":58.1028,"status":"passed"},"step":{"line":20,"prefix":"And","index":4,"text":"print responseStatus"},"stepLog":"10:45:57.191 [print] 200 \n"},{"result":{"nanos":4830200,"millis":4.8302,"status":"passed"},"step":{"line":21,"prefix":"And","index":5,"text":"print responseHeaders"},"stepLog":"10:45:57.197 [print] {\n  \"Date\": [\n    \"Sun, 25 Sep 2022 14:45:53 GMT\"\n  ],\n  \"Content-Type\": [\n    \"application\/json; charset=utf-8\"\n  ],\n  \"Transfer-Encoding\": [\n    \"chunked\"\n  ],\n  \"Connection\": [\n    \"keep-alive\"\n  ],\n  \"X-Powered-By\": [\n    \"Express\"\n  ],\n  \"Access-Control-Allow-Origin\": [\n    \"*\"\n  ],\n  \"Etag\": [\n    \"W\/\\\"406-ut0vzoCuidvyMf8arZpMpJ6ZRDw\\\"\"\n  ],\n  \"Via\": [\n    \"1.1 vegur\"\n  ],\n  \"Cache-Control\": [\n    \"max-age=14400\"\n  ],\n  \"CF-Cache-Status\": [\n    \"HIT\"\n  ],\n  \"Age\": [\n    \"505\"\n  ],\n  \"Report-To\": [\n    \"{\\\"endpoints\\\":[{\\\"url\\\":\\\"https:\\\\\/\\\\\/a.nel.cloudflare.com\\\\\/report\\\\\/v3?s=5xVxt8he9fgLpo0yPHH6Vjhe7CV2qBSvZW3Pc3cvLj%2FI7Dwvyu5DmoBeRmOPp5EbEoY1xai6hWhtyTtBsMuYsYL7V%2BUncT88TqHIPGDVdl3T4RqRDydDxfUOIA%3D%3D\\\"}],\\\"group\\\":\\\"cf-nel\\\",\\\"max_age\\\":604800}\"\n  ],\n  \"NEL\": [\n    \"{\\\"success_fraction\\\":0,\\\"report_to\\\":\\\"cf-nel\\\",\\\"max_age\\\":604800}\"\n  ],\n  \"Vary\": [\n    \"Accept-Encoding\"\n  ],\n  \"Server\": [\n    \"cloudflare\"\n  ],\n  \"CF-RAY\": [\n    \"75048bd359b3cac4-YYZ\"\n  ]\n}\n \n"},{"result":{"nanos":6647400,"millis":6.6474,"status":"passed"},"step":{"line":22,"prefix":"And","index":6,"text":"assert response.data.length == 6"}},{"result":{"nanos":18659100,"millis":18.6591,"status":"passed"},"step":{"line":23,"prefix":"And","index":7,"text":"match response contains { page: 2, per_page: 6}"}}],"executorName":"main","line":15,"name":"Test with params","description":"","durationMillis":640.848,"startTime":1664117156579,"failed":false,"refId":"[2:15]","endTime":1664117157223,"exampleIndex":-1}],"callDepth":0,"name":"to show the use of Get","description":"","resultDate":"2022-09-25 10:45:57 a.m.","durationMillis":643.2598,"passedCount":1}