{"failedCount":0,"prefixedPath":"src\/test\/java\/Feature\/sample.feature","packageQualifiedName":"src.test.java.Feature.sample","loopIndex":-1,"relativePath":"src\/test\/java\/Feature\/sample.feature","scenarioResults":[{"sectionIndex":0,"stepResults":[{"result":{"nanos":37947000,"millis":37.947,"status":"passed"},"step":{"line":4,"prefix":"Given","index":0,"text":"configure headers = {Content-Type: 'application\/json'}"}},{"result":{"nanos":1003300,"millis":1.0033,"status":"passed"},"step":{"line":5,"prefix":"And","index":1,"text":"url 'https:\/\/swapi.dev\/'"}},{"result":{"nanos":360900,"millis":0.3609,"status":"passed"},"step":{"line":6,"prefix":"And","index":2,"text":"path 'api\/people\/1\/'"}},{"result":{"nanos":3168580200,"millis":3168.5802,"status":"passed"},"step":{"line":7,"prefix":"When","index":3,"text":"method GET"},"stepLog":"17:19:32.157 request:\n1 > GET https:\/\/swapi.dev\/api\/people\/1\n1 > Content-Type: application\/json\n1 > Host: swapi.dev\n1 > Connection: Keep-Alive\n1 > User-Agent: Apache-HttpClient\/4.5.12 (Java\/17.0.1)\n1 > Accept-Encoding: gzip,deflate\n\n\n17:19:35.105 response time in milliseconds: 2944\n1 < 200\n1 < Server: nginx\/1.16.1\n1 < Date: Sun, 25 Sep 2022 21:19:31 GMT\n1 < Content-Type: application\/json\n1 < Transfer-Encoding: chunked\n1 < Connection: keep-alive\n1 < Vary: Accept, Cookie\n1 < X-Frame-Options: SAMEORIGIN\n1 < ETag: \"ee398610435c328f4d0a4e1b0d2f7bbc\"\n1 < Allow: GET, HEAD, OPTIONS\n1 < Strict-Transport-Security: max-age=15768000\n{\"name\":\"Luke Skywalker\",\"height\":\"172\",\"mass\":\"77\",\"hair_color\":\"blond\",\"skin_color\":\"fair\",\"eye_color\":\"blue\",\"birth_year\":\"19BBY\",\"gender\":\"male\",\"homeworld\":\"https:\/\/swapi.dev\/api\/planets\/1\/\",\"films\":[\"https:\/\/swapi.dev\/api\/films\/1\/\",\"https:\/\/swapi.dev\/api\/films\/2\/\",\"https:\/\/swapi.dev\/api\/films\/3\/\",\"https:\/\/swapi.dev\/api\/films\/6\/\"],\"species\":[],\"vehicles\":[\"https:\/\/swapi.dev\/api\/vehicles\/14\/\",\"https:\/\/swapi.dev\/api\/vehicles\/30\/\"],\"starships\":[\"https:\/\/swapi.dev\/api\/starships\/12\/\",\"https:\/\/swapi.dev\/api\/starships\/22\/\"],\"created\":\"2014-12-09T13:50:51.644000Z\",\"edited\":\"2014-12-20T21:17:56.891000Z\",\"url\":\"https:\/\/swapi.dev\/api\/people\/1\/\"}\n\n"},{"result":{"nanos":36200,"millis":0.0362,"status":"passed"},"step":{"line":8,"prefix":"Then","index":4,"text":"status 200"}},{"result":{"nanos":122176100,"millis":122.1761,"status":"passed"},"step":{"line":9,"prefix":"*","index":5,"text":"print response"},"stepLog":"17:19:35.236 [print] {\n  \"name\": \"Luke Skywalker\",\n  \"height\": \"172\",\n  \"mass\": \"77\",\n  \"hair_color\": \"blond\",\n  \"skin_color\": \"fair\",\n  \"eye_color\": \"blue\",\n  \"birth_year\": \"19BBY\",\n  \"gender\": \"male\",\n  \"homeworld\": \"https:\/\/swapi.dev\/api\/planets\/1\/\",\n  \"films\": [\n    \"https:\/\/swapi.dev\/api\/films\/1\/\",\n    \"https:\/\/swapi.dev\/api\/films\/2\/\",\n    \"https:\/\/swapi.dev\/api\/films\/3\/\",\n    \"https:\/\/swapi.dev\/api\/films\/6\/\"\n  ],\n  \"species\": [\n  ],\n  \"vehicles\": [\n    \"https:\/\/swapi.dev\/api\/vehicles\/14\/\",\n    \"https:\/\/swapi.dev\/api\/vehicles\/30\/\"\n  ],\n  \"starships\": [\n    \"https:\/\/swapi.dev\/api\/starships\/12\/\",\n    \"https:\/\/swapi.dev\/api\/starships\/22\/\"\n  ],\n  \"created\": \"2014-12-09T13:50:51.644000Z\",\n  \"edited\": \"2014-12-20T21:17:56.891000Z\",\n  \"url\": \"https:\/\/swapi.dev\/api\/people\/1\/\"\n}\n \n"},{"result":{"nanos":2156200,"millis":2.1562,"status":"passed"},"step":{"line":10,"prefix":"*","index":6,"text":"print responseHeaders"},"stepLog":"17:19:35.238 [print] {\n  \"Server\": [\n    \"nginx\/1.16.1\"\n  ],\n  \"Date\": [\n    \"Sun, 25 Sep 2022 21:19:31 GMT\"\n  ],\n  \"Content-Type\": [\n    \"application\/json\"\n  ],\n  \"Transfer-Encoding\": [\n    \"chunked\"\n  ],\n  \"Connection\": [\n    \"keep-alive\"\n  ],\n  \"Vary\": [\n    \"Accept, Cookie\"\n  ],\n  \"X-Frame-Options\": [\n    \"SAMEORIGIN\"\n  ],\n  \"ETag\": [\n    \"\\\"ee398610435c328f4d0a4e1b0d2f7bbc\\\"\"\n  ],\n  \"Allow\": [\n    \"GET, HEAD, OPTIONS\"\n  ],\n  \"Strict-Transport-Security\": [\n    \"max-age=15768000\"\n  ]\n}\n \n"}],"executorName":"main","line":3,"name":"To test the GET call.","description":"","durationMillis":3332.2599,"startTime":1664140771768,"failed":false,"refId":"[1:3]","endTime":1664140775239,"exampleIndex":-1},{"sectionIndex":1,"stepResults":[{"result":{"nanos":995100,"millis":0.9951,"status":"passed"},"step":{"line":14,"prefix":"Given","index":0,"text":"url 'https:\/\/reqres.in\/api\/users?page=2'"}},{"result":{"nanos":198979500,"millis":198.9795,"status":"passed"},"step":{"line":15,"prefix":"When","index":1,"text":"method GET"},"stepLog":"17:19:35.257 request:\n1 > GET https:\/\/reqres.in\/api\/users?page=2\n1 > Host: reqres.in\n1 > Connection: Keep-Alive\n1 > User-Agent: Apache-HttpClient\/4.5.12 (Java\/17.0.1)\n1 > Accept-Encoding: gzip,deflate\n\n\n17:19:35.451 response time in milliseconds: 193\n1 < 200\n1 < Date: Sun, 25 Sep 2022 21:19:31 GMT\n1 < Content-Type: application\/json; charset=utf-8\n1 < Transfer-Encoding: chunked\n1 < Connection: keep-alive\n1 < X-Powered-By: Express\n1 < Access-Control-Allow-Origin: *\n1 < Etag: W\/\"406-ut0vzoCuidvyMf8arZpMpJ6ZRDw\"\n1 < Via: 1.1 vegur\n1 < Cache-Control: max-age=14400\n1 < CF-Cache-Status: HIT\n1 < Age: 2405\n1 < Report-To: {\"endpoints\":[{\"url\":\"https:\\\/\\\/a.nel.cloudflare.com\\\/report\\\/v3?s=QeIPgkoxKlzu3%2BGj7AMBiTrNLgSU6QMAyVnePHlFL8BoHmX0kdKzmKPwQGBvyXGuCPE%2FlCHo8dBXNzHRxLl3YUYTBK1hZY1LhOgvUV81Vm4RNM9hpBgvsD%2BtMA%3D%3D\"}],\"group\":\"cf-nel\",\"max_age\":604800}\n1 < NEL: {\"success_fraction\":0,\"report_to\":\"cf-nel\",\"max_age\":604800}\n1 < Vary: Accept-Encoding\n1 < Server: cloudflare\n1 < CF-RAY: 7506cc700e71a210-YYZ\n{\"page\":2,\"per_page\":6,\"total\":12,\"total_pages\":2,\"data\":[{\"id\":7,\"email\":\"michael.lawson@reqres.in\",\"first_name\":\"Michael\",\"last_name\":\"Lawson\",\"avatar\":\"https:\/\/reqres.in\/img\/faces\/7-image.jpg\"},{\"id\":8,\"email\":\"lindsay.ferguson@reqres.in\",\"first_name\":\"Lindsay\",\"last_name\":\"Ferguson\",\"avatar\":\"https:\/\/reqres.in\/img\/faces\/8-image.jpg\"},{\"id\":9,\"email\":\"tobias.funke@reqres.in\",\"first_name\":\"Tobias\",\"last_name\":\"Funke\",\"avatar\":\"https:\/\/reqres.in\/img\/faces\/9-image.jpg\"},{\"id\":10,\"email\":\"byron.fields@reqres.in\",\"first_name\":\"Byron\",\"last_name\":\"Fields\",\"avatar\":\"https:\/\/reqres.in\/img\/faces\/10-image.jpg\"},{\"id\":11,\"email\":\"george.edwards@reqres.in\",\"first_name\":\"George\",\"last_name\":\"Edwards\",\"avatar\":\"https:\/\/reqres.in\/img\/faces\/11-image.jpg\"},{\"id\":12,\"email\":\"rachel.howell@reqres.in\",\"first_name\":\"Rachel\",\"last_name\":\"Howell\",\"avatar\":\"https:\/\/reqres.in\/img\/faces\/12-image.jpg\"}],\"support\":{\"url\":\"https:\/\/reqres.in\/#support-heading\",\"text\":\"To keep ReqRes free, contributions towards server costs are appreciated!\"}}\n\n"},{"result":{"nanos":28700,"millis":0.0287,"status":"passed"},"step":{"line":16,"prefix":"Then","index":2,"text":"status 200"}},{"result":{"nanos":2217400,"millis":2.2174,"status":"passed"},"step":{"line":17,"prefix":"And","index":3,"text":"print response"},"stepLog":"17:19:35.456 [print] {\n  \"page\": 2,\n  \"per_page\": 6,\n  \"total\": 12,\n  \"total_pages\": 2,\n  \"data\": [\n    {\n      \"id\": 7,\n      \"email\": \"michael.lawson@reqres.in\",\n      \"first_name\": \"Michael\",\n      \"last_name\": \"Lawson\",\n      \"avatar\": \"https:\/\/reqres.in\/img\/faces\/7-image.jpg\"\n    },\n    {\n      \"id\": 8,\n      \"email\": \"lindsay.ferguson@reqres.in\",\n      \"first_name\": \"Lindsay\",\n      \"last_name\": \"Ferguson\",\n      \"avatar\": \"https:\/\/reqres.in\/img\/faces\/8-image.jpg\"\n    },\n    {\n      \"id\": 9,\n      \"email\": \"tobias.funke@reqres.in\",\n      \"first_name\": \"Tobias\",\n      \"last_name\": \"Funke\",\n      \"avatar\": \"https:\/\/reqres.in\/img\/faces\/9-image.jpg\"\n    },\n    {\n      \"id\": 10,\n      \"email\": \"byron.fields@reqres.in\",\n      \"first_name\": \"Byron\",\n      \"last_name\": \"Fields\",\n      \"avatar\": \"https:\/\/reqres.in\/img\/faces\/10-image.jpg\"\n    },\n    {\n      \"id\": 11,\n      \"email\": \"george.edwards@reqres.in\",\n      \"first_name\": \"George\",\n      \"last_name\": \"Edwards\",\n      \"avatar\": \"https:\/\/reqres.in\/img\/faces\/11-image.jpg\"\n    },\n    {\n      \"id\": 12,\n      \"email\": \"rachel.howell@reqres.in\",\n      \"first_name\": \"Rachel\",\n      \"last_name\": \"Howell\",\n      \"avatar\": \"https:\/\/reqres.in\/img\/faces\/12-image.jpg\"\n    }\n  ],\n  \"support\": {\n    \"url\": \"https:\/\/reqres.in\/#support-heading\",\n    \"text\": \"To keep ReqRes free, contributions towards server costs are appreciated!\"\n  }\n}\n \n"},{"result":{"nanos":10152900,"millis":10.1529,"status":"passed"},"step":{"line":18,"prefix":"And","index":4,"text":"print responseTime"},"stepLog":"17:19:35.467 [print] 193 \n"}],"executorName":"main","line":13,"name":"To test fake get call","description":"","durationMillis":212.3736,"startTime":1664140775249,"failed":false,"refId":"[2:13]","endTime":1664140775467,"exampleIndex":-1}],"callDepth":0,"name":"This is sample GET feature for testing.","description":"","resultDate":"2022-09-25 05:19:35 p.m.","durationMillis":3544.6335,"passedCount":2}