{"failedCount":0,"prefixedPath":"classpath:Feature\/sample.feature","packageQualifiedName":"Feature.sample","loopIndex":-1,"relativePath":"Feature\/sample.feature","scenarioResults":[{"sectionIndex":0,"stepResults":[{"result":{"nanos":525200,"millis":0.5252,"status":"passed"},"step":{"line":4,"prefix":"Given","index":0,"text":"url 'https:\/\/swapi.dev\/'"}},{"result":{"nanos":193400,"millis":0.1934,"status":"passed"},"step":{"line":5,"prefix":"And","index":1,"text":"path 'api\/people\/1\/'"}},{"result":{"nanos":511382500,"millis":511.3825,"status":"passed"},"step":{"line":6,"prefix":"When","index":2,"text":"method GET"},"stepLog":"07:49:25.348 request:\n1 > GET https:\/\/swapi.dev\/api\/people\/1\n1 > Host: swapi.dev\n1 > Connection: Keep-Alive\n1 > User-Agent: Apache-HttpClient\/4.5.12 (Java\/17.0.1)\n1 > Accept-Encoding: gzip,deflate\n\n\n07:49:25.855 response time in milliseconds: 507\n1 < 200\n1 < Server: nginx\/1.16.1\n1 < Date: Sun, 25 Sep 2022 11:49:22 GMT\n1 < Content-Type: application\/json\n1 < Transfer-Encoding: chunked\n1 < Connection: keep-alive\n1 < Vary: Accept, Cookie\n1 < X-Frame-Options: SAMEORIGIN\n1 < ETag: \"ee398610435c328f4d0a4e1b0d2f7bbc\"\n1 < Allow: GET, HEAD, OPTIONS\n1 < Strict-Transport-Security: max-age=15768000\n{\"name\":\"Luke Skywalker\",\"height\":\"172\",\"mass\":\"77\",\"hair_color\":\"blond\",\"skin_color\":\"fair\",\"eye_color\":\"blue\",\"birth_year\":\"19BBY\",\"gender\":\"male\",\"homeworld\":\"https:\/\/swapi.dev\/api\/planets\/1\/\",\"films\":[\"https:\/\/swapi.dev\/api\/films\/1\/\",\"https:\/\/swapi.dev\/api\/films\/2\/\",\"https:\/\/swapi.dev\/api\/films\/3\/\",\"https:\/\/swapi.dev\/api\/films\/6\/\"],\"species\":[],\"vehicles\":[\"https:\/\/swapi.dev\/api\/vehicles\/14\/\",\"https:\/\/swapi.dev\/api\/vehicles\/30\/\"],\"starships\":[\"https:\/\/swapi.dev\/api\/starships\/12\/\",\"https:\/\/swapi.dev\/api\/starships\/22\/\"],\"created\":\"2014-12-09T13:50:51.644000Z\",\"edited\":\"2014-12-20T21:17:56.891000Z\",\"url\":\"https:\/\/swapi.dev\/api\/people\/1\/\"}\n\n"},{"result":{"nanos":13600,"millis":0.0136,"status":"passed"},"step":{"line":7,"prefix":"Then","index":3,"text":"status 200"}},{"result":{"nanos":1608300,"millis":1.6083,"status":"passed"},"step":{"line":8,"prefix":"*","index":4,"text":"print response"},"stepLog":"07:49:25.861 [print] {\n  \"name\": \"Luke Skywalker\",\n  \"height\": \"172\",\n  \"mass\": \"77\",\n  \"hair_color\": \"blond\",\n  \"skin_color\": \"fair\",\n  \"eye_color\": \"blue\",\n  \"birth_year\": \"19BBY\",\n  \"gender\": \"male\",\n  \"homeworld\": \"https:\/\/swapi.dev\/api\/planets\/1\/\",\n  \"films\": [\n    \"https:\/\/swapi.dev\/api\/films\/1\/\",\n    \"https:\/\/swapi.dev\/api\/films\/2\/\",\n    \"https:\/\/swapi.dev\/api\/films\/3\/\",\n    \"https:\/\/swapi.dev\/api\/films\/6\/\"\n  ],\n  \"species\": [\n  ],\n  \"vehicles\": [\n    \"https:\/\/swapi.dev\/api\/vehicles\/14\/\",\n    \"https:\/\/swapi.dev\/api\/vehicles\/30\/\"\n  ],\n  \"starships\": [\n    \"https:\/\/swapi.dev\/api\/starships\/12\/\",\n    \"https:\/\/swapi.dev\/api\/starships\/22\/\"\n  ],\n  \"created\": \"2014-12-09T13:50:51.644000Z\",\n  \"edited\": \"2014-12-20T21:17:56.891000Z\",\n  \"url\": \"https:\/\/swapi.dev\/api\/people\/1\/\"\n}\n \n"},{"result":{"nanos":811900,"millis":0.8119,"status":"passed"},"step":{"line":9,"prefix":"*","index":5,"text":"print responseHeaders"},"stepLog":"07:49:25.862 [print] {\n  \"Server\": [\n    \"nginx\/1.16.1\"\n  ],\n  \"Date\": [\n    \"Sun, 25 Sep 2022 11:49:22 GMT\"\n  ],\n  \"Content-Type\": [\n    \"application\/json\"\n  ],\n  \"Transfer-Encoding\": [\n    \"chunked\"\n  ],\n  \"Connection\": [\n    \"keep-alive\"\n  ],\n  \"Vary\": [\n    \"Accept, Cookie\"\n  ],\n  \"X-Frame-Options\": [\n    \"SAMEORIGIN\"\n  ],\n  \"ETag\": [\n    \"\\\"ee398610435c328f4d0a4e1b0d2f7bbc\\\"\"\n  ],\n  \"Allow\": [\n    \"GET, HEAD, OPTIONS\"\n  ],\n  \"Strict-Transport-Security\": [\n    \"max-age=15768000\"\n  ]\n}\n \n"}],"executorName":"main","line":3,"name":"To test the GET call.","description":"","durationMillis":514.5349,"startTime":1664106565346,"failed":false,"refId":"[1:3]","endTime":1664106565862,"exampleIndex":-1},{"sectionIndex":1,"stepResults":[{"result":{"nanos":459900,"millis":0.4599,"status":"passed"},"step":{"line":13,"prefix":"Given","index":0,"text":"url 'https:\/\/reqres.in\/api\/users?page=2'"}},{"result":{"nanos":85341700,"millis":85.3417,"status":"passed"},"step":{"line":14,"prefix":"When","index":1,"text":"method GET"},"stepLog":"07:49:25.867 request:\n1 > GET https:\/\/reqres.in\/api\/users?page=2\n1 > Host: reqres.in\n1 > Connection: Keep-Alive\n1 > User-Agent: Apache-HttpClient\/4.5.12 (Java\/17.0.1)\n1 > Accept-Encoding: gzip,deflate\n\n\n07:49:25.950 response time in milliseconds: 83\n1 < 200\n1 < Date: Sun, 25 Sep 2022 11:49:22 GMT\n1 < Content-Type: application\/json; charset=utf-8\n1 < Transfer-Encoding: chunked\n1 < Connection: keep-alive\n1 < X-Powered-By: Express\n1 < Access-Control-Allow-Origin: *\n1 < Etag: W\/\"406-ut0vzoCuidvyMf8arZpMpJ6ZRDw\"\n1 < Via: 1.1 vegur\n1 < Cache-Control: max-age=14400\n1 < CF-Cache-Status: HIT\n1 < Age: 4697\n1 < Report-To: {\"endpoints\":[{\"url\":\"https:\\\/\\\/a.nel.cloudflare.com\\\/report\\\/v3?s=jXIR4q1NXYJUVcvwjBP3NOl5%2BmX4eBUESNCwEhOh%2BM6fAtg1Ueu2Ii%2B6SEn90J3WuAHF%2F9TME2eFU78vrRZx%2FUM5%2F1SsJmFLEiSRlZ59WmYTOJ%2FhWUihL94voQ%3D%3D\"}],\"group\":\"cf-nel\",\"max_age\":604800}\n1 < NEL: {\"success_fraction\":0,\"report_to\":\"cf-nel\",\"max_age\":604800}\n1 < Vary: Accept-Encoding\n1 < Server: cloudflare\n1 < CF-RAY: 75038941b9eecac4-YYZ\n{\"page\":2,\"per_page\":6,\"total\":12,\"total_pages\":2,\"data\":[{\"id\":7,\"email\":\"michael.lawson@reqres.in\",\"first_name\":\"Michael\",\"last_name\":\"Lawson\",\"avatar\":\"https:\/\/reqres.in\/img\/faces\/7-image.jpg\"},{\"id\":8,\"email\":\"lindsay.ferguson@reqres.in\",\"first_name\":\"Lindsay\",\"last_name\":\"Ferguson\",\"avatar\":\"https:\/\/reqres.in\/img\/faces\/8-image.jpg\"},{\"id\":9,\"email\":\"tobias.funke@reqres.in\",\"first_name\":\"Tobias\",\"last_name\":\"Funke\",\"avatar\":\"https:\/\/reqres.in\/img\/faces\/9-image.jpg\"},{\"id\":10,\"email\":\"byron.fields@reqres.in\",\"first_name\":\"Byron\",\"last_name\":\"Fields\",\"avatar\":\"https:\/\/reqres.in\/img\/faces\/10-image.jpg\"},{\"id\":11,\"email\":\"george.edwards@reqres.in\",\"first_name\":\"George\",\"last_name\":\"Edwards\",\"avatar\":\"https:\/\/reqres.in\/img\/faces\/11-image.jpg\"},{\"id\":12,\"email\":\"rachel.howell@reqres.in\",\"first_name\":\"Rachel\",\"last_name\":\"Howell\",\"avatar\":\"https:\/\/reqres.in\/img\/faces\/12-image.jpg\"}],\"support\":{\"url\":\"https:\/\/reqres.in\/#support-heading\",\"text\":\"To keep ReqRes free, contributions towards server costs are appreciated!\"}}\n\n"},{"result":{"nanos":38000,"millis":0.038,"status":"passed"},"step":{"line":15,"prefix":"Then","index":2,"text":"status 200"}},{"result":{"nanos":563400,"millis":0.5634,"status":"passed"},"step":{"line":16,"prefix":"And","index":3,"text":"print response"},"stepLog":"07:49:25.952 [print] {\n  \"page\": 2,\n  \"per_page\": 6,\n  \"total\": 12,\n  \"total_pages\": 2,\n  \"data\": [\n    {\n      \"id\": 7,\n      \"email\": \"michael.lawson@reqres.in\",\n      \"first_name\": \"Michael\",\n      \"last_name\": \"Lawson\",\n      \"avatar\": \"https:\/\/reqres.in\/img\/faces\/7-image.jpg\"\n    },\n    {\n      \"id\": 8,\n      \"email\": \"lindsay.ferguson@reqres.in\",\n      \"first_name\": \"Lindsay\",\n      \"last_name\": \"Ferguson\",\n      \"avatar\": \"https:\/\/reqres.in\/img\/faces\/8-image.jpg\"\n    },\n    {\n      \"id\": 9,\n      \"email\": \"tobias.funke@reqres.in\",\n      \"first_name\": \"Tobias\",\n      \"last_name\": \"Funke\",\n      \"avatar\": \"https:\/\/reqres.in\/img\/faces\/9-image.jpg\"\n    },\n    {\n      \"id\": 10,\n      \"email\": \"byron.fields@reqres.in\",\n      \"first_name\": \"Byron\",\n      \"last_name\": \"Fields\",\n      \"avatar\": \"https:\/\/reqres.in\/img\/faces\/10-image.jpg\"\n    },\n    {\n      \"id\": 11,\n      \"email\": \"george.edwards@reqres.in\",\n      \"first_name\": \"George\",\n      \"last_name\": \"Edwards\",\n      \"avatar\": \"https:\/\/reqres.in\/img\/faces\/11-image.jpg\"\n    },\n    {\n      \"id\": 12,\n      \"email\": \"rachel.howell@reqres.in\",\n      \"first_name\": \"Rachel\",\n      \"last_name\": \"Howell\",\n      \"avatar\": \"https:\/\/reqres.in\/img\/faces\/12-image.jpg\"\n    }\n  ],\n  \"support\": {\n    \"url\": \"https:\/\/reqres.in\/#support-heading\",\n    \"text\": \"To keep ReqRes free, contributions towards server costs are appreciated!\"\n  }\n}\n \n"},{"result":{"nanos":766700,"millis":0.7667,"status":"passed"},"step":{"line":17,"prefix":"And","index":4,"text":"print responseTime"},"stepLog":"07:49:25.953 [print] 83 \n"}],"executorName":"main","line":12,"name":"To test fake get call","description":"","durationMillis":87.1697,"startTime":1664106565865,"failed":false,"refId":"[2:12]","endTime":1664106565953,"exampleIndex":-1}],"callDepth":0,"name":"This is sample GET feature for testing.","description":"","resultDate":"2022-09-25 07:49:25 a.m.","durationMillis":601.7046,"passedCount":2}