{"failedCount":1,"prefixedPath":"classpath:Feature\/PathAndParams.feature","packageQualifiedName":"Feature.PathAndParams","loopIndex":-1,"relativePath":"Feature\/PathAndParams.feature","scenarioResults":[{"sectionIndex":0,"stepResults":[{"result":{"nanos":409300,"millis":0.4093,"status":"passed"},"step":{"background":true,"line":5,"prefix":"*","index":0,"text":"url  'https:\/\/reqres.in\/'"}},{"result":{"nanos":226500,"millis":0.2265,"status":"passed"},"step":{"background":true,"line":6,"prefix":"*","index":1,"text":"header Accept = 'application\/json'"}},{"result":{"nanos":143600,"millis":0.1436,"status":"passed"},"step":{"line":9,"prefix":"Given","index":0,"text":"path 'api\/users?page=2'"}},{"result":{"nanos":122581900,"millis":122.5819,"status":"passed"},"step":{"line":10,"prefix":"When","index":1,"text":"method GET"},"stepLog":"07:49:24.999 request:\n1 > GET https:\/\/reqres.in\/api\/users%3Fpage=2\n1 > Accept: application\/json\n1 > Host: reqres.in\n1 > Connection: Keep-Alive\n1 > User-Agent: Apache-HttpClient\/4.5.12 (Java\/17.0.1)\n1 > Accept-Encoding: gzip,deflate\n\n\n07:49:25.119 response time in milliseconds: 120\n1 < 200\n1 < Date: Sun, 25 Sep 2022 11:49:22 GMT\n1 < Content-Type: application\/json; charset=utf-8\n1 < Transfer-Encoding: chunked\n1 < Connection: keep-alive\n1 < X-Powered-By: Express\n1 < Access-Control-Allow-Origin: *\n1 < Etag: W\/\"2c1-N6Rqerxquq2kgQhL51EiSg4x0R8\"\n1 < Via: 1.1 vegur\n1 < Cache-Control: max-age=14400\n1 < CF-Cache-Status: HIT\n1 < Age: 4443\n1 < Report-To: {\"endpoints\":[{\"url\":\"https:\\\/\\\/a.nel.cloudflare.com\\\/report\\\/v3?s=0r4zE8WdfKl7Q2dQKLmp586dGPm%2Fhe9FvpryKjAeW66TZgr%2F1r365uWO181zjgjV2TE%2BppVj7LIWCVRtG9G2oFRYPErP8KWsHWlOPK3RgHGACUwtGon65pZhNw%3D%3D\"}],\"group\":\"cf-nel\",\"max_age\":604800}\n1 < NEL: {\"success_fraction\":0,\"report_to\":\"cf-nel\",\"max_age\":604800}\n1 < Vary: Accept-Encoding\n1 < Server: cloudflare\n1 < CF-RAY: 7503893c8ce253e9-YYZ\n{\"page\":1,\"per_page\":6,\"total\":12,\"total_pages\":2,\"data\":[{\"id\":1,\"name\":\"cerulean\",\"year\":2000,\"color\":\"#98B2D1\",\"pantone_value\":\"15-4020\"},{\"id\":2,\"name\":\"fuchsia rose\",\"year\":2001,\"color\":\"#C74375\",\"pantone_value\":\"17-2031\"},{\"id\":3,\"name\":\"true red\",\"year\":2002,\"color\":\"#BF1932\",\"pantone_value\":\"19-1664\"},{\"id\":4,\"name\":\"aqua sky\",\"year\":2003,\"color\":\"#7BC4C4\",\"pantone_value\":\"14-4811\"},{\"id\":5,\"name\":\"tigerlily\",\"year\":2004,\"color\":\"#E2583E\",\"pantone_value\":\"17-1456\"},{\"id\":6,\"name\":\"blue turquoise\",\"year\":2005,\"color\":\"#53B0AE\",\"pantone_value\":\"15-5217\"}],\"support\":{\"url\":\"https:\/\/reqres.in\/#support-heading\",\"text\":\"To keep ReqRes free, contributions towards server costs are appreciated!\"}}\n\n"},{"result":{"nanos":9300,"millis":0.0093,"status":"passed"},"step":{"line":11,"prefix":"Then","index":2,"text":"status 200"}},{"result":{"nanos":2005100,"errorMessage":"match failed: CONTAINS\n  $ | actual does not contain expected | all key-values did not match, expected has un-matched keys - [page] (MAP:MAP)\n  {\"page\":1,\"per_page\":6,\"total\":12,\"total_pages\":2,\"data\":[{\"id\":1,\"name\":\"cerulean\",\"year\":2000,\"color\":\"#98B2D1\",\"pantone_value\":\"15-4020\"},{\"id\":2,\"name\":\"fuchsia rose\",\"year\":2001,\"color\":\"#C74375\",\"pantone_value\":\"17-2031\"},{\"id\":3,\"name\":\"true red\",\"year\":2002,\"color\":\"#BF1932\",\"pantone_value\":\"19-1664\"},{\"id\":4,\"name\":\"aqua sky\",\"year\":2003,\"color\":\"#7BC4C4\",\"pantone_value\":\"14-4811\"},{\"id\":5,\"name\":\"tigerlily\",\"year\":2004,\"color\":\"#E2583E\",\"pantone_value\":\"17-1456\"},{\"id\":6,\"name\":\"blue turquoise\",\"year\":2005,\"color\":\"#53B0AE\",\"pantone_value\":\"15-5217\"}],\"support\":{\"url\":\"https:\/\/reqres.in\/#support-heading\",\"text\":\"To keep ReqRes free, contributions towards server costs are appreciated!\"}}\n  {\"page\":2,\"per_page\":6}\n\n    $.page | not equal (NUMBER:NUMBER)\n    1\n    2\n\nclasspath:Feature\/PathAndParams.feature:12","millis":2.0051,"status":"failed"},"step":{"line":12,"prefix":"And","index":3,"text":"match response contains { page: 2, per_page: 6}"},"stepLog":"07:49:25.123 classpath:Feature\/PathAndParams.feature:12\nAnd match response contains { page: 2, per_page: 6}\nmatch failed: CONTAINS\n  $ | actual does not contain expected | all key-values did not match, expected has un-matched keys - [page] (MAP:MAP)\n  {\"page\":1,\"per_page\":6,\"total\":12,\"total_pages\":2,\"data\":[{\"id\":1,\"name\":\"cerulean\",\"year\":2000,\"color\":\"#98B2D1\",\"pantone_value\":\"15-4020\"},{\"id\":2,\"name\":\"fuchsia rose\",\"year\":2001,\"color\":\"#C74375\",\"pantone_value\":\"17-2031\"},{\"id\":3,\"name\":\"true red\",\"year\":2002,\"color\":\"#BF1932\",\"pantone_value\":\"19-1664\"},{\"id\":4,\"name\":\"aqua sky\",\"year\":2003,\"color\":\"#7BC4C4\",\"pantone_value\":\"14-4811\"},{\"id\":5,\"name\":\"tigerlily\",\"year\":2004,\"color\":\"#E2583E\",\"pantone_value\":\"17-1456\"},{\"id\":6,\"name\":\"blue turquoise\",\"year\":2005,\"color\":\"#53B0AE\",\"pantone_value\":\"15-5217\"}],\"support\":{\"url\":\"https:\/\/reqres.in\/#support-heading\",\"text\":\"To keep ReqRes free, contributions towards server costs are appreciated!\"}}\n  {\"page\":2,\"per_page\":6}\n\n    $.page | not equal (NUMBER:NUMBER)\n    1\n    2\n\nclasspath:Feature\/PathAndParams.feature:12\n"}],"line":8,"description":"","durationMillis":125.3757,"failed":true,"error":"match failed: CONTAINS\n  $ | actual does not contain expected | all key-values did not match, expected has un-matched keys - [page] (MAP:MAP)\n  {\"page\":1,\"per_page\":6,\"total\":12,\"total_pages\":2,\"data\":[{\"id\":1,\"name\":\"cerulean\",\"year\":2000,\"color\":\"#98B2D1\",\"pantone_value\":\"15-4020\"},{\"id\":2,\"name\":\"fuchsia rose\",\"year\":2001,\"color\":\"#C74375\",\"pantone_value\":\"17-2031\"},{\"id\":3,\"name\":\"true red\",\"year\":2002,\"color\":\"#BF1932\",\"pantone_value\":\"19-1664\"},{\"id\":4,\"name\":\"aqua sky\",\"year\":2003,\"color\":\"#7BC4C4\",\"pantone_value\":\"14-4811\"},{\"id\":5,\"name\":\"tigerlily\",\"year\":2004,\"color\":\"#E2583E\",\"pantone_value\":\"17-1456\"},{\"id\":6,\"name\":\"blue turquoise\",\"year\":2005,\"color\":\"#53B0AE\",\"pantone_value\":\"15-5217\"}],\"support\":{\"url\":\"https:\/\/reqres.in\/#support-heading\",\"text\":\"To keep ReqRes free, contributions towards server costs are appreciated!\"}}\n  {\"page\":2,\"per_page\":6}\n\n    $.page | not equal (NUMBER:NUMBER)\n    1\n    2\n\nclasspath:Feature\/PathAndParams.feature:12","executorName":"main","name":"Test with path","startTime":1664106564996,"refId":"[1:8]","endTime":1664106565123,"exampleIndex":-1},{"sectionIndex":1,"stepResults":[{"result":{"nanos":171300,"millis":0.1713,"status":"passed"},"step":{"background":true,"line":5,"prefix":"*","index":0,"text":"url  'https:\/\/reqres.in\/'"}},{"result":{"nanos":86200,"millis":0.0862,"status":"passed"},"step":{"background":true,"line":6,"prefix":"*","index":1,"text":"header Accept = 'application\/json'"}},{"result":{"nanos":390800,"millis":0.3908,"status":"passed"},"step":{"line":15,"prefix":"Given","index":0,"text":"path 'api\/users'"}},{"result":{"nanos":595800,"millis":0.5958,"status":"passed"},"step":{"line":16,"prefix":"And","index":1,"text":"param page = 2"}},{"result":{"nanos":82215500,"millis":82.2155,"status":"passed"},"step":{"line":17,"prefix":"When","index":2,"text":"method GET"},"stepLog":"07:49:25.135 request:\n1 > GET https:\/\/reqres.in\/api\/users?page=2\n1 > Accept: application\/json\n1 > Host: reqres.in\n1 > Connection: Keep-Alive\n1 > User-Agent: Apache-HttpClient\/4.5.12 (Java\/17.0.1)\n1 > Accept-Encoding: gzip,deflate\n\n\n07:49:25.214 response time in milliseconds: 79\n1 < 200\n1 < Date: Sun, 25 Sep 2022 11:49:22 GMT\n1 < Content-Type: application\/json; charset=utf-8\n1 < Transfer-Encoding: chunked\n1 < Connection: keep-alive\n1 < X-Powered-By: Express\n1 < Access-Control-Allow-Origin: *\n1 < Etag: W\/\"406-ut0vzoCuidvyMf8arZpMpJ6ZRDw\"\n1 < Via: 1.1 vegur\n1 < Cache-Control: max-age=14400\n1 < CF-Cache-Status: HIT\n1 < Age: 4697\n1 < Report-To: {\"endpoints\":[{\"url\":\"https:\\\/\\\/a.nel.cloudflare.com\\\/report\\\/v3?s=U0QgpfDF19KxbPEQU2BlL2rVSkrbfXDE9rEnLbuc%2BDjYHQpg7d1cRRUa3WlOxqwN6HVmf%2FR43%2Bo8RWWJBnTyMw%2BK1qbDSARMLcWhFyepNgMRl3Y42a2XOBWWzg%3D%3D\"}],\"group\":\"cf-nel\",\"max_age\":604800}\n1 < NEL: {\"success_fraction\":0,\"report_to\":\"cf-nel\",\"max_age\":604800}\n1 < Vary: Accept-Encoding\n1 < Server: cloudflare\n1 < CF-RAY: 7503893d29bda250-YYZ\n{\"page\":2,\"per_page\":6,\"total\":12,\"total_pages\":2,\"data\":[{\"id\":7,\"email\":\"michael.lawson@reqres.in\",\"first_name\":\"Michael\",\"last_name\":\"Lawson\",\"avatar\":\"https:\/\/reqres.in\/img\/faces\/7-image.jpg\"},{\"id\":8,\"email\":\"lindsay.ferguson@reqres.in\",\"first_name\":\"Lindsay\",\"last_name\":\"Ferguson\",\"avatar\":\"https:\/\/reqres.in\/img\/faces\/8-image.jpg\"},{\"id\":9,\"email\":\"tobias.funke@reqres.in\",\"first_name\":\"Tobias\",\"last_name\":\"Funke\",\"avatar\":\"https:\/\/reqres.in\/img\/faces\/9-image.jpg\"},{\"id\":10,\"email\":\"byron.fields@reqres.in\",\"first_name\":\"Byron\",\"last_name\":\"Fields\",\"avatar\":\"https:\/\/reqres.in\/img\/faces\/10-image.jpg\"},{\"id\":11,\"email\":\"george.edwards@reqres.in\",\"first_name\":\"George\",\"last_name\":\"Edwards\",\"avatar\":\"https:\/\/reqres.in\/img\/faces\/11-image.jpg\"},{\"id\":12,\"email\":\"rachel.howell@reqres.in\",\"first_name\":\"Rachel\",\"last_name\":\"Howell\",\"avatar\":\"https:\/\/reqres.in\/img\/faces\/12-image.jpg\"}],\"support\":{\"url\":\"https:\/\/reqres.in\/#support-heading\",\"text\":\"To keep ReqRes free, contributions towards server costs are appreciated!\"}}\n\n"},{"result":{"nanos":11200,"millis":0.0112,"status":"passed"},"step":{"line":18,"prefix":"Then","index":3,"text":"status 200"}},{"result":{"nanos":25495700,"millis":25.4957,"status":"passed"},"step":{"line":19,"prefix":"And","index":4,"text":"print responseStatus"},"stepLog":"07:49:25.241 [print] 200 \n"},{"result":{"nanos":1404400,"millis":1.4044,"status":"passed"},"step":{"line":20,"prefix":"And","index":5,"text":"print responseHeaders"},"stepLog":"07:49:25.242 [print] {\n  \"Date\": [\n    \"Sun, 25 Sep 2022 11:49:22 GMT\"\n  ],\n  \"Content-Type\": [\n    \"application\/json; charset=utf-8\"\n  ],\n  \"Transfer-Encoding\": [\n    \"chunked\"\n  ],\n  \"Connection\": [\n    \"keep-alive\"\n  ],\n  \"X-Powered-By\": [\n    \"Express\"\n  ],\n  \"Access-Control-Allow-Origin\": [\n    \"*\"\n  ],\n  \"Etag\": [\n    \"W\/\\\"406-ut0vzoCuidvyMf8arZpMpJ6ZRDw\\\"\"\n  ],\n  \"Via\": [\n    \"1.1 vegur\"\n  ],\n  \"Cache-Control\": [\n    \"max-age=14400\"\n  ],\n  \"CF-Cache-Status\": [\n    \"HIT\"\n  ],\n  \"Age\": [\n    \"4697\"\n  ],\n  \"Report-To\": [\n    \"{\\\"endpoints\\\":[{\\\"url\\\":\\\"https:\\\\\/\\\\\/a.nel.cloudflare.com\\\\\/report\\\\\/v3?s=U0QgpfDF19KxbPEQU2BlL2rVSkrbfXDE9rEnLbuc%2BDjYHQpg7d1cRRUa3WlOxqwN6HVmf%2FR43%2Bo8RWWJBnTyMw%2BK1qbDSARMLcWhFyepNgMRl3Y42a2XOBWWzg%3D%3D\\\"}],\\\"group\\\":\\\"cf-nel\\\",\\\"max_age\\\":604800}\"\n  ],\n  \"NEL\": [\n    \"{\\\"success_fraction\\\":0,\\\"report_to\\\":\\\"cf-nel\\\",\\\"max_age\\\":604800}\"\n  ],\n  \"Vary\": [\n    \"Accept-Encoding\"\n  ],\n  \"Server\": [\n    \"cloudflare\"\n  ],\n  \"CF-RAY\": [\n    \"7503893d29bda250-YYZ\"\n  ]\n}\n \n"},{"result":{"nanos":6607700,"millis":6.6077,"status":"passed"},"step":{"line":21,"prefix":"And","index":6,"text":"assert response.data.length == 6"}},{"result":{"nanos":555000,"millis":0.555,"status":"passed"},"step":{"line":22,"prefix":"And","index":7,"text":"match response contains { page: 2, per_page: 6}"}}],"executorName":"main","line":14,"name":"Test with params","description":"","durationMillis":117.5336,"startTime":1664106565131,"failed":false,"refId":"[2:14]","endTime":1664106565249,"exampleIndex":-1}],"callDepth":0,"name":"to show the use of GET- path and params","description":"","resultDate":"2022-09-25 07:49:25 a.m.","durationMillis":242.9093,"passedCount":1}