{"failedCount":2,"prefixedPath":"src\/test\/java\/Feature\/Get.feature","packageQualifiedName":"src.test.java.Feature.Get","loopIndex":-1,"relativePath":"src\/test\/java\/Feature\/Get.feature","scenarioResults":[{"sectionIndex":0,"stepResults":[{"result":{"nanos":0,"errorMessage":"no step-definition method match found for: def reqHead={Content-Type: 'application\/json'}\nsrc\/test\/java\/Feature\/Get.feature:5","millis":0.0,"status":"failed"},"step":{"comments":["#* header Accept = 'application\/json'"],"background":true,"line":5,"prefix":"*","index":0,"text":"def reqHead={Content-Type: 'application\/json'}"},"stepLog":"17:15:13.366 src\/test\/java\/Feature\/Get.feature:5\n* def reqHead={Content-Type: 'application\/json'}\nno step-definition method match found for: def reqHead={Content-Type: 'application\/json'}\nsrc\/test\/java\/Feature\/Get.feature:5\n"},{"result":{"nanos":0,"millis":0.0,"status":"skipped"},"step":{"line":8,"prefix":"Given","index":0,"text":"headers reqHead"}},{"result":{"nanos":0,"millis":0.0,"status":"skipped"},"step":{"line":9,"prefix":"And","index":1,"text":"print reqHead"}},{"result":{"nanos":0,"millis":0.0,"status":"skipped"},"step":{"line":10,"prefix":"And","index":2,"text":"url 'https:\/\/reqres.in\/api\/users?page=1'"}},{"result":{"nanos":0,"millis":0.0,"status":"skipped"},"step":{"line":11,"prefix":"And","index":3,"text":"print name"}},{"result":{"nanos":0,"millis":0.0,"status":"skipped"},"step":{"line":12,"prefix":"When","index":4,"text":"method GET"}},{"result":{"nanos":0,"millis":0.0,"status":"skipped"},"step":{"line":13,"prefix":"Then","index":5,"text":"status 200"}},{"result":{"nanos":0,"millis":0.0,"status":"skipped"},"step":{"line":14,"prefix":"And","index":6,"text":"print response"}},{"result":{"nanos":0,"millis":0.0,"status":"skipped"},"step":{"line":15,"prefix":"And","index":7,"text":"def jsonRes = $.data[1].first_name"}},{"result":{"nanos":0,"millis":0.0,"status":"skipped"},"step":{"line":16,"prefix":"And","index":8,"text":"print jsonRes"}},{"result":{"nanos":0,"millis":0.0,"status":"skipped"},"step":{"line":17,"prefix":"And","index":9,"text":"match each $.data contains {id: #number, email: #string, first_name: #string, last_name: #string, avatar: #string}"}}],"line":7,"description":"","durationMillis":0.0,"failed":true,"error":"no step-definition method match found for: def reqHead={Content-Type: 'application\/json'}\nsrc\/test\/java\/Feature\/Get.feature:5","executorName":"main","name":"Test with path","startTime":1664140513228,"refId":"[1:7]","endTime":1664140513367,"exampleIndex":-1},{"sectionIndex":1,"stepResults":[{"result":{"nanos":0,"errorMessage":"no step-definition method match found for: def reqHead={Content-Type: 'application\/json'}\nsrc\/test\/java\/Feature\/Get.feature:5","millis":0.0,"status":"failed"},"step":{"comments":["#* header Accept = 'application\/json'"],"background":true,"line":5,"prefix":"*","index":0,"text":"def reqHead={Content-Type: 'application\/json'}"},"stepLog":"17:15:13.374 src\/test\/java\/Feature\/Get.feature:5\n* def reqHead={Content-Type: 'application\/json'}\nno step-definition method match found for: def reqHead={Content-Type: 'application\/json'}\nsrc\/test\/java\/Feature\/Get.feature:5\n"},{"result":{"nanos":0,"millis":0.0,"status":"skipped"},"step":{"line":20,"prefix":"Given","index":0,"text":"url 'https:\/\/reqres.in\/api\/users?page=2'"}},{"result":{"nanos":0,"millis":0.0,"status":"skipped"},"step":{"comments":["#And param page = 2"],"line":22,"prefix":"When","index":1,"text":"method GET"}},{"result":{"nanos":0,"millis":0.0,"status":"skipped"},"step":{"line":23,"prefix":"Then","index":2,"text":"status 200"}},{"result":{"nanos":0,"millis":0.0,"status":"skipped"},"step":{"line":24,"prefix":"And","index":3,"text":"print responseStatus"}},{"result":{"nanos":0,"millis":0.0,"status":"skipped"},"step":{"line":25,"prefix":"And","index":4,"text":"print responseHeaders"}},{"result":{"nanos":0,"millis":0.0,"status":"skipped"},"step":{"line":26,"prefix":"And","index":5,"text":"assert response.data.length == 6"}},{"result":{"nanos":0,"millis":0.0,"status":"skipped"},"step":{"line":27,"prefix":"And","index":6,"text":"match response contains { \"page\":2, \"per_page\":6,   \"total\": 12, \"total_pages\": 2,}"}}],"line":19,"description":"","durationMillis":0.0,"failed":true,"error":"no step-definition method match found for: def reqHead={Content-Type: 'application\/json'}\nsrc\/test\/java\/Feature\/Get.feature:5","executorName":"main","name":"Test with params","startTime":1664140513372,"refId":"[2:19]","endTime":1664140513374,"exampleIndex":-1}],"callDepth":0,"name":"to show the use of Get","description":"","resultDate":"2022-09-25 05:15:13 p.m.","durationMillis":0.0,"passedCount":0}