{"failedCount":0,"prefixedPath":"src\/test\/java\/Feature\/Get.feature","packageQualifiedName":"src.test.java.Feature.Get","loopIndex":-1,"relativePath":"src\/test\/java\/Feature\/Get.feature","scenarioResults":[{"sectionIndex":0,"stepResults":[{"result":{"nanos":1415000,"millis":1.415,"status":"passed"},"step":{"background":true,"line":5,"prefix":"*","index":0,"text":"url  'https:\/\/reqres.in\/'"}},{"result":{"nanos":399300,"millis":0.3993,"status":"passed"},"step":{"background":true,"line":6,"prefix":"*","index":1,"text":"header Accept = 'application\/json'"}},{"result":{"nanos":201600,"millis":0.2016,"status":"passed"},"step":{"line":9,"prefix":"Given","index":0,"text":"path 'api\/users?page=1'"}},{"result":{"nanos":36310400,"millis":36.3104,"status":"passed"},"step":{"line":10,"prefix":"And","index":1,"text":"print name"},"stepLog":"13:40:36.989 [print] Atul \n"},{"result":{"nanos":789310500,"millis":789.3105,"status":"passed"},"step":{"line":11,"prefix":"When","index":2,"text":"method GET"},"stepLog":"13:40:37.235 request:\n1 > GET https:\/\/reqres.in\/api\/users%3Fpage=1\n1 > Accept: application\/json\n1 > Host: reqres.in\n1 > Connection: Keep-Alive\n1 > User-Agent: Apache-HttpClient\/4.5.12 (Java\/17.0.1)\n1 > Accept-Encoding: gzip,deflate\n\n\n13:40:37.756 response time in milliseconds: 518\n1 < 200\n1 < Date: Sun, 25 Sep 2022 17:40:34 GMT\n1 < Content-Type: application\/json; charset=utf-8\n1 < Transfer-Encoding: chunked\n1 < Connection: keep-alive\n1 < X-Powered-By: Express\n1 < Access-Control-Allow-Origin: *\n1 < Etag: W\/\"2c1-N6Rqerxquq2kgQhL51EiSg4x0R8\"\n1 < Via: 1.1 vegur\n1 < Cache-Control: max-age=14400\n1 < CF-Cache-Status: HIT\n1 < Age: 675\n1 < Report-To: {\"endpoints\":[{\"url\":\"https:\\\/\\\/a.nel.cloudflare.com\\\/report\\\/v3?s=o1wDHmXdYD%2FoJVThVoGJIYOTt4Yphrnanh2zxRF7x8gJeopjyED%2Fd%2FbFlpT7I6MTg%2F4T47dHpx2vblCC0VT7NAZ0rG1Q4S9JXWM6Ta7lrzznL9VZthqkvCxxtQ%3D%3D\"}],\"group\":\"cf-nel\",\"max_age\":604800}\n1 < NEL: {\"success_fraction\":0,\"report_to\":\"cf-nel\",\"max_age\":604800}\n1 < Vary: Accept-Encoding\n1 < Server: cloudflare\n1 < CF-RAY: 75058bb289b3a1fe-YYZ\n{\"page\":1,\"per_page\":6,\"total\":12,\"total_pages\":2,\"data\":[{\"id\":1,\"name\":\"cerulean\",\"year\":2000,\"color\":\"#98B2D1\",\"pantone_value\":\"15-4020\"},{\"id\":2,\"name\":\"fuchsia rose\",\"year\":2001,\"color\":\"#C74375\",\"pantone_value\":\"17-2031\"},{\"id\":3,\"name\":\"true red\",\"year\":2002,\"color\":\"#BF1932\",\"pantone_value\":\"19-1664\"},{\"id\":4,\"name\":\"aqua sky\",\"year\":2003,\"color\":\"#7BC4C4\",\"pantone_value\":\"14-4811\"},{\"id\":5,\"name\":\"tigerlily\",\"year\":2004,\"color\":\"#E2583E\",\"pantone_value\":\"17-1456\"},{\"id\":6,\"name\":\"blue turquoise\",\"year\":2005,\"color\":\"#53B0AE\",\"pantone_value\":\"15-5217\"}],\"support\":{\"url\":\"https:\/\/reqres.in\/#support-heading\",\"text\":\"To keep ReqRes free, contributions towards server costs are appreciated!\"}}\n\n"},{"result":{"nanos":20900,"millis":0.0209,"status":"passed"},"step":{"line":12,"prefix":"Then","index":3,"text":"status 200"}},{"result":{"nanos":4701200,"millis":4.7012,"status":"passed"},"step":{"line":13,"prefix":"And","index":4,"text":"print response"},"stepLog":"13:40:37.784 [print] {\n  \"page\": 1,\n  \"per_page\": 6,\n  \"total\": 12,\n  \"total_pages\": 2,\n  \"data\": [\n    {\n      \"id\": 1,\n      \"name\": \"cerulean\",\n      \"year\": 2000,\n      \"color\": \"#98B2D1\",\n      \"pantone_value\": \"15-4020\"\n    },\n    {\n      \"id\": 2,\n      \"name\": \"fuchsia rose\",\n      \"year\": 2001,\n      \"color\": \"#C74375\",\n      \"pantone_value\": \"17-2031\"\n    },\n    {\n      \"id\": 3,\n      \"name\": \"true red\",\n      \"year\": 2002,\n      \"color\": \"#BF1932\",\n      \"pantone_value\": \"19-1664\"\n    },\n    {\n      \"id\": 4,\n      \"name\": \"aqua sky\",\n      \"year\": 2003,\n      \"color\": \"#7BC4C4\",\n      \"pantone_value\": \"14-4811\"\n    },\n    {\n      \"id\": 5,\n      \"name\": \"tigerlily\",\n      \"year\": 2004,\n      \"color\": \"#E2583E\",\n      \"pantone_value\": \"17-1456\"\n    },\n    {\n      \"id\": 6,\n      \"name\": \"blue turquoise\",\n      \"year\": 2005,\n      \"color\": \"#53B0AE\",\n      \"pantone_value\": \"15-5217\"\n    }\n  ],\n  \"support\": {\n    \"url\": \"https:\/\/reqres.in\/#support-heading\",\n    \"text\": \"To keep ReqRes free, contributions towards server costs are appreciated!\"\n  }\n}\n \n"},{"result":{"nanos":4793600,"millis":4.7936,"status":"passed"},"step":{"line":14,"prefix":"And","index":5,"text":"def jsonRes = response.data[0].id"}},{"result":{"nanos":1155900,"millis":1.1559,"status":"passed"},"step":{"line":15,"prefix":"And","index":6,"text":"print jsonRes"},"stepLog":"13:40:37.790 [print] 1 \n"}],"executorName":"main","line":8,"name":"Test with path","description":"","durationMillis":838.3084,"startTime":1664127636831,"failed":false,"refId":"[1:8]","endTime":1664127637790,"exampleIndex":-1},{"sectionIndex":1,"stepResults":[{"result":{"nanos":370100,"millis":0.3701,"status":"passed"},"step":{"background":true,"line":5,"prefix":"*","index":0,"text":"url  'https:\/\/reqres.in\/'"}},{"result":{"nanos":197100,"millis":0.1971,"status":"passed"},"step":{"background":true,"line":6,"prefix":"*","index":1,"text":"header Accept = 'application\/json'"}},{"result":{"nanos":254200,"millis":0.2542,"status":"passed"},"step":{"line":18,"prefix":"Given","index":0,"text":"path 'api\/users'"}},{"result":{"nanos":888900,"millis":0.8889,"status":"passed"},"step":{"line":19,"prefix":"And","index":1,"text":"param page = 2"}},{"result":{"nanos":183898200,"millis":183.8982,"status":"passed"},"step":{"line":20,"prefix":"When","index":2,"text":"method GET"},"stepLog":"13:40:37.800 request:\n1 > GET https:\/\/reqres.in\/api\/users?page=2\n1 > Accept: application\/json\n1 > Host: reqres.in\n1 > Connection: Keep-Alive\n1 > User-Agent: Apache-HttpClient\/4.5.12 (Java\/17.0.1)\n1 > Accept-Encoding: gzip,deflate\n\n\n13:40:37.981 response time in milliseconds: 181\n1 < 200\n1 < Date: Sun, 25 Sep 2022 17:40:34 GMT\n1 < Content-Type: application\/json; charset=utf-8\n1 < Transfer-Encoding: chunked\n1 < Connection: keep-alive\n1 < X-Powered-By: Express\n1 < Access-Control-Allow-Origin: *\n1 < Etag: W\/\"406-ut0vzoCuidvyMf8arZpMpJ6ZRDw\"\n1 < Via: 1.1 vegur\n1 < Cache-Control: max-age=14400\n1 < CF-Cache-Status: HIT\n1 < Age: 3748\n1 < Report-To: {\"endpoints\":[{\"url\":\"https:\\\/\\\/a.nel.cloudflare.com\\\/report\\\/v3?s=VJ63MmY1Ujeo40oklycqE9%2BQdp%2FGWiAy6Lv03DddqKCn%2BuvfBi7MgmVzMGTDiAgfUyspmOs9bi1H0wl0aCQFNzOfIjmuWBL%2BDIHB%2Beue23%2BhObdJ2U6VHTbjpw%3D%3D\"}],\"group\":\"cf-nel\",\"max_age\":604800}\n1 < NEL: {\"success_fraction\":0,\"report_to\":\"cf-nel\",\"max_age\":604800}\n1 < Vary: Accept-Encoding\n1 < Server: cloudflare\n1 < CF-RAY: 75058bb40e5ea222-YYZ\n{\"page\":2,\"per_page\":6,\"total\":12,\"total_pages\":2,\"data\":[{\"id\":7,\"email\":\"michael.lawson@reqres.in\",\"first_name\":\"Michael\",\"last_name\":\"Lawson\",\"avatar\":\"https:\/\/reqres.in\/img\/faces\/7-image.jpg\"},{\"id\":8,\"email\":\"lindsay.ferguson@reqres.in\",\"first_name\":\"Lindsay\",\"last_name\":\"Ferguson\",\"avatar\":\"https:\/\/reqres.in\/img\/faces\/8-image.jpg\"},{\"id\":9,\"email\":\"tobias.funke@reqres.in\",\"first_name\":\"Tobias\",\"last_name\":\"Funke\",\"avatar\":\"https:\/\/reqres.in\/img\/faces\/9-image.jpg\"},{\"id\":10,\"email\":\"byron.fields@reqres.in\",\"first_name\":\"Byron\",\"last_name\":\"Fields\",\"avatar\":\"https:\/\/reqres.in\/img\/faces\/10-image.jpg\"},{\"id\":11,\"email\":\"george.edwards@reqres.in\",\"first_name\":\"George\",\"last_name\":\"Edwards\",\"avatar\":\"https:\/\/reqres.in\/img\/faces\/11-image.jpg\"},{\"id\":12,\"email\":\"rachel.howell@reqres.in\",\"first_name\":\"Rachel\",\"last_name\":\"Howell\",\"avatar\":\"https:\/\/reqres.in\/img\/faces\/12-image.jpg\"}],\"support\":{\"url\":\"https:\/\/reqres.in\/#support-heading\",\"text\":\"To keep ReqRes free, contributions towards server costs are appreciated!\"}}\n\n"},{"result":{"nanos":9200,"millis":0.0092,"status":"passed"},"step":{"line":21,"prefix":"Then","index":3,"text":"status 200"}},{"result":{"nanos":797800,"millis":0.7978,"status":"passed"},"step":{"line":22,"prefix":"And","index":4,"text":"print responseStatus"},"stepLog":"13:40:37.983 [print] 200 \n"},{"result":{"nanos":927000,"millis":0.927,"status":"passed"},"step":{"line":23,"prefix":"And","index":5,"text":"print responseHeaders"},"stepLog":"13:40:37.984 [print] {\n  \"Date\": [\n    \"Sun, 25 Sep 2022 17:40:34 GMT\"\n  ],\n  \"Content-Type\": [\n    \"application\/json; charset=utf-8\"\n  ],\n  \"Transfer-Encoding\": [\n    \"chunked\"\n  ],\n  \"Connection\": [\n    \"keep-alive\"\n  ],\n  \"X-Powered-By\": [\n    \"Express\"\n  ],\n  \"Access-Control-Allow-Origin\": [\n    \"*\"\n  ],\n  \"Etag\": [\n    \"W\/\\\"406-ut0vzoCuidvyMf8arZpMpJ6ZRDw\\\"\"\n  ],\n  \"Via\": [\n    \"1.1 vegur\"\n  ],\n  \"Cache-Control\": [\n    \"max-age=14400\"\n  ],\n  \"CF-Cache-Status\": [\n    \"HIT\"\n  ],\n  \"Age\": [\n    \"3748\"\n  ],\n  \"Report-To\": [\n    \"{\\\"endpoints\\\":[{\\\"url\\\":\\\"https:\\\\\/\\\\\/a.nel.cloudflare.com\\\\\/report\\\\\/v3?s=VJ63MmY1Ujeo40oklycqE9%2BQdp%2FGWiAy6Lv03DddqKCn%2BuvfBi7MgmVzMGTDiAgfUyspmOs9bi1H0wl0aCQFNzOfIjmuWBL%2BDIHB%2Beue23%2BhObdJ2U6VHTbjpw%3D%3D\\\"}],\\\"group\\\":\\\"cf-nel\\\",\\\"max_age\\\":604800}\"\n  ],\n  \"NEL\": [\n    \"{\\\"success_fraction\\\":0,\\\"report_to\\\":\\\"cf-nel\\\",\\\"max_age\\\":604800}\"\n  ],\n  \"Vary\": [\n    \"Accept-Encoding\"\n  ],\n  \"Server\": [\n    \"cloudflare\"\n  ],\n  \"CF-RAY\": [\n    \"75058bb40e5ea222-YYZ\"\n  ]\n}\n \n"},{"result":{"nanos":6042000,"millis":6.042,"status":"passed"},"step":{"line":24,"prefix":"And","index":6,"text":"assert response.data.length == 6"}},{"result":{"nanos":23059600,"millis":23.0596,"status":"passed"},"step":{"line":25,"prefix":"And","index":7,"text":"match response contains { \"page\":2, \"per_page\":6,   \"total\": 12, \"total_pages\": 2,}"}}],"executorName":"main","line":17,"name":"Test with params","description":"","durationMillis":216.4441,"startTime":1664127637794,"failed":false,"refId":"[2:17]","endTime":1664127638014,"exampleIndex":-1}],"callDepth":0,"name":"to show the use of Get","description":"","resultDate":"2022-09-25 01:40:38 p.m.","durationMillis":1054.7525,"passedCount":2}