{"failedCount":1,"prefixedPath":"src\/test\/java\/Feature\/Get.feature","packageQualifiedName":"src.test.java.Feature.Get","loopIndex":-1,"relativePath":"src\/test\/java\/Feature\/Get.feature","scenarioResults":[{"sectionIndex":0,"stepResults":[{"result":{"nanos":4325700,"millis":4.3257,"status":"passed"},"step":{"background":true,"line":5,"prefix":"*","index":0,"text":"url  'https:\/\/reqres.in\/'"}},{"result":{"nanos":525000,"millis":0.525,"status":"passed"},"step":{"background":true,"line":6,"prefix":"*","index":1,"text":"header Accept = 'application\/json'"}},{"result":{"nanos":926500,"millis":0.9265,"status":"passed"},"step":{"line":9,"prefix":"Given","index":0,"text":"path 'api\/users?page=2'"}},{"result":{"nanos":0,"errorMessage":"no step-definition method match found for: Print name\nsrc\/test\/java\/Feature\/Get.feature:10","millis":0.0,"status":"failed"},"step":{"line":10,"prefix":"And","index":1,"text":"Print name"},"stepLog":"10:44:08.786 src\/test\/java\/Feature\/Get.feature:10\nAnd Print name\nno step-definition method match found for: Print name\nsrc\/test\/java\/Feature\/Get.feature:10\n"},{"result":{"nanos":0,"millis":0.0,"status":"skipped"},"step":{"line":11,"prefix":"When","index":2,"text":"method GET"}},{"result":{"nanos":0,"millis":0.0,"status":"skipped"},"step":{"line":12,"prefix":"Then","index":3,"text":"status 200"}}],"line":8,"description":"","durationMillis":5.7772,"failed":true,"error":"no step-definition method match found for: Print name\nsrc\/test\/java\/Feature\/Get.feature:10","executorName":"main","name":"Test with path","startTime":1664117048690,"refId":"[1:8]","endTime":1664117048786,"exampleIndex":-1},{"sectionIndex":1,"stepResults":[{"result":{"nanos":220700,"millis":0.2207,"status":"passed"},"step":{"background":true,"line":5,"prefix":"*","index":0,"text":"url  'https:\/\/reqres.in\/'"}},{"result":{"nanos":95200,"millis":0.0952,"status":"passed"},"step":{"background":true,"line":6,"prefix":"*","index":1,"text":"header Accept = 'application\/json'"}},{"result":{"nanos":274000,"millis":0.274,"status":"passed"},"step":{"line":16,"prefix":"Given","index":0,"text":"path 'api\/users'"}},{"result":{"nanos":892800,"millis":0.8928,"status":"passed"},"step":{"line":17,"prefix":"And","index":1,"text":"param page = 2"}},{"result":{"nanos":551670900,"millis":551.6709,"status":"passed"},"step":{"line":18,"prefix":"When","index":2,"text":"method GET"},"stepLog":"10:44:09.020 request:\n1 > GET https:\/\/reqres.in\/api\/users?page=2\n1 > Accept: application\/json\n1 > Host: reqres.in\n1 > Connection: Keep-Alive\n1 > User-Agent: Apache-HttpClient\/4.5.12 (Java\/17.0.1)\n1 > Accept-Encoding: gzip,deflate\n\n\n10:44:09.310 response time in milliseconds: 288\n1 < 200\n1 < Date: Sun, 25 Sep 2022 14:44:06 GMT\n1 < Content-Type: application\/json; charset=utf-8\n1 < Transfer-Encoding: chunked\n1 < Connection: keep-alive\n1 < X-Powered-By: Express\n1 < Access-Control-Allow-Origin: *\n1 < Etag: W\/\"406-ut0vzoCuidvyMf8arZpMpJ6ZRDw\"\n1 < Via: 1.1 vegur\n1 < Cache-Control: max-age=14400\n1 < CF-Cache-Status: HIT\n1 < Age: 398\n1 < Report-To: {\"endpoints\":[{\"url\":\"https:\\\/\\\/a.nel.cloudflare.com\\\/report\\\/v3?s=bI3XEDEk6kW64qSza%2BU%2Bezh1WkFIWZ51Y2UAjYof1MawO2L9DYUsFKa4ZeMFTwzRxrnRZu5gWympSDBK3HAJUNm8KJPE%2BOJbmHPi4KKvCtpvHN%2BgyZlFCt2kmA%3D%3D\"}],\"group\":\"cf-nel\",\"max_age\":604800}\n1 < NEL: {\"success_fraction\":0,\"report_to\":\"cf-nel\",\"max_age\":604800}\n1 < Vary: Accept-Encoding\n1 < Server: cloudflare\n1 < CF-RAY: 75048931ce965401-YYZ\n{\"page\":2,\"per_page\":6,\"total\":12,\"total_pages\":2,\"data\":[{\"id\":7,\"email\":\"michael.lawson@reqres.in\",\"first_name\":\"Michael\",\"last_name\":\"Lawson\",\"avatar\":\"https:\/\/reqres.in\/img\/faces\/7-image.jpg\"},{\"id\":8,\"email\":\"lindsay.ferguson@reqres.in\",\"first_name\":\"Lindsay\",\"last_name\":\"Ferguson\",\"avatar\":\"https:\/\/reqres.in\/img\/faces\/8-image.jpg\"},{\"id\":9,\"email\":\"tobias.funke@reqres.in\",\"first_name\":\"Tobias\",\"last_name\":\"Funke\",\"avatar\":\"https:\/\/reqres.in\/img\/faces\/9-image.jpg\"},{\"id\":10,\"email\":\"byron.fields@reqres.in\",\"first_name\":\"Byron\",\"last_name\":\"Fields\",\"avatar\":\"https:\/\/reqres.in\/img\/faces\/10-image.jpg\"},{\"id\":11,\"email\":\"george.edwards@reqres.in\",\"first_name\":\"George\",\"last_name\":\"Edwards\",\"avatar\":\"https:\/\/reqres.in\/img\/faces\/11-image.jpg\"},{\"id\":12,\"email\":\"rachel.howell@reqres.in\",\"first_name\":\"Rachel\",\"last_name\":\"Howell\",\"avatar\":\"https:\/\/reqres.in\/img\/faces\/12-image.jpg\"}],\"support\":{\"url\":\"https:\/\/reqres.in\/#support-heading\",\"text\":\"To keep ReqRes free, contributions towards server costs are appreciated!\"}}\n\n"},{"result":{"nanos":22100,"millis":0.0221,"status":"passed"},"step":{"line":19,"prefix":"Then","index":3,"text":"status 200"}},{"result":{"nanos":51319500,"millis":51.3195,"status":"passed"},"step":{"line":20,"prefix":"And","index":4,"text":"print responseStatus"},"stepLog":"10:44:09.395 [print] 200 \n"},{"result":{"nanos":4402800,"millis":4.4028,"status":"passed"},"step":{"line":21,"prefix":"And","index":5,"text":"print responseHeaders"},"stepLog":"10:44:09.400 [print] {\n  \"Date\": [\n    \"Sun, 25 Sep 2022 14:44:06 GMT\"\n  ],\n  \"Content-Type\": [\n    \"application\/json; charset=utf-8\"\n  ],\n  \"Transfer-Encoding\": [\n    \"chunked\"\n  ],\n  \"Connection\": [\n    \"keep-alive\"\n  ],\n  \"X-Powered-By\": [\n    \"Express\"\n  ],\n  \"Access-Control-Allow-Origin\": [\n    \"*\"\n  ],\n  \"Etag\": [\n    \"W\/\\\"406-ut0vzoCuidvyMf8arZpMpJ6ZRDw\\\"\"\n  ],\n  \"Via\": [\n    \"1.1 vegur\"\n  ],\n  \"Cache-Control\": [\n    \"max-age=14400\"\n  ],\n  \"CF-Cache-Status\": [\n    \"HIT\"\n  ],\n  \"Age\": [\n    \"398\"\n  ],\n  \"Report-To\": [\n    \"{\\\"endpoints\\\":[{\\\"url\\\":\\\"https:\\\\\/\\\\\/a.nel.cloudflare.com\\\\\/report\\\\\/v3?s=bI3XEDEk6kW64qSza%2BU%2Bezh1WkFIWZ51Y2UAjYof1MawO2L9DYUsFKa4ZeMFTwzRxrnRZu5gWympSDBK3HAJUNm8KJPE%2BOJbmHPi4KKvCtpvHN%2BgyZlFCt2kmA%3D%3D\\\"}],\\\"group\\\":\\\"cf-nel\\\",\\\"max_age\\\":604800}\"\n  ],\n  \"NEL\": [\n    \"{\\\"success_fraction\\\":0,\\\"report_to\\\":\\\"cf-nel\\\",\\\"max_age\\\":604800}\"\n  ],\n  \"Vary\": [\n    \"Accept-Encoding\"\n  ],\n  \"Server\": [\n    \"cloudflare\"\n  ],\n  \"CF-RAY\": [\n    \"75048931ce965401-YYZ\"\n  ]\n}\n \n"},{"result":{"nanos":9751100,"millis":9.7511,"status":"passed"},"step":{"line":22,"prefix":"And","index":6,"text":"assert response.data.length == 6"}},{"result":{"nanos":32011800,"millis":32.0118,"status":"passed"},"step":{"line":23,"prefix":"And","index":7,"text":"match response contains { page: 2, per_page: 6}"}}],"executorName":"main","line":15,"name":"Test with params","description":"","durationMillis":650.6609,"startTime":1664117048789,"failed":false,"refId":"[2:15]","endTime":1664117049441,"exampleIndex":-1}],"callDepth":0,"name":"to show the use of Get","description":"","resultDate":"2022-09-25 10:44:09 a.m.","durationMillis":656.4381,"passedCount":1}