{"failedCount":0,"prefixedPath":"src\/test\/java\/Feature\/Get.feature","packageQualifiedName":"src.test.java.Feature.Get","loopIndex":-1,"relativePath":"src\/test\/java\/Feature\/Get.feature","scenarioResults":[{"sectionIndex":0,"stepResults":[{"result":{"nanos":928800,"millis":0.9288,"status":"passed"},"step":{"background":true,"line":5,"prefix":"*","index":0,"text":"url  'https:\/\/reqres.in\/'"}},{"result":{"nanos":508600,"millis":0.5086,"status":"passed"},"step":{"background":true,"line":6,"prefix":"*","index":1,"text":"header Accept = 'application\/json'"}},{"result":{"nanos":205100,"millis":0.2051,"status":"passed"},"step":{"line":9,"prefix":"Given","index":0,"text":"path 'api\/users?page=2'"}},{"result":{"nanos":36706500,"millis":36.7065,"status":"passed"},"step":{"line":10,"prefix":"And","index":1,"text":"print name"},"stepLog":"10:46:47.848 [print] Atul \n"},{"result":{"nanos":870046500,"millis":870.0465,"status":"passed"},"step":{"line":11,"prefix":"When","index":2,"text":"method GET"},"stepLog":"10:46:48.068 request:\n1 > GET https:\/\/reqres.in\/api\/users%3Fpage=2\n1 > Accept: application\/json\n1 > Host: reqres.in\n1 > Connection: Keep-Alive\n1 > User-Agent: Apache-HttpClient\/4.5.12 (Java\/17.0.1)\n1 > Accept-Encoding: gzip,deflate\n\n\n10:46:48.690 response time in milliseconds: 620\n1 < 200\n1 < Date: Sun, 25 Sep 2022 14:46:45 GMT\n1 < Content-Type: application\/json; charset=utf-8\n1 < Transfer-Encoding: chunked\n1 < Connection: keep-alive\n1 < X-Powered-By: Express\n1 < Access-Control-Allow-Origin: *\n1 < Etag: W\/\"2c1-N6Rqerxquq2kgQhL51EiSg4x0R8\"\n1 < Via: 1.1 vegur\n1 < Cache-Control: max-age=14400\n1 < CF-Cache-Status: REVALIDATED\n1 < Report-To: {\"endpoints\":[{\"url\":\"https:\\\/\\\/a.nel.cloudflare.com\\\/report\\\/v3?s=VlQsst00C7zqTqYuGqQ1zzfhEL6VpbKD06NaXO%2BZkNUu2fEHbdpAfy7u93Q9XDATAQI4exDV5%2BFEG0aZZ4XkG3koSJib%2BEWP%2FGlp77Jw8R7IsHkgYcSsWa%2Bi3Q%3D%3D\"}],\"group\":\"cf-nel\",\"max_age\":604800}\n1 < NEL: {\"success_fraction\":0,\"report_to\":\"cf-nel\",\"max_age\":604800}\n1 < Vary: Accept-Encoding\n1 < Server: cloudflare\n1 < CF-RAY: 75048d141c4ca208-YYZ\n{\"page\":1,\"per_page\":6,\"total\":12,\"total_pages\":2,\"data\":[{\"id\":1,\"name\":\"cerulean\",\"year\":2000,\"color\":\"#98B2D1\",\"pantone_value\":\"15-4020\"},{\"id\":2,\"name\":\"fuchsia rose\",\"year\":2001,\"color\":\"#C74375\",\"pantone_value\":\"17-2031\"},{\"id\":3,\"name\":\"true red\",\"year\":2002,\"color\":\"#BF1932\",\"pantone_value\":\"19-1664\"},{\"id\":4,\"name\":\"aqua sky\",\"year\":2003,\"color\":\"#7BC4C4\",\"pantone_value\":\"14-4811\"},{\"id\":5,\"name\":\"tigerlily\",\"year\":2004,\"color\":\"#E2583E\",\"pantone_value\":\"17-1456\"},{\"id\":6,\"name\":\"blue turquoise\",\"year\":2005,\"color\":\"#53B0AE\",\"pantone_value\":\"15-5217\"}],\"support\":{\"url\":\"https:\/\/reqres.in\/#support-heading\",\"text\":\"To keep ReqRes free, contributions towards server costs are appreciated!\"}}\n\n"},{"result":{"nanos":101800,"millis":0.1018,"status":"passed"},"step":{"line":12,"prefix":"Then","index":3,"text":"status 200"}}],"executorName":"main","line":8,"name":"Test with path","description":"","durationMillis":908.4973,"startTime":1664117207702,"failed":false,"refId":"[1:8]","endTime":1664117208719,"exampleIndex":-1},{"sectionIndex":1,"stepResults":[{"result":{"nanos":187000,"millis":0.187,"status":"passed"},"step":{"background":true,"line":5,"prefix":"*","index":0,"text":"url  'https:\/\/reqres.in\/'"}},{"result":{"nanos":97200,"millis":0.0972,"status":"passed"},"step":{"background":true,"line":6,"prefix":"*","index":1,"text":"header Accept = 'application\/json'"}},{"result":{"nanos":189000,"millis":0.189,"status":"passed"},"step":{"line":16,"prefix":"Given","index":0,"text":"path 'api\/users'"}},{"result":{"nanos":2530900,"millis":2.5309,"status":"passed"},"step":{"line":17,"prefix":"And","index":1,"text":"param page = 2"}},{"result":{"nanos":90308700,"millis":90.3087,"status":"passed"},"step":{"line":18,"prefix":"When","index":2,"text":"method GET"},"stepLog":"10:46:48.730 request:\n1 > GET https:\/\/reqres.in\/api\/users?page=2\n1 > Accept: application\/json\n1 > Host: reqres.in\n1 > Connection: Keep-Alive\n1 > User-Agent: Apache-HttpClient\/4.5.12 (Java\/17.0.1)\n1 > Accept-Encoding: gzip,deflate\n\n\n10:46:48.817 response time in milliseconds: 86\n1 < 200\n1 < Date: Sun, 25 Sep 2022 14:46:45 GMT\n1 < Content-Type: application\/json; charset=utf-8\n1 < Transfer-Encoding: chunked\n1 < Connection: keep-alive\n1 < X-Powered-By: Express\n1 < Access-Control-Allow-Origin: *\n1 < Etag: W\/\"406-ut0vzoCuidvyMf8arZpMpJ6ZRDw\"\n1 < Via: 1.1 vegur\n1 < Cache-Control: max-age=14400\n1 < CF-Cache-Status: HIT\n1 < Age: 557\n1 < Report-To: {\"endpoints\":[{\"url\":\"https:\\\/\\\/a.nel.cloudflare.com\\\/report\\\/v3?s=gVs4j%2FUrFewyGy1sq%2B9h9c7jXCfMn4YP%2BCDGn63CclXiu%2BkJaH8Mz3eQeSGKPpuftUMCBd3Mu9Kdy9tC9pX88%2BvBkrCZZo1NSQIIwNZgdzM2RxvSl8jccb24rw%3D%3D\"}],\"group\":\"cf-nel\",\"max_age\":604800}\n1 < NEL: {\"success_fraction\":0,\"report_to\":\"cf-nel\",\"max_age\":604800}\n1 < Vary: Accept-Encoding\n1 < Server: cloudflare\n1 < CF-RAY: 75048d16bce453f5-YYZ\n{\"page\":2,\"per_page\":6,\"total\":12,\"total_pages\":2,\"data\":[{\"id\":7,\"email\":\"michael.lawson@reqres.in\",\"first_name\":\"Michael\",\"last_name\":\"Lawson\",\"avatar\":\"https:\/\/reqres.in\/img\/faces\/7-image.jpg\"},{\"id\":8,\"email\":\"lindsay.ferguson@reqres.in\",\"first_name\":\"Lindsay\",\"last_name\":\"Ferguson\",\"avatar\":\"https:\/\/reqres.in\/img\/faces\/8-image.jpg\"},{\"id\":9,\"email\":\"tobias.funke@reqres.in\",\"first_name\":\"Tobias\",\"last_name\":\"Funke\",\"avatar\":\"https:\/\/reqres.in\/img\/faces\/9-image.jpg\"},{\"id\":10,\"email\":\"byron.fields@reqres.in\",\"first_name\":\"Byron\",\"last_name\":\"Fields\",\"avatar\":\"https:\/\/reqres.in\/img\/faces\/10-image.jpg\"},{\"id\":11,\"email\":\"george.edwards@reqres.in\",\"first_name\":\"George\",\"last_name\":\"Edwards\",\"avatar\":\"https:\/\/reqres.in\/img\/faces\/11-image.jpg\"},{\"id\":12,\"email\":\"rachel.howell@reqres.in\",\"first_name\":\"Rachel\",\"last_name\":\"Howell\",\"avatar\":\"https:\/\/reqres.in\/img\/faces\/12-image.jpg\"}],\"support\":{\"url\":\"https:\/\/reqres.in\/#support-heading\",\"text\":\"To keep ReqRes free, contributions towards server costs are appreciated!\"}}\n\n"},{"result":{"nanos":12800,"millis":0.0128,"status":"passed"},"step":{"line":19,"prefix":"Then","index":3,"text":"status 200"}},{"result":{"nanos":1612300,"millis":1.6123,"status":"passed"},"step":{"line":20,"prefix":"And","index":4,"text":"print responseStatus"},"stepLog":"10:46:48.820 [print] 200 \n"},{"result":{"nanos":6007600,"millis":6.0076,"status":"passed"},"step":{"line":21,"prefix":"And","index":5,"text":"print responseHeaders"},"stepLog":"10:46:48.826 [print] {\n  \"Date\": [\n    \"Sun, 25 Sep 2022 14:46:45 GMT\"\n  ],\n  \"Content-Type\": [\n    \"application\/json; charset=utf-8\"\n  ],\n  \"Transfer-Encoding\": [\n    \"chunked\"\n  ],\n  \"Connection\": [\n    \"keep-alive\"\n  ],\n  \"X-Powered-By\": [\n    \"Express\"\n  ],\n  \"Access-Control-Allow-Origin\": [\n    \"*\"\n  ],\n  \"Etag\": [\n    \"W\/\\\"406-ut0vzoCuidvyMf8arZpMpJ6ZRDw\\\"\"\n  ],\n  \"Via\": [\n    \"1.1 vegur\"\n  ],\n  \"Cache-Control\": [\n    \"max-age=14400\"\n  ],\n  \"CF-Cache-Status\": [\n    \"HIT\"\n  ],\n  \"Age\": [\n    \"557\"\n  ],\n  \"Report-To\": [\n    \"{\\\"endpoints\\\":[{\\\"url\\\":\\\"https:\\\\\/\\\\\/a.nel.cloudflare.com\\\\\/report\\\\\/v3?s=gVs4j%2FUrFewyGy1sq%2B9h9c7jXCfMn4YP%2BCDGn63CclXiu%2BkJaH8Mz3eQeSGKPpuftUMCBd3Mu9Kdy9tC9pX88%2BvBkrCZZo1NSQIIwNZgdzM2RxvSl8jccb24rw%3D%3D\\\"}],\\\"group\\\":\\\"cf-nel\\\",\\\"max_age\\\":604800}\"\n  ],\n  \"NEL\": [\n    \"{\\\"success_fraction\\\":0,\\\"report_to\\\":\\\"cf-nel\\\",\\\"max_age\\\":604800}\"\n  ],\n  \"Vary\": [\n    \"Accept-Encoding\"\n  ],\n  \"Server\": [\n    \"cloudflare\"\n  ],\n  \"CF-RAY\": [\n    \"75048d16bce453f5-YYZ\"\n  ]\n}\n \n"},{"result":{"nanos":7413200,"millis":7.4132,"status":"passed"},"step":{"line":22,"prefix":"And","index":6,"text":"assert response.data.length == 6"}},{"result":{"nanos":22707700,"millis":22.7077,"status":"passed"},"step":{"line":23,"prefix":"And","index":7,"text":"match response contains { page: 2, per_page: 6}"}}],"executorName":"main","line":15,"name":"Test with params","description":"","durationMillis":131.0664,"startTime":1664117208724,"failed":false,"refId":"[2:15]","endTime":1664117208857,"exampleIndex":-1}],"callDepth":0,"name":"to show the use of Get","description":"","resultDate":"2022-09-25 10:46:48 a.m.","durationMillis":1039.5637,"passedCount":2}