{"failedCount":1,"prefixedPath":"src\/test\/java\/Feature\/Get.feature","packageQualifiedName":"src.test.java.Feature.Get","loopIndex":-1,"relativePath":"src\/test\/java\/Feature\/Get.feature","scenarioResults":[{"sectionIndex":0,"stepResults":[{"result":{"nanos":1156300,"millis":1.1563,"status":"passed"},"step":{"background":true,"line":4,"prefix":"*","index":0,"text":"header Accept = 'application\/json'"}},{"result":{"nanos":705800,"millis":0.7058,"status":"passed"},"step":{"line":7,"prefix":"Given","index":0,"text":"url 'https:\/\/reqres.in\/api\/users?page=1'"}},{"result":{"nanos":37247200,"millis":37.2472,"status":"passed"},"step":{"line":8,"prefix":"And","index":1,"text":"print name"},"stepLog":"16:56:09.634 [print] Atul \n"},{"result":{"nanos":482598100,"millis":482.5981,"status":"passed"},"step":{"line":9,"prefix":"When","index":2,"text":"method GET"},"stepLog":"16:56:09.855 request:\n1 > GET https:\/\/reqres.in\/api\/users?page=1\n1 > Accept: application\/json\n1 > Host: reqres.in\n1 > Connection: Keep-Alive\n1 > User-Agent: Apache-HttpClient\/4.5.12 (Java\/17.0.1)\n1 > Accept-Encoding: gzip,deflate\n\n\n16:56:10.091 response time in milliseconds: 235\n1 < 200\n1 < Date: Sun, 25 Sep 2022 20:56:06 GMT\n1 < Content-Type: application\/json; charset=utf-8\n1 < Transfer-Encoding: chunked\n1 < Connection: keep-alive\n1 < X-Powered-By: Express\n1 < Access-Control-Allow-Origin: *\n1 < Etag: W\/\"3e4-2RLXvr5wTg9YQ6aH95CkYoFNuO8\"\n1 < Via: 1.1 vegur\n1 < Cache-Control: max-age=14400\n1 < CF-Cache-Status: HIT\n1 < Age: 3066\n1 < Report-To: {\"endpoints\":[{\"url\":\"https:\\\/\\\/a.nel.cloudflare.com\\\/report\\\/v3?s=lt2j6RuIFDjMYIvrWuMP88CvFq4hdgNJenYsrVm%2B9feH4eajlyHZmtW7TEeFukV2QEnUrnjFyn3ewZGjkgQDu4sG0b3DxP5cdgI8OCJ1EDoFo89pYZuQ49P0mg%3D%3D\"}],\"group\":\"cf-nel\",\"max_age\":604800}\n1 < NEL: {\"success_fraction\":0,\"report_to\":\"cf-nel\",\"max_age\":604800}\n1 < Vary: Accept-Encoding\n1 < Server: cloudflare\n1 < CF-RAY: 7506aa20aad15437-YYZ\n{\"page\":1,\"per_page\":6,\"total\":12,\"total_pages\":2,\"data\":[{\"id\":1,\"email\":\"george.bluth@reqres.in\",\"first_name\":\"George\",\"last_name\":\"Bluth\",\"avatar\":\"https:\/\/reqres.in\/img\/faces\/1-image.jpg\"},{\"id\":2,\"email\":\"janet.weaver@reqres.in\",\"first_name\":\"Janet\",\"last_name\":\"Weaver\",\"avatar\":\"https:\/\/reqres.in\/img\/faces\/2-image.jpg\"},{\"id\":3,\"email\":\"emma.wong@reqres.in\",\"first_name\":\"Emma\",\"last_name\":\"Wong\",\"avatar\":\"https:\/\/reqres.in\/img\/faces\/3-image.jpg\"},{\"id\":4,\"email\":\"eve.holt@reqres.in\",\"first_name\":\"Eve\",\"last_name\":\"Holt\",\"avatar\":\"https:\/\/reqres.in\/img\/faces\/4-image.jpg\"},{\"id\":5,\"email\":\"charles.morris@reqres.in\",\"first_name\":\"Charles\",\"last_name\":\"Morris\",\"avatar\":\"https:\/\/reqres.in\/img\/faces\/5-image.jpg\"},{\"id\":6,\"email\":\"tracey.ramos@reqres.in\",\"first_name\":\"Tracey\",\"last_name\":\"Ramos\",\"avatar\":\"https:\/\/reqres.in\/img\/faces\/6-image.jpg\"}],\"support\":{\"url\":\"https:\/\/reqres.in\/#support-heading\",\"text\":\"To keep ReqRes free, contributions towards server costs are appreciated!\"}}\n\n"},{"result":{"nanos":24200,"millis":0.0242,"status":"passed"},"step":{"line":10,"prefix":"Then","index":3,"text":"status 200"}},{"result":{"nanos":4910500,"millis":4.9105,"status":"passed"},"step":{"line":11,"prefix":"And","index":4,"text":"print response"},"stepLog":"16:56:10.122 [print] {\n  \"page\": 1,\n  \"per_page\": 6,\n  \"total\": 12,\n  \"total_pages\": 2,\n  \"data\": [\n    {\n      \"id\": 1,\n      \"email\": \"george.bluth@reqres.in\",\n      \"first_name\": \"George\",\n      \"last_name\": \"Bluth\",\n      \"avatar\": \"https:\/\/reqres.in\/img\/faces\/1-image.jpg\"\n    },\n    {\n      \"id\": 2,\n      \"email\": \"janet.weaver@reqres.in\",\n      \"first_name\": \"Janet\",\n      \"last_name\": \"Weaver\",\n      \"avatar\": \"https:\/\/reqres.in\/img\/faces\/2-image.jpg\"\n    },\n    {\n      \"id\": 3,\n      \"email\": \"emma.wong@reqres.in\",\n      \"first_name\": \"Emma\",\n      \"last_name\": \"Wong\",\n      \"avatar\": \"https:\/\/reqres.in\/img\/faces\/3-image.jpg\"\n    },\n    {\n      \"id\": 4,\n      \"email\": \"eve.holt@reqres.in\",\n      \"first_name\": \"Eve\",\n      \"last_name\": \"Holt\",\n      \"avatar\": \"https:\/\/reqres.in\/img\/faces\/4-image.jpg\"\n    },\n    {\n      \"id\": 5,\n      \"email\": \"charles.morris@reqres.in\",\n      \"first_name\": \"Charles\",\n      \"last_name\": \"Morris\",\n      \"avatar\": \"https:\/\/reqres.in\/img\/faces\/5-image.jpg\"\n    },\n    {\n      \"id\": 6,\n      \"email\": \"tracey.ramos@reqres.in\",\n      \"first_name\": \"Tracey\",\n      \"last_name\": \"Ramos\",\n      \"avatar\": \"https:\/\/reqres.in\/img\/faces\/6-image.jpg\"\n    }\n  ],\n  \"support\": {\n    \"url\": \"https:\/\/reqres.in\/#support-heading\",\n    \"text\": \"To keep ReqRes free, contributions towards server costs are appreciated!\"\n  }\n}\n \n"},{"result":{"nanos":14576800,"millis":14.5768,"status":"passed"},"step":{"line":12,"prefix":"And","index":5,"text":"def jsonRes = $.data"}},{"result":{"nanos":1680500,"millis":1.6805,"status":"passed"},"step":{"line":13,"prefix":"And","index":6,"text":"print jsonRes"},"stepLog":"16:56:10.138 [print] [\n  {\n    \"id\": 1,\n    \"email\": \"george.bluth@reqres.in\",\n    \"first_name\": \"George\",\n    \"last_name\": \"Bluth\",\n    \"avatar\": \"https:\/\/reqres.in\/img\/faces\/1-image.jpg\"\n  },\n  {\n    \"id\": 2,\n    \"email\": \"janet.weaver@reqres.in\",\n    \"first_name\": \"Janet\",\n    \"last_name\": \"Weaver\",\n    \"avatar\": \"https:\/\/reqres.in\/img\/faces\/2-image.jpg\"\n  },\n  {\n    \"id\": 3,\n    \"email\": \"emma.wong@reqres.in\",\n    \"first_name\": \"Emma\",\n    \"last_name\": \"Wong\",\n    \"avatar\": \"https:\/\/reqres.in\/img\/faces\/3-image.jpg\"\n  },\n  {\n    \"id\": 4,\n    \"email\": \"eve.holt@reqres.in\",\n    \"first_name\": \"Eve\",\n    \"last_name\": \"Holt\",\n    \"avatar\": \"https:\/\/reqres.in\/img\/faces\/4-image.jpg\"\n  },\n  {\n    \"id\": 5,\n    \"email\": \"charles.morris@reqres.in\",\n    \"first_name\": \"Charles\",\n    \"last_name\": \"Morris\",\n    \"avatar\": \"https:\/\/reqres.in\/img\/faces\/5-image.jpg\"\n  },\n  {\n    \"id\": 6,\n    \"email\": \"tracey.ramos@reqres.in\",\n    \"first_name\": \"Tracey\",\n    \"last_name\": \"Ramos\",\n    \"avatar\": \"https:\/\/reqres.in\/img\/faces\/6-image.jpg\"\n  }\n]\n \n"},{"result":{"nanos":0,"errorMessage":"no step-definition method match found for: def realRes=\nsrc\/test\/java\/Feature\/Get.feature:14","millis":0.0,"status":"failed"},"step":{"endLine":39,"line":14,"prefix":"And","docString":"{\n  \"page\": 1,\n  \"data\": [\n    {\n      \"id\": 1,\n      \"email\": \"george.bluth@reqres.in\",\n      \"first_name\": \"George\",\n      \"last_name\": \"Bluth\",\n      \"avatar\": \"https:\/\/reqres.in\/img\/faces\/1-image.jpg\"\n    },\n    {\n      \"id\": 2,\n      \"email\": \"janet.weaver@reqres.in\",\n      \"first_name\": \"Janet\",\n      \"last_name\": \"Weaver\",\n      \"avatar\": \"https:\/\/reqres.in\/img\/faces\/2-image.jpg\"\n    }\n  ],\n  \"support\": {\n    \"url\": \"https:\/\/reqres.in\/#support-heading\",\n    \"text\": \"To keep ReqRes free, contributions towards server costs are appreciated!\"\n  }\n}","index":7,"text":"def realRes="},"stepLog":"16:56:10.138 src\/test\/java\/Feature\/Get.feature:14\nAnd def realRes=\n\"\"\"\n{\n  \"page\": 1,\n  \"data\": [\n    {\n      \"id\": 1,\n      \"email\": \"george.bluth@reqres.in\",\n      \"first_name\": \"George\",\n      \"last_name\": \"Bluth\",\n      \"avatar\": \"https:\/\/reqres.in\/img\/faces\/1-image.jpg\"\n    },\n    {\n      \"id\": 2,\n      \"email\": \"janet.weaver@reqres.in\",\n      \"first_name\": \"Janet\",\n      \"last_name\": \"Weaver\",\n      \"avatar\": \"https:\/\/reqres.in\/img\/faces\/2-image.jpg\"\n    }\n  ],\n  \"support\": {\n    \"url\": \"https:\/\/reqres.in\/#support-heading\",\n    \"text\": \"To keep ReqRes free, contributions towards server costs are appreciated!\"\n  }\n}\n\"\"\"\nno step-definition method match found for: def realRes=\nsrc\/test\/java\/Feature\/Get.feature:14\n"},{"result":{"nanos":0,"millis":0.0,"status":"skipped"},"step":{"line":40,"prefix":"And","index":8,"text":"print realRes"}},{"result":{"nanos":0,"millis":0.0,"status":"skipped"},"step":{"line":41,"prefix":"And","index":9,"text":"match each $.data contains {id: #number, email: #string, first_name: #string, last_name: #string, avatar: #string}"}}],"line":6,"description":"","durationMillis":542.8994,"failed":true,"error":"no step-definition method match found for: def realRes=\nsrc\/test\/java\/Feature\/Get.feature:14","executorName":"main","name":"Test with path","startTime":1664139369477,"refId":"[1:6]","endTime":1664139370138,"exampleIndex":-1},{"sectionIndex":1,"stepResults":[{"result":{"nanos":274700,"millis":0.2747,"status":"passed"},"step":{"background":true,"line":4,"prefix":"*","index":0,"text":"header Accept = 'application\/json'"}},{"result":{"nanos":308200,"millis":0.3082,"status":"passed"},"step":{"line":44,"prefix":"Given","index":0,"text":"url 'https:\/\/reqres.in\/api\/users?page=2'"}},{"result":{"nanos":118399800,"millis":118.3998,"status":"passed"},"step":{"comments":["#And param page = 2"],"line":46,"prefix":"When","index":1,"text":"method GET"},"stepLog":"16:56:10.149 request:\n1 > GET https:\/\/reqres.in\/api\/users?page=2\n1 > Accept: application\/json\n1 > Host: reqres.in\n1 > Connection: Keep-Alive\n1 > User-Agent: Apache-HttpClient\/4.5.12 (Java\/17.0.1)\n1 > Accept-Encoding: gzip,deflate\n\n\n16:56:10.264 response time in milliseconds: 115\n1 < 200\n1 < Date: Sun, 25 Sep 2022 20:56:06 GMT\n1 < Content-Type: application\/json; charset=utf-8\n1 < Transfer-Encoding: chunked\n1 < Connection: keep-alive\n1 < X-Powered-By: Express\n1 < Access-Control-Allow-Origin: *\n1 < Etag: W\/\"406-ut0vzoCuidvyMf8arZpMpJ6ZRDw\"\n1 < Via: 1.1 vegur\n1 < Cache-Control: max-age=14400\n1 < CF-Cache-Status: HIT\n1 < Age: 1000\n1 < Report-To: {\"endpoints\":[{\"url\":\"https:\\\/\\\/a.nel.cloudflare.com\\\/report\\\/v3?s=hzA5olspw8Kg%2Fb1fgYrd%2FBcpJmXEUyRBtdaHSfWfNOm4j8UUGmWWIrKnkuidAkZH%2F27R2iiAx45p2yx8B4QPBgtH4PFP6BFC7tEwHExpzNX3sfVJEZp539iaEw%3D%3D\"}],\"group\":\"cf-nel\",\"max_age\":604800}\n1 < NEL: {\"success_fraction\":0,\"report_to\":\"cf-nel\",\"max_age\":604800}\n1 < Vary: Accept-Encoding\n1 < Server: cloudflare\n1 < CF-RAY: 7506aa21ccf1542b-YYZ\n{\"page\":2,\"per_page\":6,\"total\":12,\"total_pages\":2,\"data\":[{\"id\":7,\"email\":\"michael.lawson@reqres.in\",\"first_name\":\"Michael\",\"last_name\":\"Lawson\",\"avatar\":\"https:\/\/reqres.in\/img\/faces\/7-image.jpg\"},{\"id\":8,\"email\":\"lindsay.ferguson@reqres.in\",\"first_name\":\"Lindsay\",\"last_name\":\"Ferguson\",\"avatar\":\"https:\/\/reqres.in\/img\/faces\/8-image.jpg\"},{\"id\":9,\"email\":\"tobias.funke@reqres.in\",\"first_name\":\"Tobias\",\"last_name\":\"Funke\",\"avatar\":\"https:\/\/reqres.in\/img\/faces\/9-image.jpg\"},{\"id\":10,\"email\":\"byron.fields@reqres.in\",\"first_name\":\"Byron\",\"last_name\":\"Fields\",\"avatar\":\"https:\/\/reqres.in\/img\/faces\/10-image.jpg\"},{\"id\":11,\"email\":\"george.edwards@reqres.in\",\"first_name\":\"George\",\"last_name\":\"Edwards\",\"avatar\":\"https:\/\/reqres.in\/img\/faces\/11-image.jpg\"},{\"id\":12,\"email\":\"rachel.howell@reqres.in\",\"first_name\":\"Rachel\",\"last_name\":\"Howell\",\"avatar\":\"https:\/\/reqres.in\/img\/faces\/12-image.jpg\"}],\"support\":{\"url\":\"https:\/\/reqres.in\/#support-heading\",\"text\":\"To keep ReqRes free, contributions towards server costs are appreciated!\"}}\n\n"},{"result":{"nanos":16200,"millis":0.0162,"status":"passed"},"step":{"line":47,"prefix":"Then","index":2,"text":"status 200"}},{"result":{"nanos":2314700,"millis":2.3147,"status":"passed"},"step":{"line":48,"prefix":"And","index":3,"text":"print responseStatus"},"stepLog":"16:56:10.268 [print] 200 \n"},{"result":{"nanos":1433600,"millis":1.4336,"status":"passed"},"step":{"line":49,"prefix":"And","index":4,"text":"print responseHeaders"},"stepLog":"16:56:10.270 [print] {\n  \"Date\": [\n    \"Sun, 25 Sep 2022 20:56:06 GMT\"\n  ],\n  \"Content-Type\": [\n    \"application\/json; charset=utf-8\"\n  ],\n  \"Transfer-Encoding\": [\n    \"chunked\"\n  ],\n  \"Connection\": [\n    \"keep-alive\"\n  ],\n  \"X-Powered-By\": [\n    \"Express\"\n  ],\n  \"Access-Control-Allow-Origin\": [\n    \"*\"\n  ],\n  \"Etag\": [\n    \"W\/\\\"406-ut0vzoCuidvyMf8arZpMpJ6ZRDw\\\"\"\n  ],\n  \"Via\": [\n    \"1.1 vegur\"\n  ],\n  \"Cache-Control\": [\n    \"max-age=14400\"\n  ],\n  \"CF-Cache-Status\": [\n    \"HIT\"\n  ],\n  \"Age\": [\n    \"1000\"\n  ],\n  \"Report-To\": [\n    \"{\\\"endpoints\\\":[{\\\"url\\\":\\\"https:\\\\\/\\\\\/a.nel.cloudflare.com\\\\\/report\\\\\/v3?s=hzA5olspw8Kg%2Fb1fgYrd%2FBcpJmXEUyRBtdaHSfWfNOm4j8UUGmWWIrKnkuidAkZH%2F27R2iiAx45p2yx8B4QPBgtH4PFP6BFC7tEwHExpzNX3sfVJEZp539iaEw%3D%3D\\\"}],\\\"group\\\":\\\"cf-nel\\\",\\\"max_age\\\":604800}\"\n  ],\n  \"NEL\": [\n    \"{\\\"success_fraction\\\":0,\\\"report_to\\\":\\\"cf-nel\\\",\\\"max_age\\\":604800}\"\n  ],\n  \"Vary\": [\n    \"Accept-Encoding\"\n  ],\n  \"Server\": [\n    \"cloudflare\"\n  ],\n  \"CF-RAY\": [\n    \"7506aa21ccf1542b-YYZ\"\n  ]\n}\n \n"},{"result":{"nanos":8076400,"millis":8.0764,"status":"passed"},"step":{"line":50,"prefix":"And","index":5,"text":"assert response.data.length == 6"}},{"result":{"nanos":11492400,"millis":11.4924,"status":"passed"},"step":{"line":51,"prefix":"And","index":6,"text":"match response contains { \"page\":2, \"per_page\":6,   \"total\": 12, \"total_pages\": 2,}"}}],"executorName":"main","line":43,"name":"Test with params","description":"","durationMillis":142.316,"startTime":1664139370145,"failed":false,"refId":"[2:43]","endTime":1664139370290,"exampleIndex":-1}],"callDepth":0,"name":"to show the use of Get","description":"","resultDate":"2022-09-25 04:56:10 p.m.","durationMillis":685.2154,"passedCount":1}