{"failedCount":1,"prefixedPath":"src\/test\/java\/Feature\/Get.feature","packageQualifiedName":"src.test.java.Feature.Get","loopIndex":-1,"relativePath":"src\/test\/java\/Feature\/Get.feature","scenarioResults":[{"sectionIndex":0,"stepResults":[{"result":{"nanos":1134800,"millis":1.1348,"status":"passed"},"step":{"background":true,"line":5,"prefix":"*","index":0,"text":"header Accept = 'application\/json'"}},{"result":{"nanos":463700,"millis":0.4637,"status":"passed"},"step":{"line":8,"prefix":"Given","index":0,"text":"url 'https:\/\/reqres.in\/api\/users?page=1'"}},{"result":{"nanos":38484900,"millis":38.4849,"status":"passed"},"step":{"line":9,"prefix":"And","index":1,"text":"print name"},"stepLog":"14:04:38.508 [print] Atul \n"},{"result":{"nanos":471568600,"millis":471.5686,"status":"passed"},"step":{"line":10,"prefix":"When","index":2,"text":"method GET"},"stepLog":"14:04:38.720 request:\n1 > GET https:\/\/reqres.in\/api\/users?page=1\n1 > Accept: application\/json\n1 > Host: reqres.in\n1 > Connection: Keep-Alive\n1 > User-Agent: Apache-HttpClient\/4.5.12 (Java\/17.0.1)\n1 > Accept-Encoding: gzip,deflate\n\n\n14:04:38.959 response time in milliseconds: 237\n1 < 200\n1 < Date: Sun, 25 Sep 2022 18:04:35 GMT\n1 < Content-Type: application\/json; charset=utf-8\n1 < Transfer-Encoding: chunked\n1 < Connection: keep-alive\n1 < X-Powered-By: Express\n1 < Access-Control-Allow-Origin: *\n1 < Etag: W\/\"3e4-2RLXvr5wTg9YQ6aH95CkYoFNuO8\"\n1 < Via: 1.1 vegur\n1 < Cache-Control: max-age=14400\n1 < CF-Cache-Status: HIT\n1 < Age: 150\n1 < Report-To: {\"endpoints\":[{\"url\":\"https:\\\/\\\/a.nel.cloudflare.com\\\/report\\\/v3?s=DsTyTxV9HI65y%2FY8DYD2s90DcWO%2BqJ77tO6EZR2zGthYn7JfjpIsPTK4WwyDSwwyCrJO8s%2FUylAT12SwxNwsCEUH43e5VFMG4IUPDXKXcLWcqHzO8F%2BoDp3WDg%3D%3D\"}],\"group\":\"cf-nel\",\"max_age\":604800}\n1 < NEL: {\"success_fraction\":0,\"report_to\":\"cf-nel\",\"max_age\":604800}\n1 < Vary: Accept-Encoding\n1 < Server: cloudflare\n1 < CF-RAY: 7505aee1fd4b53e9-YYZ\n{\"page\":1,\"per_page\":6,\"total\":12,\"total_pages\":2,\"data\":[{\"id\":1,\"email\":\"george.bluth@reqres.in\",\"first_name\":\"George\",\"last_name\":\"Bluth\",\"avatar\":\"https:\/\/reqres.in\/img\/faces\/1-image.jpg\"},{\"id\":2,\"email\":\"janet.weaver@reqres.in\",\"first_name\":\"Janet\",\"last_name\":\"Weaver\",\"avatar\":\"https:\/\/reqres.in\/img\/faces\/2-image.jpg\"},{\"id\":3,\"email\":\"emma.wong@reqres.in\",\"first_name\":\"Emma\",\"last_name\":\"Wong\",\"avatar\":\"https:\/\/reqres.in\/img\/faces\/3-image.jpg\"},{\"id\":4,\"email\":\"eve.holt@reqres.in\",\"first_name\":\"Eve\",\"last_name\":\"Holt\",\"avatar\":\"https:\/\/reqres.in\/img\/faces\/4-image.jpg\"},{\"id\":5,\"email\":\"charles.morris@reqres.in\",\"first_name\":\"Charles\",\"last_name\":\"Morris\",\"avatar\":\"https:\/\/reqres.in\/img\/faces\/5-image.jpg\"},{\"id\":6,\"email\":\"tracey.ramos@reqres.in\",\"first_name\":\"Tracey\",\"last_name\":\"Ramos\",\"avatar\":\"https:\/\/reqres.in\/img\/faces\/6-image.jpg\"}],\"support\":{\"url\":\"https:\/\/reqres.in\/#support-heading\",\"text\":\"To keep ReqRes free, contributions towards server costs are appreciated!\"}}\n\n"},{"result":{"nanos":23400,"millis":0.0234,"status":"passed"},"step":{"line":11,"prefix":"Then","index":3,"text":"status 200"}},{"result":{"nanos":3768900,"millis":3.7689,"status":"passed"},"step":{"line":12,"prefix":"And","index":4,"text":"print response"},"stepLog":"14:04:38.985 [print] {\n  \"page\": 1,\n  \"per_page\": 6,\n  \"total\": 12,\n  \"total_pages\": 2,\n  \"data\": [\n    {\n      \"id\": 1,\n      \"email\": \"george.bluth@reqres.in\",\n      \"first_name\": \"George\",\n      \"last_name\": \"Bluth\",\n      \"avatar\": \"https:\/\/reqres.in\/img\/faces\/1-image.jpg\"\n    },\n    {\n      \"id\": 2,\n      \"email\": \"janet.weaver@reqres.in\",\n      \"first_name\": \"Janet\",\n      \"last_name\": \"Weaver\",\n      \"avatar\": \"https:\/\/reqres.in\/img\/faces\/2-image.jpg\"\n    },\n    {\n      \"id\": 3,\n      \"email\": \"emma.wong@reqres.in\",\n      \"first_name\": \"Emma\",\n      \"last_name\": \"Wong\",\n      \"avatar\": \"https:\/\/reqres.in\/img\/faces\/3-image.jpg\"\n    },\n    {\n      \"id\": 4,\n      \"email\": \"eve.holt@reqres.in\",\n      \"first_name\": \"Eve\",\n      \"last_name\": \"Holt\",\n      \"avatar\": \"https:\/\/reqres.in\/img\/faces\/4-image.jpg\"\n    },\n    {\n      \"id\": 5,\n      \"email\": \"charles.morris@reqres.in\",\n      \"first_name\": \"Charles\",\n      \"last_name\": \"Morris\",\n      \"avatar\": \"https:\/\/reqres.in\/img\/faces\/5-image.jpg\"\n    },\n    {\n      \"id\": 6,\n      \"email\": \"tracey.ramos@reqres.in\",\n      \"first_name\": \"Tracey\",\n      \"last_name\": \"Ramos\",\n      \"avatar\": \"https:\/\/reqres.in\/img\/faces\/6-image.jpg\"\n    }\n  ],\n  \"support\": {\n    \"url\": \"https:\/\/reqres.in\/#support-heading\",\n    \"text\": \"To keep ReqRes free, contributions towards server costs are appreciated!\"\n  }\n}\n \n"},{"result":{"nanos":12065100,"millis":12.0651,"status":"passed"},"step":{"line":13,"prefix":"And","index":5,"text":"def jsonRes = $.total_pages"}},{"result":{"nanos":821300,"millis":0.8213,"status":"passed"},"step":{"line":14,"prefix":"And","index":6,"text":"print jsonRes"},"stepLog":"14:04:38.998 [print] 2 \n"},{"result":{"nanos":0,"errorMessage":"no step-definition method match found for: def jsonData= $.data[0].first_name\nsrc\/test\/java\/Feature\/Get.feature:15","millis":0.0,"status":"failed"},"step":{"line":15,"prefix":"And","index":7,"text":"def jsonData= $.data[0].first_name"},"stepLog":"14:04:38.999 src\/test\/java\/Feature\/Get.feature:15\nAnd def jsonData= $.data[0].first_name\nno step-definition method match found for: def jsonData= $.data[0].first_name\nsrc\/test\/java\/Feature\/Get.feature:15\n"},{"result":{"nanos":0,"millis":0.0,"status":"skipped"},"step":{"line":16,"prefix":"And","index":8,"text":"print jsonData"}},{"result":{"nanos":0,"millis":0.0,"status":"skipped"},"step":{"line":17,"prefix":"And","index":9,"text":"match each $.data contains {id: #number, email: #string, first_name: #string}"}}],"line":7,"description":"","durationMillis":528.3307,"failed":true,"error":"no step-definition method match found for: def jsonData= $.data[0].first_name\nsrc\/test\/java\/Feature\/Get.feature:15","executorName":"main","name":"Test with path","startTime":1664129078349,"refId":"[1:7]","endTime":1664129078999,"exampleIndex":-1},{"sectionIndex":1,"stepResults":[{"result":{"nanos":245900,"millis":0.2459,"status":"passed"},"step":{"background":true,"line":5,"prefix":"*","index":0,"text":"header Accept = 'application\/json'"}},{"result":{"nanos":257300,"millis":0.2573,"status":"passed"},"step":{"line":20,"prefix":"Given","index":0,"text":"url 'https:\/\/reqres.in\/api\/users?page=2'"}},{"result":{"nanos":138886200,"millis":138.8862,"status":"passed"},"step":{"comments":["#And param page = 2"],"line":22,"prefix":"When","index":1,"text":"method GET"},"stepLog":"14:04:39.007 request:\n1 > GET https:\/\/reqres.in\/api\/users?page=2\n1 > Accept: application\/json\n1 > Host: reqres.in\n1 > Connection: Keep-Alive\n1 > User-Agent: Apache-HttpClient\/4.5.12 (Java\/17.0.1)\n1 > Accept-Encoding: gzip,deflate\n\n\n14:04:39.143 response time in milliseconds: 135\n1 < 200\n1 < Date: Sun, 25 Sep 2022 18:04:35 GMT\n1 < Content-Type: application\/json; charset=utf-8\n1 < Transfer-Encoding: chunked\n1 < Connection: keep-alive\n1 < X-Powered-By: Express\n1 < Access-Control-Allow-Origin: *\n1 < Etag: W\/\"406-ut0vzoCuidvyMf8arZpMpJ6ZRDw\"\n1 < Via: 1.1 vegur\n1 < Cache-Control: max-age=14400\n1 < CF-Cache-Status: HIT\n1 < Age: 5189\n1 < Report-To: {\"endpoints\":[{\"url\":\"https:\\\/\\\/a.nel.cloudflare.com\\\/report\\\/v3?s=jEJGgDkI4vBcNHJvXeZY6v5CV4S4OQJmFGIaBTrmcijyl5%2Bf512UGZvsoQ8wI%2Bjx4SskWsUkeVJ2cFaTGJnxIxNU1n1iWV8Kdv9xU%2FDFq2GKlf79XeFwJJttkg%3D%3D\"}],\"group\":\"cf-nel\",\"max_age\":604800}\n1 < NEL: {\"success_fraction\":0,\"report_to\":\"cf-nel\",\"max_age\":604800}\n1 < Vary: Accept-Encoding\n1 < Server: cloudflare\n1 < CF-RAY: 7505aee3291acab0-YYZ\n{\"page\":2,\"per_page\":6,\"total\":12,\"total_pages\":2,\"data\":[{\"id\":7,\"email\":\"michael.lawson@reqres.in\",\"first_name\":\"Michael\",\"last_name\":\"Lawson\",\"avatar\":\"https:\/\/reqres.in\/img\/faces\/7-image.jpg\"},{\"id\":8,\"email\":\"lindsay.ferguson@reqres.in\",\"first_name\":\"Lindsay\",\"last_name\":\"Ferguson\",\"avatar\":\"https:\/\/reqres.in\/img\/faces\/8-image.jpg\"},{\"id\":9,\"email\":\"tobias.funke@reqres.in\",\"first_name\":\"Tobias\",\"last_name\":\"Funke\",\"avatar\":\"https:\/\/reqres.in\/img\/faces\/9-image.jpg\"},{\"id\":10,\"email\":\"byron.fields@reqres.in\",\"first_name\":\"Byron\",\"last_name\":\"Fields\",\"avatar\":\"https:\/\/reqres.in\/img\/faces\/10-image.jpg\"},{\"id\":11,\"email\":\"george.edwards@reqres.in\",\"first_name\":\"George\",\"last_name\":\"Edwards\",\"avatar\":\"https:\/\/reqres.in\/img\/faces\/11-image.jpg\"},{\"id\":12,\"email\":\"rachel.howell@reqres.in\",\"first_name\":\"Rachel\",\"last_name\":\"Howell\",\"avatar\":\"https:\/\/reqres.in\/img\/faces\/12-image.jpg\"}],\"support\":{\"url\":\"https:\/\/reqres.in\/#support-heading\",\"text\":\"To keep ReqRes free, contributions towards server costs are appreciated!\"}}\n\n"},{"result":{"nanos":13700,"millis":0.0137,"status":"passed"},"step":{"line":23,"prefix":"Then","index":2,"text":"status 200"}},{"result":{"nanos":1575600,"millis":1.5756,"status":"passed"},"step":{"line":24,"prefix":"And","index":3,"text":"print responseStatus"},"stepLog":"14:04:39.146 [print] 200 \n"},{"result":{"nanos":2100400,"millis":2.1004,"status":"passed"},"step":{"line":25,"prefix":"And","index":4,"text":"print responseHeaders"},"stepLog":"14:04:39.149 [print] {\n  \"Date\": [\n    \"Sun, 25 Sep 2022 18:04:35 GMT\"\n  ],\n  \"Content-Type\": [\n    \"application\/json; charset=utf-8\"\n  ],\n  \"Transfer-Encoding\": [\n    \"chunked\"\n  ],\n  \"Connection\": [\n    \"keep-alive\"\n  ],\n  \"X-Powered-By\": [\n    \"Express\"\n  ],\n  \"Access-Control-Allow-Origin\": [\n    \"*\"\n  ],\n  \"Etag\": [\n    \"W\/\\\"406-ut0vzoCuidvyMf8arZpMpJ6ZRDw\\\"\"\n  ],\n  \"Via\": [\n    \"1.1 vegur\"\n  ],\n  \"Cache-Control\": [\n    \"max-age=14400\"\n  ],\n  \"CF-Cache-Status\": [\n    \"HIT\"\n  ],\n  \"Age\": [\n    \"5189\"\n  ],\n  \"Report-To\": [\n    \"{\\\"endpoints\\\":[{\\\"url\\\":\\\"https:\\\\\/\\\\\/a.nel.cloudflare.com\\\\\/report\\\\\/v3?s=jEJGgDkI4vBcNHJvXeZY6v5CV4S4OQJmFGIaBTrmcijyl5%2Bf512UGZvsoQ8wI%2Bjx4SskWsUkeVJ2cFaTGJnxIxNU1n1iWV8Kdv9xU%2FDFq2GKlf79XeFwJJttkg%3D%3D\\\"}],\\\"group\\\":\\\"cf-nel\\\",\\\"max_age\\\":604800}\"\n  ],\n  \"NEL\": [\n    \"{\\\"success_fraction\\\":0,\\\"report_to\\\":\\\"cf-nel\\\",\\\"max_age\\\":604800}\"\n  ],\n  \"Vary\": [\n    \"Accept-Encoding\"\n  ],\n  \"Server\": [\n    \"cloudflare\"\n  ],\n  \"CF-RAY\": [\n    \"7505aee3291acab0-YYZ\"\n  ]\n}\n \n"},{"result":{"nanos":11947800,"millis":11.9478,"status":"passed"},"step":{"line":26,"prefix":"And","index":5,"text":"assert response.data.length == 6"}},{"result":{"nanos":9213200,"millis":9.2132,"status":"passed"},"step":{"line":27,"prefix":"And","index":6,"text":"match response contains { \"page\":2, \"per_page\":6,   \"total\": 12, \"total_pages\": 2,}"}}],"executorName":"main","line":19,"name":"Test with params","description":"","durationMillis":164.2401,"startTime":1664129079002,"failed":false,"refId":"[2:19]","endTime":1664129079171,"exampleIndex":-1}],"callDepth":0,"name":"to show the use of Get","description":"","resultDate":"2022-09-25 02:04:39 p.m.","durationMillis":692.5708,"passedCount":1}