{"failedCount":0,"prefixedPath":"src\/test\/java\/Feature\/Get.feature","packageQualifiedName":"src.test.java.Feature.Get","loopIndex":-1,"relativePath":"src\/test\/java\/Feature\/Get.feature","scenarioResults":[{"sectionIndex":0,"stepResults":[{"result":{"nanos":1416400,"millis":1.4164,"status":"passed"},"step":{"background":true,"line":5,"prefix":"*","index":0,"text":"url  'https:\/\/reqres.in\/'"}},{"result":{"nanos":545000,"millis":0.545,"status":"passed"},"step":{"background":true,"line":6,"prefix":"*","index":1,"text":"header Accept = 'application\/json'"}},{"result":{"nanos":208100,"millis":0.2081,"status":"passed"},"step":{"line":9,"prefix":"Given","index":0,"text":"path 'api\/users?page=1'"}},{"result":{"nanos":37780100,"millis":37.7801,"status":"passed"},"step":{"line":10,"prefix":"And","index":1,"text":"print name"},"stepLog":"13:50:19.014 [print] Atul \n"},{"result":{"nanos":646722600,"millis":646.7226,"status":"passed"},"step":{"line":11,"prefix":"When","index":2,"text":"method GET"},"stepLog":"13:50:19.237 request:\n1 > GET https:\/\/reqres.in\/api\/users%3Fpage=1\n1 > Accept: application\/json\n1 > Host: reqres.in\n1 > Connection: Keep-Alive\n1 > User-Agent: Apache-HttpClient\/4.5.12 (Java\/17.0.1)\n1 > Accept-Encoding: gzip,deflate\n\n\n13:50:19.625 response time in milliseconds: 384\n1 < 200\n1 < Date: Sun, 25 Sep 2022 17:50:16 GMT\n1 < Content-Type: application\/json; charset=utf-8\n1 < Transfer-Encoding: chunked\n1 < Connection: keep-alive\n1 < X-Powered-By: Express\n1 < Access-Control-Allow-Origin: *\n1 < Etag: W\/\"2c1-N6Rqerxquq2kgQhL51EiSg4x0R8\"\n1 < Via: 1.1 vegur\n1 < Cache-Control: max-age=14400\n1 < CF-Cache-Status: HIT\n1 < Age: 1257\n1 < Report-To: {\"endpoints\":[{\"url\":\"https:\\\/\\\/a.nel.cloudflare.com\\\/report\\\/v3?s=uI99KsCNahn7Y5rfJNnCCb8AerFtPwlPJxULLStyzphWIXy5nopT68Uexr25EFyjsdWw0HeIt2ApJLjDXEZ5gG%2BOqtOORpm7x6vxml2uyy5%2BRCVQbWIzD0RxPg%3D%3D\"}],\"group\":\"cf-nel\",\"max_age\":604800}\n1 < NEL: {\"success_fraction\":0,\"report_to\":\"cf-nel\",\"max_age\":604800}\n1 < Vary: Accept-Encoding\n1 < Server: cloudflare\n1 < CF-RAY: 750599e708d9a1e4-YYZ\n{\"page\":1,\"per_page\":6,\"total\":12,\"total_pages\":2,\"data\":[{\"id\":1,\"name\":\"cerulean\",\"year\":2000,\"color\":\"#98B2D1\",\"pantone_value\":\"15-4020\"},{\"id\":2,\"name\":\"fuchsia rose\",\"year\":2001,\"color\":\"#C74375\",\"pantone_value\":\"17-2031\"},{\"id\":3,\"name\":\"true red\",\"year\":2002,\"color\":\"#BF1932\",\"pantone_value\":\"19-1664\"},{\"id\":4,\"name\":\"aqua sky\",\"year\":2003,\"color\":\"#7BC4C4\",\"pantone_value\":\"14-4811\"},{\"id\":5,\"name\":\"tigerlily\",\"year\":2004,\"color\":\"#E2583E\",\"pantone_value\":\"17-1456\"},{\"id\":6,\"name\":\"blue turquoise\",\"year\":2005,\"color\":\"#53B0AE\",\"pantone_value\":\"15-5217\"}],\"support\":{\"url\":\"https:\/\/reqres.in\/#support-heading\",\"text\":\"To keep ReqRes free, contributions towards server costs are appreciated!\"}}\n\n"},{"result":{"nanos":25600,"millis":0.0256,"status":"passed"},"step":{"line":12,"prefix":"Then","index":3,"text":"status 200"}},{"result":{"nanos":5877000,"millis":5.877,"status":"passed"},"step":{"line":13,"prefix":"And","index":4,"text":"print response"},"stepLog":"13:50:19.667 [print] {\n  \"page\": 1,\n  \"per_page\": 6,\n  \"total\": 12,\n  \"total_pages\": 2,\n  \"data\": [\n    {\n      \"id\": 1,\n      \"name\": \"cerulean\",\n      \"year\": 2000,\n      \"color\": \"#98B2D1\",\n      \"pantone_value\": \"15-4020\"\n    },\n    {\n      \"id\": 2,\n      \"name\": \"fuchsia rose\",\n      \"year\": 2001,\n      \"color\": \"#C74375\",\n      \"pantone_value\": \"17-2031\"\n    },\n    {\n      \"id\": 3,\n      \"name\": \"true red\",\n      \"year\": 2002,\n      \"color\": \"#BF1932\",\n      \"pantone_value\": \"19-1664\"\n    },\n    {\n      \"id\": 4,\n      \"name\": \"aqua sky\",\n      \"year\": 2003,\n      \"color\": \"#7BC4C4\",\n      \"pantone_value\": \"14-4811\"\n    },\n    {\n      \"id\": 5,\n      \"name\": \"tigerlily\",\n      \"year\": 2004,\n      \"color\": \"#E2583E\",\n      \"pantone_value\": \"17-1456\"\n    },\n    {\n      \"id\": 6,\n      \"name\": \"blue turquoise\",\n      \"year\": 2005,\n      \"color\": \"#53B0AE\",\n      \"pantone_value\": \"15-5217\"\n    }\n  ],\n  \"support\": {\n    \"url\": \"https:\/\/reqres.in\/#support-heading\",\n    \"text\": \"To keep ReqRes free, contributions towards server costs are appreciated!\"\n  }\n}\n \n"},{"result":{"nanos":1227100,"millis":1.2271,"status":"passed"},"step":{"line":14,"prefix":"And","index":5,"text":"def jsonRes = response.total_pages"}},{"result":{"nanos":1237300,"millis":1.2373,"status":"passed"},"step":{"line":15,"prefix":"And","index":6,"text":"print jsonRes"},"stepLog":"13:50:19.670 [print] 2 \n"},{"result":{"nanos":23317600,"millis":23.3176,"status":"passed"},"step":{"line":16,"prefix":"And","index":7,"text":"def jsonRes1 = $.data[2].email"}},{"result":{"nanos":1249500,"millis":1.2495,"status":"passed"},"step":{"line":17,"prefix":"And","index":8,"text":"print jsonRes1"},"stepLog":"13:50:19.694 [print] #notpresent \n"}],"executorName":"main","line":8,"name":"Test with path","description":"","durationMillis":719.6063,"startTime":1664128218862,"failed":false,"refId":"[1:8]","endTime":1664128219695,"exampleIndex":-1},{"sectionIndex":1,"stepResults":[{"result":{"nanos":174600,"millis":0.1746,"status":"passed"},"step":{"background":true,"line":5,"prefix":"*","index":0,"text":"url  'https:\/\/reqres.in\/'"}},{"result":{"nanos":100500,"millis":0.1005,"status":"passed"},"step":{"background":true,"line":6,"prefix":"*","index":1,"text":"header Accept = 'application\/json'"}},{"result":{"nanos":246800,"millis":0.2468,"status":"passed"},"step":{"line":20,"prefix":"Given","index":0,"text":"path 'api\/users'"}},{"result":{"nanos":4222400,"millis":4.2224,"status":"passed"},"step":{"line":21,"prefix":"And","index":1,"text":"param page = 2"}},{"result":{"nanos":215255200,"millis":215.2552,"status":"passed"},"step":{"line":22,"prefix":"When","index":2,"text":"method GET"},"stepLog":"13:50:19.713 request:\n1 > GET https:\/\/reqres.in\/api\/users?page=2\n1 > Accept: application\/json\n1 > Host: reqres.in\n1 > Connection: Keep-Alive\n1 > User-Agent: Apache-HttpClient\/4.5.12 (Java\/17.0.1)\n1 > Accept-Encoding: gzip,deflate\n\n\n13:50:19.921 response time in milliseconds: 208\n1 < 200\n1 < Date: Sun, 25 Sep 2022 17:50:16 GMT\n1 < Content-Type: application\/json; charset=utf-8\n1 < Transfer-Encoding: chunked\n1 < Connection: keep-alive\n1 < X-Powered-By: Express\n1 < Access-Control-Allow-Origin: *\n1 < Etag: W\/\"406-ut0vzoCuidvyMf8arZpMpJ6ZRDw\"\n1 < Via: 1.1 vegur\n1 < Cache-Control: max-age=14400\n1 < CF-Cache-Status: HIT\n1 < Age: 4330\n1 < Report-To: {\"endpoints\":[{\"url\":\"https:\\\/\\\/a.nel.cloudflare.com\\\/report\\\/v3?s=XXFtVLtV1Od3jX97VJsG3GSg8RRQu9T3NCyLx9rhBBt%2FgCG0CZd0l5y4mdE5Roj2uUTbqCIKgpCcUASEbs%2FpJviUio2ff281IdSU0Yw3lnPiR4kc7qgG6C%2BDVw%3D%3D\"}],\"group\":\"cf-nel\",\"max_age\":604800}\n1 < NEL: {\"success_fraction\":0,\"report_to\":\"cf-nel\",\"max_age\":604800}\n1 < Vary: Accept-Encoding\n1 < Server: cloudflare\n1 < CF-RAY: 750599e90c5953f5-YYZ\n{\"page\":2,\"per_page\":6,\"total\":12,\"total_pages\":2,\"data\":[{\"id\":7,\"email\":\"michael.lawson@reqres.in\",\"first_name\":\"Michael\",\"last_name\":\"Lawson\",\"avatar\":\"https:\/\/reqres.in\/img\/faces\/7-image.jpg\"},{\"id\":8,\"email\":\"lindsay.ferguson@reqres.in\",\"first_name\":\"Lindsay\",\"last_name\":\"Ferguson\",\"avatar\":\"https:\/\/reqres.in\/img\/faces\/8-image.jpg\"},{\"id\":9,\"email\":\"tobias.funke@reqres.in\",\"first_name\":\"Tobias\",\"last_name\":\"Funke\",\"avatar\":\"https:\/\/reqres.in\/img\/faces\/9-image.jpg\"},{\"id\":10,\"email\":\"byron.fields@reqres.in\",\"first_name\":\"Byron\",\"last_name\":\"Fields\",\"avatar\":\"https:\/\/reqres.in\/img\/faces\/10-image.jpg\"},{\"id\":11,\"email\":\"george.edwards@reqres.in\",\"first_name\":\"George\",\"last_name\":\"Edwards\",\"avatar\":\"https:\/\/reqres.in\/img\/faces\/11-image.jpg\"},{\"id\":12,\"email\":\"rachel.howell@reqres.in\",\"first_name\":\"Rachel\",\"last_name\":\"Howell\",\"avatar\":\"https:\/\/reqres.in\/img\/faces\/12-image.jpg\"}],\"support\":{\"url\":\"https:\/\/reqres.in\/#support-heading\",\"text\":\"To keep ReqRes free, contributions towards server costs are appreciated!\"}}\n\n"},{"result":{"nanos":13500,"millis":0.0135,"status":"passed"},"step":{"line":23,"prefix":"Then","index":3,"text":"status 200"}},{"result":{"nanos":1589600,"millis":1.5896,"status":"passed"},"step":{"line":24,"prefix":"And","index":4,"text":"print responseStatus"},"stepLog":"13:50:19.925 [print] 200 \n"},{"result":{"nanos":1668800,"millis":1.6688,"status":"passed"},"step":{"line":25,"prefix":"And","index":5,"text":"print responseHeaders"},"stepLog":"13:50:19.927 [print] {\n  \"Date\": [\n    \"Sun, 25 Sep 2022 17:50:16 GMT\"\n  ],\n  \"Content-Type\": [\n    \"application\/json; charset=utf-8\"\n  ],\n  \"Transfer-Encoding\": [\n    \"chunked\"\n  ],\n  \"Connection\": [\n    \"keep-alive\"\n  ],\n  \"X-Powered-By\": [\n    \"Express\"\n  ],\n  \"Access-Control-Allow-Origin\": [\n    \"*\"\n  ],\n  \"Etag\": [\n    \"W\/\\\"406-ut0vzoCuidvyMf8arZpMpJ6ZRDw\\\"\"\n  ],\n  \"Via\": [\n    \"1.1 vegur\"\n  ],\n  \"Cache-Control\": [\n    \"max-age=14400\"\n  ],\n  \"CF-Cache-Status\": [\n    \"HIT\"\n  ],\n  \"Age\": [\n    \"4330\"\n  ],\n  \"Report-To\": [\n    \"{\\\"endpoints\\\":[{\\\"url\\\":\\\"https:\\\\\/\\\\\/a.nel.cloudflare.com\\\\\/report\\\\\/v3?s=XXFtVLtV1Od3jX97VJsG3GSg8RRQu9T3NCyLx9rhBBt%2FgCG0CZd0l5y4mdE5Roj2uUTbqCIKgpCcUASEbs%2FpJviUio2ff281IdSU0Yw3lnPiR4kc7qgG6C%2BDVw%3D%3D\\\"}],\\\"group\\\":\\\"cf-nel\\\",\\\"max_age\\\":604800}\"\n  ],\n  \"NEL\": [\n    \"{\\\"success_fraction\\\":0,\\\"report_to\\\":\\\"cf-nel\\\",\\\"max_age\\\":604800}\"\n  ],\n  \"Vary\": [\n    \"Accept-Encoding\"\n  ],\n  \"Server\": [\n    \"cloudflare\"\n  ],\n  \"CF-RAY\": [\n    \"750599e90c5953f5-YYZ\"\n  ]\n}\n \n"},{"result":{"nanos":11779400,"millis":11.7794,"status":"passed"},"step":{"line":26,"prefix":"And","index":6,"text":"assert response.data.length == 6"}},{"result":{"nanos":10338400,"millis":10.3384,"status":"passed"},"step":{"line":27,"prefix":"And","index":7,"text":"match response contains { \"page\":2, \"per_page\":6,   \"total\": 12, \"total_pages\": 2,}"}}],"executorName":"main","line":19,"name":"Test with params","description":"","durationMillis":245.3892,"startTime":1664128219700,"failed":false,"refId":"[2:19]","endTime":1664128219949,"exampleIndex":-1}],"callDepth":0,"name":"to show the use of Get","description":"","resultDate":"2022-09-25 01:50:19 p.m.","durationMillis":964.9955,"passedCount":2}